{
  "Kolekcje i sztuka": {
    "Antyki i sztuka": {
      "Antyki": [
        {
          "name": "Cena",
          "type": "Range",
          "unit": "zł"
        },
        {
          "name": "Stan",
          "type": "Multiple",
          "values": [
            "Używany",
            "Nowy"
          ]
        },
        {
          "name": "rodzaj",
          "type": "Multiple",
          "values": [
            "Biżuteria",
            "Ceramika",
            "Instrumenty muzyczne",
            "Oświetlenie",
            "Platery, posrebrzane i inne",
            "Pojazdy zabytkowe",
            "Rzeźba",
            "Srebra",
            "Szkło",
            "Zabytki techniki",
            "Zegary, zegarki",
            "Literatura tematu",
            "Pozostałe"
          ]
        },
        {
          "name": "stan",
          "type": "Multiple",
          "values": [
            "do renowacji",
            "po renowacji",
            "niewymagające renowacji"
          ]
        }
      ],
      "Antykwariat": [
        {
          "name": "Cena",
          "type": "Range",
          "unit": "zł"
        },
        {
          "name": "Stan",
          "type": "Multiple",
          "values": [
            "Używany",
            "Nowy"
          ]
        },
        {
          "name": "rodzaj",
          "type": "Multiple",
          "values": [
            "Autografy i rękopisy",
            "Czasopisma do 1950",
            "Czasopisma od 1951 do 1989",
            "Książki do 1950",
            "Książki od 1951 do 1989",
            "Stara fotografia",
            "Stara reklama",
            "Stare dokumenty",
            "Stare grafiki",
            "Stare kalendarze",
            "Stare mapy",
            "Stare plakaty",
            "Stare ulotki",
            "Literatura tematu",
            "Pozostałe"
          ]
        },
        {
          "name": "stan",
          "type": "Multiple",
          "values": [
            "do renowacji",
            "po renowacji",
            "niewymagające renowacji"
          ]
        }
      ],
      "Malarstwo": [
        {
          "name": "Cena",
          "type": "Range",
          "unit": "zł"
        },
        {
          "name": "Stan",
          "type": "Multiple",
          "values": [
            "Używany",
            "Nowy"
          ]
        },
        {
          "name": "rodzaj",
          "type": "Multiple",
          "values": [
            "Olej",
            "Ikony",
            "Akwarele",
            "Akryl",
            "Reprodukcje",
            "Literatura tematu",
            "Pozostałe"
          ]
        },
        {
          "name": "stan",
          "type": "Multiple",
          "values": [
            "do renowacji",
            "po renowacji",
            "niewymagające renowacji"
          ]
        }
      ],
      "Meble": [
        {
          "name": "Cena",
          "type": "Range",
          "unit": "zł"
        },
        {
          "name": "Stan",
          "type": "Multiple",
          "values": [
            "Używany",
            "Nowy"
          ]
        },
        {
          "name": "rodzaj",
          "type": "Multiple",
          "values": [
            "Meble do 1820 roku",
            "Biurka",
            "Biblioteki",
            "Fotele",
            "Krzesła",
            "Komody",
            "Kredensy",
            "Serwantki",
            "Kanapy i sofy",
            "Łóżka",
            "Stoły",
            "Stoliki",
            "Szafy",
            "Szafki",
            "Witryny",
            "Wieszaki",
            "Lustra",
            "Skrzynie i kufry",
            "Skrzynki i szkatułki",
            "Komplety mebli",
            "Elementy i akcesoria",
            "Literatura tematu",
            "Pozostałe"
          ]
        },
        {
          "name": "stan",
          "type": "Multiple",
          "values": [
            "do renowacji",
            "po renowacji",
            "niewymagające renowacji"
          ]
        },
        {
          "name": "typ mebla",
          "type": "Multiple",
          "values": [
            "oryginalny",
            "stylizowany na wzór oryginalnych"
          ]
        }
      ],
      "Porcelana": [
        {
          "name": "Cena",
          "type": "Range",
          "unit": "zł"
        },
        {
          "name": "Stan",
          "type": "Multiple",
          "values": [
            "Używany",
            "Nowy"
          ]
        },
        {
          "name": "rodzaj",
          "type": "Multiple",
          "values": [
            "Antyki do 1850",
            "Miśnia",
            "Rosenthal",
            "Sorau - Żary",
            "Cukiernice i bomboniery",
            "Dzbanki i czajniki",
            "Mleczniki",
            "Filiżanki",
            "Zestawy śniadaniowe",
            "Patery i duże talerze",
            "Talerzyki i podstawki",
            "Kabarety, koszyki, misy, żardiniery",
            "Serwisy - części",
            "Serwisy kompletne",
            "Wazony",
            "Szkatułki i puzdra",
            "Figurki",
            "Inne przedmioty",
            "Literatura tematu"
          ]
        },
        {
          "name": "stan",
          "type": "Multiple",
          "values": [
            "do renowacji",
            "po renowacji",
            "niewymagające renowacji"
          ]
        }
      ],
      "Rysunek": [
        {
          "name": "Cena",
          "type": "Range",
          "unit": "zł"
        },
        {
          "name": "Stan",
          "type": "Multiple",
          "values": [
            "Używany",
            "Nowy"
          ]
        },
        {
          "name": "czas powstania",
          "type": "Multiple",
          "values": [
            "do 1945",
            "po 1945",
            "kopie",
            "literatura"
          ]
        },
        {
          "name": "technika",
          "type": "Multiple",
          "values": [
            "kredka",
            "ołówek",
            "rysunek pędzlem",
            "syngwina",
            "tusz lawowany",
            "węgiel"
          ]
        },
        {
          "name": "tematyka",
          "type": "Multiple",
          "values": [
            "abstrakcja",
            "akt",
            "dziecięcy",
            "historia",
            "malarstwo",
            "martwa natura",
            "marynistyka",
            "mitologia",
            "pejzaż",
            "portret",
            "religia",
            "scena rodzajowa",
            "zwierzęta",
            "inny"
          ]
        },
        {
          "name": "stan",
          "type": "Multiple",
          "values": [
            "do renowacji",
            "po renowacji",
            "niewymagające renowacji"
          ]
        }
      ],
      "Sztuka współczesna": [
        {
          "name": "Cena",
          "type": "Range",
          "unit": "zł"
        },
        {
          "name": "Stan",
          "type": "Multiple",
          "values": [
            "Używany",
            "Nowy"
          ]
        },
        {
          "name": "rodzaj",
          "type": "Multiple",
          "values": [
            "Fotografia",
            "Grafika",
            "Plakat",
            "Rzeźba",
            "Szkło i ceramika",
            "Literatura",
            "Pozostałe"
          ]
        },
        {
          "name": "stan",
          "type": "Multiple",
          "values": [
            "do renowacji",
            "po renowacji",
            "niewymagające renowacji"
          ]
        },
        {
          "name": "oryginał / reprodukcja",
          "type": "Multiple",
          "values": [
            "oryginał",
            "reprodukcja"
          ]
        }
      ],
      "Tkaniny": [
        {
          "name": "Cena",
          "type": "Range",
          "unit": "zł"
        },
        {
          "name": "Stan",
          "type": "Multiple",
          "values": [
            "Używany",
            "Nowy"
          ]
        },
        {
          "name": "rodzaj",
          "type": "Multiple",
          "values": [
            "Dywany",
            "Firany",
            "Gobeliny",
            "Kilimy",
            "Obrusy",
            "Serwety",
            "Zasłony",
            "Literatura",
            "Pozostałe"
          ]
        },
        {
          "name": "stan",
          "type": "Multiple",
          "values": [
            "do renowacji",
            "po renowacji",
            "niewymagające renowacji"
          ]
        }
      ],
      "Akcesoria plastyczne": [
        {
          "name": "Cena",
          "type": "Range",
          "unit": "zł"
        },
        {
          "name": "Stan",
          "type": "Multiple",
          "values": [
            "Używany",
            "Nowy"
          ]
        },
        {
          "name": "rodzaj",
          "type": "Multiple",
          "values": [
            "Grafika",
            "Kaligrafia",
            "Malarstwo",
            "Pozłotnictwo",
            "Ramy i oprawy",
            "Rysunek",
            "Rzeźbiarstwo",
            "Sztalugi",
            "Konserwacja",
            "Zestawy",
            "Pozostałe"
          ]
        },
        {
          "name": "stan",
          "type": "Multiple",
          "values": [
            "do renowacji",
            "po renowacji",
            "niewymagające renowacji"
          ]
        }
      ]
    },
    "Kolekcje": {
      "Filatelistyka": [
        {
          "name": "Cena",
          "type": "Range",
          "unit": "zł"
        },
        {
          "name": "Stan",
          "type": "Multiple",
          "values": [
            "Używany",
            "Nowy"
          ]
        },
        {
          "name": "obszar i rodzaj",
          "type": "Multiple",
          "values": [
            "Afryka",
            "Ameryka Pn i Pd.",
            "Australia i Oceania",
            "Azja",
            "Europa",
            "Polska",
            "Całości i całostki",
            "Tematyczne",
            "Zestawy i zbiory",
            "Literatura",
            "Akcesoria",
            "Pozostałe"
          ]
        },
        {
          "name": "rodzaj",
          "type": "Multiple",
          "values": [
            "czysty",
            "kasowany",
            "mieszany"
          ]
        },
        {
          "name": "klej",
          "type": "Multiple",
          "values": [
            "z klejem",
            "bez kleju"
          ]
        },
        {
          "name": "podlepka",
          "type": "Multiple",
          "values": [
            "z podlepką",
            "bez podlepki"
          ]
        }
      ],
      "Karty telefoniczne": [
        {
          "name": "Cena",
          "type": "Range",
          "unit": "zł"
        },
        {
          "name": "Stan",
          "type": "Multiple",
          "values": [
            "Używany",
            "Nowy"
          ]
        },
        {
          "name": "rodzaj",
          "type": "Multiple",
          "values": [
            "Chipowe",
            "GSM",
            "Komercyjne",
            "Magnetyczne",
            "Pre paid",
            "Zestawy",
            "Pozostałe"
          ]
        },
        {
          "name": "pochodzenie",
          "type": "Multiple",
          "values": [
            "polskie",
            "zagraniczne"
          ]
        }
      ],
      "Medale i odznaczenia": [
        {
          "name": "Cena",
          "type": "Range",
          "unit": "zł"
        },
        {
          "name": "Stan",
          "type": "Multiple",
          "values": [
            "Używany",
            "Nowy"
          ]
        },
        {
          "name": "rodzaj",
          "type": "Multiple",
          "values": [
            "Medale",
            "Odznaczenia",
            "Odznaki",
            "Plakiety",
            "Elementy i akcesoria",
            "Kopie",
            "Literatura"
          ]
        },
        {
          "name": "oryginał",
          "type": "Multiple",
          "values": [
            "oryginał"
          ]
        }
      ],
      "Militaria": [
        {
          "name": "Cena",
          "type": "Range",
          "unit": "zł"
        },
        {
          "name": "Stan",
          "type": "Multiple",
          "values": [
            "Używany",
            "Nowy"
          ]
        },
        {
          "name": "rodzaj",
          "type": "Multiple",
          "values": [
            "Broń biała",
            "Czarnoprochowce",
            "Części amunicji",
            "Części broni",
            "Repliki broni białej",
            "Repliki broni palnej",
            "Dokumenty",
            "Guziki wojskowe",
            "Naszywki",
            "Odznaczenia",
            "Odznaki",
            "Paramilitarne",
            "Rycerstwo",
            "Umundurowanie i Wyposażenie",
            "Zdjęcia",
            "Literatura",
            "Pozostałe"
          ]
        },
        {
          "name": "pochodzenie",
          "type": "Multiple",
          "values": [
            "polskie",
            "zagraniczne"
          ]
        }
      ],
      "Modelarstwo": [
        {
          "name": "Cena",
          "type": "Range",
          "unit": "zł"
        },
        {
          "name": "Stan",
          "type": "Multiple",
          "values": [
            "Używany",
            "Nowy"
          ]
        },
        {
          "name": "rodzaj",
          "type": "Multiple",
          "values": [
            "Figurki",
            "Kolej, dioramy, makiety",
            "Lotnictwo",
            "Modele kartonowe",
            "Motocykle",
            "Plany modelarskie",
            "Pojazdy wojskowe",
            "Samochody",
            "Szkutnictwo",
            "Zdalnie sterowane",
            "Literatura",
            "Materiały modelarskie",
            "Narzędzia modelarskie",
            "Pozostałe"
          ]
        }
      ],
      "Numizmatyka": [
        {
          "name": "Cena",
          "type": "Range",
          "unit": "zł"
        },
        {
          "name": "Stan",
          "type": "Multiple",
          "values": [
            "Używany",
            "Nowy"
          ]
        },
        {
          "name": "rodzaj",
          "type": "Multiple",
          "values": [
            "Afryka",
            "Ameryka Pn. i Pd.",
            "Antyczne",
            "Australia i Oceania",
            "Azja",
            "Europa",
            "Islam",
            "Monety zastępcze",
            "Monety złote do 1800 roku",
            "Polska do 1864",
            "Polska 1916 - 1945",
            "Polska po 1945",
            "Powiązane z Polską",
            "Talary",
            "Tematyczne",
            "Wolne Miasto Gdańsk",
            "Średniowieczne",
            "Akcesoria",
            "Literatura",
            "Pozostałe"
          ]
        }
      ],
      "Pamiątki PRL-u": [
        {
          "name": "Cena",
          "type": "Range",
          "unit": "zł"
        },
        {
          "name": "Stan",
          "type": "Multiple",
          "values": [
            "Używany",
            "Nowy"
          ]
        },
        {
          "name": "rodzaj",
          "type": "Multiple",
          "values": [
            "Artykuły drogeryjne",
            "Bibeloty",
            "Czasopisma i książki",
            "Dokumenty",
            "Medale i odznaczenia",
            "Naczynia i sztućce",
            "Odzież, obuwie, dodatki",
            "Opakowania",
            "Postacie PRL-u",
            "Projektory i przeźrocza",
            "Reklama i propaganda",
            "Sztandary, godła, proporczyki",
            "Tablice informacyjno – ostrzegawcze",
            "Urządzenia",
            "Zabawki",
            "Pozostałe"
          ]
        }
      ],
      "Papiery wartościowe": [
        {
          "name": "Cena",
          "type": "Range",
          "unit": "zł"
        },
        {
          "name": "Stan",
          "type": "Multiple",
          "values": [
            "Używany",
            "Nowy"
          ]
        },
        {
          "name": "rodzaj",
          "type": "Multiple",
          "values": [
            "Ameryka Pn.",
            "Europa",
            "Polska",
            "Weksle, czeki",
            "Kartki zaopatrzeniowe",
            "Losy loteryjne",
            "Polisy i ubezpieczenia",
            "Pozostałe"
          ]
        }
      ],
      "Pieniądz papierowy": [
        {
          "name": "Cena",
          "type": "Range",
          "unit": "zł"
        },
        {
          "name": "Stan",
          "type": "Multiple",
          "values": [
            "Używany",
            "Nowy"
          ]
        },
        {
          "name": "pochodzenie",
          "type": "Multiple",
          "values": [
            "Afryka",
            "Ameryka Pn. i Pd.",
            "Azja",
            "Europa",
            "Polska",
            "Reszta Świata",
            "Pozostałe",
            "Akcesoria"
          ]
        }
      ],
      "Pocztówki": [
        {
          "name": "Cena",
          "type": "Range",
          "unit": "zł"
        },
        {
          "name": "Stan",
          "type": "Multiple",
          "values": [
            "Używany",
            "Nowy"
          ]
        },
        {
          "name": "pochodzenie",
          "type": "Multiple",
          "values": [
            "Centralna Polska",
            "Kresy wschodnie",
            "Lublin i Podlasie",
            "Mazowsze",
            "Małopolska",
            "Pomorze (Pommern)",
            "Warmia i Mazury (Ostpreussen)",
            "Wielkopolska (Grosspolen)",
            "Zielonogórskie i Lubuskie",
            "Śląsk (Schlesien)",
            "Dolny Śląsk (Niederschlesien)",
            "Pozostałe miasta i regiony",
            "Zagraniczne",
            "Tematyczne",
            "Zestawy i kolekcje",
            "Akcesoria",
            "Literatura",
            "Pozostałe"
          ]
        },
        {
          "name": "znaczek",
          "type": "Multiple",
          "values": [
            "tak",
            "nie"
          ]
        },
        {
          "name": "data",
          "type": "Multiple",
          "values": [
            "do 1945",
            "po 1945"
          ]
        },
        {
          "name": "oryginał / reprodukcja",
          "type": "Multiple",
          "values": [
            "oryginał",
            "reprodukcja"
          ]
        },
        {
          "name": "obieg",
          "type": "Multiple",
          "values": [
            "bez obiegu",
            "z obiegu"
          ]
        }
      ],
      "Trafika i birofilistyka": [
        {
          "name": "Cena",
          "type": "Range",
          "unit": "zł"
        },
        {
          "name": "Stan",
          "type": "Multiple",
          "values": [
            "Używany",
            "Nowy"
          ]
        },
        {
          "name": "rodzaj",
          "type": "Multiple",
          "values": [
            "Butelki",
            "Etykiety",
            "Gadżety piwne",
            "Kapsle i porcelanki",
            "Kufle",
            "Otwieracze do butelek",
            "Podstawki",
            "Pokale",
            "Puszki",
            "Akcesoria papierosowe",
            "Cygara i cygaretki",
            "Fajki tradycyjne",
            "Fajki wodne",
            "Tabaka",
            "Zapalniczki",
            "Pozostałe"
          ]
        }
      ],
      "Pozostałe": [
        {
          "name": "Cena",
          "type": "Range",
          "unit": "zł"
        },
        {
          "name": "Stan",
          "type": "Multiple",
          "values": [
            "Używany",
            "Nowy"
          ]
        }
      ]
    },
    "Rękodzieło": {
      "Biżuteria - półprodukty": [
        {
          "name": "Cena",
          "type": "Range",
          "unit": "zł"
        },
        {
          "name": "Stan",
          "type": "Multiple",
          "values": [
            "Używany",
            "Nowy"
          ]
        },
        {
          "name": "rodzaj",
          "type": "Multiple",
          "values": [
            "Bursztyn",
            "Kamienie szlachetne",
            "Kamienie półszlachetne",
            "Kamienie syntetyczne",
            "Kamienie ozdobne",
            "Koraliki akrylowe",
            "Koraliki modułowe",
            "Koraliki naturalne",
            "Koraliki plastikowe",
            "Koraliki porcelanowe",
            "Koraliki szklane",
            "Koraliki welurowe",
            "Koraliki pozostałe",
            "Cekiny",
            "Półfabrykaty",
            "Sutasz",
            "Zestawy do tworzenia biżuterii",
            "Organizery, pojemniki, stojaki",
            "Opakowania, metki",
            "Narzędzia i kleje",
            "Pozostałe"
          ]
        },
        {
          "name": "kolor",
          "type": "Multiple",
          "values": [
            "beże i brązy",
            "biel",
            "błękity",
            "czerń",
            "fiolety",
            "pomarańcze i czerwienie",
            "róże",
            "srebrny",
            "szarości",
            "zielenie",
            "złoty",
            "żółcie",
            "wielokolorowy",
            "inny kolor"
          ]
        },
        {
          "name": "kształt",
          "type": "Multiple",
          "values": [
            "dysk",
            "kostka",
            "kula",
            "kwadrat",
            "okrągły",
            "oponka",
            "owal",
            "walec",
            "łezka",
            "nieregularny",
            "cushion",
            "kaboszon",
            "markiza",
            "oktagon",
            "trylion",
            "inny"
          ]
        }
      ],
      "Decoupage i scrapbooking": [
        {
          "name": "Cena",
          "type": "Range",
          "unit": "zł"
        },
        {
          "name": "Stan",
          "type": "Multiple",
          "values": [
            "Używany",
            "Nowy"
          ]
        },
        {
          "name": "rodzaj",
          "type": "Multiple",
          "values": [
            "Farby i lakiery",
            "Haczyki",
            "Kleje i media",
            "Narzędzia i pędzle",
            "Papiery",
            "Przedmioty do ozdabiania",
            "Serwetki",
            "Stojaki i podstawki",
            "Wzory i szablony",
            "Zatrzaski i uchwyty",
            "Zestawy startowe",
            "Bazy, albumy",
            "Dodatki i ozdoby",
            "Farby, preparaty",
            "Kleje, taśmy klejące",
            "Narzędzia i urządzenia",
            "Papiery, bibuły, tektury",
            "Pianki, filce",
            "Scrapki",
            "Stemple",
            "Szablony, maski, wykrojniki",
            "Tusze, pudry",
            "Wstążki",
            "Pozostałe"
          ]
        }
      ],
      "Dziewiarstwo": [
        {
          "name": "Cena",
          "type": "Range",
          "unit": "zł"
        },
        {
          "name": "Stan",
          "type": "Multiple",
          "values": [
            "Używany",
            "Nowy"
          ]
        },
        {
          "name": "rodzaj",
          "type": "Multiple",
          "values": [
            "Akcesoria hafciarskie",
            "Druty, szydełka, czółenka",
            "Kanwy",
            "Kordonki",
            "Muliny",
            "Przyrządy do pomponów",
            "Tamborki",
            "Włóczki",
            "Pozostałe"
          ]
        }
      ],
      "Filcowanie": [
        {
          "name": "Cena",
          "type": "Range",
          "unit": "zł"
        },
        {
          "name": "Stan",
          "type": "Multiple",
          "values": [
            "Używany",
            "Nowy"
          ]
        },
        {
          "name": "rodzaj",
          "type": "Multiple",
          "values": [
            "Czesanka",
            "Filc",
            "Igły i narzędzia",
            "Kulki filcowe",
            "Wełna do filcowania",
            "Zestawy kreatywne",
            "Pozostałe"
          ]
        }
      ],
      "Masy do modelowania": [
        {
          "name": "Cena",
          "type": "Range",
          "unit": "zł"
        },
        {
          "name": "Stan",
          "type": "Multiple",
          "values": [
            "Używany",
            "Nowy"
          ]
        },
        {
          "name": "rodzaj",
          "type": "Multiple",
          "values": [
            "Formy do odlewów",
            "Masy",
            "Narzędzia do modelowania",
            "Pozostałe"
          ]
        },
        {
          "name": "kolor",
          "type": "Multiple",
          "values": [
            "beże i brązy",
            "biel",
            "błękitny",
            "czerń",
            "fiolety",
            "pomarańcze i czerwienie",
            "róże",
            "srebrny",
            "szarości",
            "zielenie",
            "złoty",
            "żółcie",
            "wielokolorowy",
            "inny"
          ]
        }
      ],
      "Quilling": [
        {
          "name": "Cena",
          "type": "Range",
          "unit": "zł"
        },
        {
          "name": "Stan",
          "type": "Multiple",
          "values": [
            "Używany",
            "Nowy"
          ]
        },
        {
          "name": "rodzaj",
          "type": "Multiple",
          "values": [
            "Grzebienie",
            "Igły i nakładki",
            "Karbownice",
            "Paski",
            "Szablony, podkłady, formy",
            "Zestawy startowe",
            "Pozostałe"
          ]
        }
      ],
      "Szycie": [
        {
          "name": "Cena",
          "type": "Range",
          "unit": "zł"
        },
        {
          "name": "Stan",
          "type": "Multiple",
          "values": [
            "Używany",
            "Nowy"
          ]
        },
        {
          "name": "rodzaj",
          "type": "Multiple",
          "values": [
            "Akcesoria krawieckie",
            "Akcesoria do zabawek",
            "Aplikacje",
            "Barwniki, farby, flamastry",
            "Guziki",
            "Igły",
            "Kleje",
            "Koronki i hafty",
            "Metki, wszywki",
            "Nici",
            "Paski",
            "Sznurki",
            "Taśmy i tasiemki",
            "Tkaniny",
            "Wypełnienia",
            "Zamki",
            "Zapięcia",
            "Pozostałe"
          ]
        }
      ],
      "Literatura": [
        {
          "name": "Cena",
          "type": "Range",
          "unit": "zł"
        },
        {
          "name": "Stan",
          "type": "Multiple",
          "values": [
            "Używany",
            "Nowy"
          ]
        }
      ],
      "Przedmioty ręcznie wykonane": [
        {
          "name": "Cena",
          "type": "Range",
          "unit": "zł"
        },
        {
          "name": "Stan",
          "type": "Multiple",
          "values": [
            "Używany",
            "Nowy"
          ]
        },
        {
          "name": "rodzaj",
          "type": "Multiple",
          "values": [
            "Biżuteria, galanteria, dodatki",
            "Kartki, zaproszenia, podziękowania",
            "Odzież",
            "Ozdoby świąteczne",
            "Tekstylia",
            "Wyposażenie domu",
            "Zabawki i figurki kolekcjonerskie",
            "Zakładki do książek",
            "Pozostałe"
          ]
        },
        {
          "name": "technika wykonania",
          "type": "Multiple",
          "values": [
            "decoupage",
            "druty",
            "frywolitka",
            "haft",
            "masa termoutwardzalna",
            "origami",
            "quilling",
            "rzeźba",
            "scrapbooking",
            "sutasz",
            "szycie maszynowe",
            "szycie ręczne",
            "szydełko",
            "wikliniarstwo",
            "wire wrapping",
            "inny"
          ]
        },
        {
          "name": "okazja",
          "type": "Multiple",
          "values": [
            "Boże Narodzenie",
            "chrzest",
            "Dziadka",
            "Dzień Babci",
            "Dzień Chłopaka",
            "Dzień Kobiet",
            "Dzień Matki",
            "Dzień Nauczyciela",
            "Dzień Ojca",
            "gratulacje",
            "imieniny",
            "jubileusz",
            "Komunia",
            "kondolencje",
            "narodziny",
            "rocznica",
            "ślub",
            "urodziny",
            "walentynki",
            "Wielkanoc",
            "inna",
            "brak"
          ]
        }
      ],
      "Pozostałe": [
        {
          "name": "Cena",
          "type": "Range",
          "unit": "zł"
        },
        {
          "name": "Stan",
          "type": "Multiple",
          "values": [
            "Używany",
            "Nowy"
          ]
        }
      ]
    },
    "Produkty inwestycyjne": {
      "Diamenty": [
        {
          "name": "Cena",
          "type": "Range",
          "unit": "zł"
        },
        {
          "name": "Stan",
          "type": "Multiple",
          "values": [
            "Używany",
            "Nowy"
          ]
        },
        {
          "name": "barwa",
          "type": "Multiple",
          "values": [
            "D",
            "E",
            "F",
            "G",
            "H",
            "I",
            "J",
            "K",
            "L",
            "M",
            "N",
            "O",
            "P",
            "Q",
            "R",
            "S-Z"
          ]
        },
        {
          "name": "czystość",
          "type": "Multiple",
          "values": [
            "SI1",
            "LC",
            "FL",
            "IF",
            "VVS1",
            "VVS2",
            "VS1",
            "VS2",
            "SI2",
            "P1",
            "P2",
            "P3"
          ]
        },
        {
          "name": "szlif",
          "type": "Multiple",
          "values": [
            "bardzo dobry",
            "dobry",
            "średni"
          ]
        },
        {
          "name": "certyfikat",
          "type": "Multiple",
          "values": [
            "Gemological Institute of America",
            "HRD Antwerp",
            "International Gemological Institute"
          ]
        }
      ],
      "Platyna": [
        {
          "name": "Cena",
          "type": "Range",
          "unit": "zł"
        },
        {
          "name": "Stan",
          "type": "Multiple",
          "values": [
            "Używany",
            "Nowy"
          ]
        }
      ],
      "Srebro": [
        {
          "name": "Cena",
          "type": "Range",
          "unit": "zł"
        },
        {
          "name": "Stan",
          "type": "Multiple",
          "values": [
            "Używany",
            "Nowy"
          ]
        },
        {
          "name": "rodzaj",
          "type": "Multiple",
          "values": [
            "Monety inwestycyjne",
            "Monety kolekcjonerskie",
            "Sztabki"
          ]
        }
      ],
      "Złoto": [
        {
          "name": "Cena",
          "type": "Range",
          "unit": "zł"
        },
        {
          "name": "Stan",
          "type": "Multiple",
          "values": [
            "Używany",
            "Nowy"
          ]
        },
        {
          "name": "rodzaj",
          "type": "Multiple",
          "values": [
            "Monety inwestycyjne",
            "Monety kolekcjonerskie",
            "Sztabki"
          ]
        }
      ]
    }
  }
}