{
  "Nieruchomości": {
    "Mieszkanie": [
      {
        "name": "Cena",
        "type": "Range",
        "unit": "zł"
      },
      {
        "name": "Stan",
        "type": "Multiple",
        "values": [
          "Używany",
          "Nowy",
          "bardzo dobry",
          "dobry",
          "do odświeżenia",
          "do remontu",
          "do wykończenia",
          "po remoncie",
          "rozpoczęta budowa",
          "surowy otwarty",
          "surowy zamknięty",
          "bez białego montażu i podłóg",
          "wysoki standard"
        ]
      },
      {
        "name": "Rodzaj ogłoszenia",
        "type": "Multiple",
        "values": [
          "Sprzedam",
          "Wynajmę"
        ]
      },
      {
        "name": "Udogodnienia",
        "type": "Multiple",
        "values": [
          "Balkon",
          "Domofon",
          "Klimatyzacja",
          "Kuchnia umeblowana",
          "Ogródek",
          "Osiedle zamknięte",
          "Piwnica",
          "Poddasze",
          "Taras",
          "Umeblowane",
          "Winda",
          "Miejsce parkingowe",
          "Wielopoziomowe",
          "Ostatnie piętro"
        ]
      },
      {
        "name": "Materiał budynku",
        "type": "Multiple",
        "values": [
          "cegła",
          "suporex",
          "rama H",
          "bloczki",
          "kamień",
          "zróżnicowany",
          "pustak",
          "drewno",
          "beton",
          "wielka płyta"
        ]
      },
      {
        "name": "Forma własności",
        "type": "Multiple",
        "values": [
          "własność",
          "spółdzielcze-lokatorskie",
          "udział",
          "spółdzielcze-własnościowe",
          "wieczyste użytkowanie",
          "spół.-własnościowe z KW"
        ]
      },
      {
        "name": "Typ budynku",
        "type": "Multiple",
        "values": [
          "apartamentowiec",
          "blok",
          "dom wielorodzinny",
          "kamienica"
        ]
      },
      {
        "name": "Stan nieruchomości",
        "type": "Multiple",
        "values": [
          "bardzo dobry",
          "dobry",
          "do odświeżenia",
          "do remontu",
          "do rozbiórki",
          "do wykończenia",
          "po remoncie",
          "rozpoczęta budowa",
          "surowy otwarty",
          "surowy zamknięty",
          "bez białego montażu i podłóg",
          "wysoki standard"
        ]
      },
      {
        "name": "Typ kuchni",
        "type": "Multiple",
        "values": [
          "aneks",
          "prześwit",
          "wnęka",
          "brak",
          "otwarta",
          "półotwarta",
          "osobna"
        ]
      },
      {
        "name": "Łazienka i WC",
        "type": "Multiple",
        "values": [
          "razem",
          "osobno"
        ]
      },
      {
        "name": "Ogrzewanie",
        "type": "Multiple",
        "values": [
          "klimatyzacja",
          "zróżnicowane",
          "miejskie",
          "węglowe",
          "brak",
          "biomasa",
          "olejowe",
          "geotermika",
          "elektryczne",
          "kominkowe",
          "podłogowe",
          "gazowe",
          "słoneczne"
        ]
      },
      {
        "name": "Miejsce parkingowe",
        "type": "Multiple",
        "values": [
          "brak",
          "garaż",
          "na ulicy",
          "parking podziemny",
          "parking naziemny"
        ]
      },
      {
        "name": "Rynek",
        "type": "Multiple",
        "values": [
          "Pierwotny",
          "Wtórny"
        ]
      },
      {
        "name": "Media",
        "type": "Multiple",
        "values": [
          "Siła",
          "Gaz",
          "Telefon",
          "Internet"
        ]
      },
      {
        "name": "Dostępne od",
        "type": "Range"
      }
    ],
    "Dom": [
      {
        "name": "Cena",
        "type": "Range",
        "unit": "zł"
      },
      {
        "name": "Stan",
        "type": "Multiple",
        "values": [
          "Używany",
          "Nowy",
          "bardzo dobry",
          "dobry",
          "do odświeżenia",
          "do remontu",
          "do wykończenia",
          "po remoncie",
          "rozpoczęta budowa",
          "surowy otwarty",
          "surowy zamknięty",
          "bez białego montażu i podłóg",
          "wysoki standard"
        ]
      },
      {
        "name": "Rodzaj ogłoszenia",
        "type": "Multiple",
        "values": [
          "Sprzedam",
          "Wynajmę"
        ]
      },
      {
        "name": "Udogodnienia",
        "type": "Multiple",
        "values": [
          "Balkon",
          "Domofon",
          "Klimatyzacja",
          "Kuchnia umeblowana",
          "Ogródek",
          "Piwnica",
          "Poddasze",
          "Taras",
          "Umeblowane",
          "Miejsce parkingowe",
          "Siła",
          "Woda",
          "Gaz"
        ]
      },
      {
        "name": "Materiał budynku",
        "type": "Multiple",
        "values": [
          "cegła",
          "suporex",
          "rama H",
          "bloczki",
          "kamień",
          "zróżnicowany",
          "pustak",
          "drewno",
          "beton",
          "wielka płyta"
        ]
      },
      {
        "name": "Forma własności",
        "type": "Multiple",
        "values": [
          "własność",
          "spółdzielcze-lokatorskie",
          "udział",
          "spółdzielcze-własnościowe",
          "wieczyste użytkowanie",
          "spół.-własnościowe z KW"
        ]
      },
      {
        "name": "Typ budynku",
        "type": "Multiple",
        "values": [
          "apartamentowiec",
          "blok",
          "dom wielorodzinny",
          "kamienica"
        ]
      },
      {
        "name": "Stan nieruchomości",
        "type": "Multiple",
        "values": [
          "bardzo dobry",
          "dobry",
          "do odświeżenia",
          "do remontu",
          "do rozbiórki",
          "do wykończenia",
          "po remoncie",
          "rozpoczęta budowa",
          "surowy otwarty",
          "surowy zamknięty",
          "bez białego montażu i podłóg",
          "wysoki standard"
        ]
      },
      {
        "name": "Kanalizacja",
        "type": "Multiple",
        "values": [
          "miejska",
          "szambo",
          "brak",
          "oczyszczalnia"
        ]
      },
      {
        "name": "Typ kuchni",
        "type": "Multiple",
        "values": [
          "aneks",
          "prześwit",
          "wnęka",
          "brak",
          "otwarta",
          "półotwarta",
          "osobna"
        ]
      },
      {
        "name": "Łazienka i WC",
        "type": "Multiple",
        "values": [
          "razem",
          "osobno"
        ]
      },
      {
        "name": "Ogrzewanie",
        "type": "Multiple",
        "values": [
          "klimatyzacja",
          "zróżnicowane",
          "miejskie",
          "węglowe",
          "brak",
          "biomasa",
          "olejowe",
          "geotermika",
          "elektryczne",
          "kominkowe",
          "podłogowe",
          "gazowe",
          "słoneczne"
        ]
      },
      {
        "name": "Pokrycie dachu",
        "type": "Multiple",
        "values": [
          "płaski",
          "papa",
          "łupek",
          "gont",
          "eternit",
          "dachówka",
          "blacha",
          "brak",
          "łamany",
          "strzecha"
        ]
      },
      {
        "name": "Ogrodzenie",
        "type": "Multiple",
        "values": [
          "murowane",
          "drewniane",
          "siatka",
          "brak",
          "żywopłot",
          "metalowe/kute",
          "inne",
          "betonowe"
        ]
      },
      {
        "name": "Droga dojazdowa",
        "type": "Multiple",
        "values": [
          "asfaltowa/betonowa",
          "brak",
          "utwardzona",
          "nieutwardzona"
        ]
      },
      {
        "name": "Miejsce parkingowe",
        "type": "Multiple",
        "values": [
          "brak",
          "garaż",
          "na ulicy",
          "parking podziemny",
          "parking naziemny"
        ]
      },
      {
        "name": "Rynek",
        "type": "Multiple",
        "values": [
          "Pierwotny",
          "Wtórny"
        ]
      },
      {
        "name": "Media",
        "type": "Multiple",
        "values": [
          "Prąd",
          "Siła",
          "Woda",
          "Gaz",
          "Telefon",
          "Internet"
        ]
      }
    ],
    "Działka": [
      {
        "name": "Cena",
        "type": "Range",
        "unit": "zł"
      },
      {
        "name": "Stan",
        "type": "Multiple",
        "values": [
          "Używany",
          "Nowy",
          "bardzo dobry",
          "dobry",
          "do odświeżenia",
          "do remontu",
          "do wykończenia",
          "po remoncie",
          "rozpoczęta budowa",
          "surowy otwarty",
          "surowy zamknięty",
          "bez białego montażu i podłóg",
          "wysoki standard"
        ]
      },
      {
        "name": "Rodzaj ogłoszenia",
        "type": "Multiple",
        "values": [
          "Sprzedam",
          "Wynajmę"
        ]
      },
      {
        "name": "Typ działki",
        "type": "Multiple",
        "values": [
          "Rolna",
          "Budowlana",
          "Budowlana-jednorodzinna",
          "Budowlana-wielorodzinna",
          "Leśna",
          "Rekreacyjna",
          "Siedlisko",
          "Przemysłowa",
          "Handlowo-usługowa"
        ]
      },
      {
        "name": "Udogodnienia",
        "type": "Multiple",
        "values": [
          "Kanalizacja miejska",
          "Prąd",
          "Siła",
          "Woda",
          "Gaz",
          "Telefon",
          "Internet"
        ]
      },
      {
        "name": "Kanalizacja",
        "type": "Multiple",
        "values": [
          "miejska",
          "szambo",
          "brak",
          "oczyszczalnia"
        ]
      },
      {
        "name": "Ogrodzenie",
        "type": "Multiple",
        "values": [
          "murowane",
          "drewniane",
          "siatka",
          "brak",
          "żywopłot",
          "metalowe/kute",
          "inne",
          "betonowe"
        ]
      },
      {
        "name": "Droga dojazdowa",
        "type": "Multiple",
        "values": [
          "asfaltowa/betonowa",
          "brak",
          "utwardzona",
          "nieutwardzona"
        ]
      },
      {
        "name": "Media",
        "type": "Multiple",
        "values": [
          "Prąd",
          "Siła",
          "Woda",
          "Gaz",
          "Telefon",
          "Internet"
        ]
      }
    ],
    "Komercyjne": {
      "Biuro": {
        "Biuro": [
          {
            "name": "Cena",
            "type": "Range",
            "unit": "zł"
          },
          {
            "name": "Stan",
            "type": "Multiple",
            "values": [
              "Używany",
              "Nowy",
              "bardzo dobry",
              "dobry",
              "do odświeżenia",
              "do remontu",
              "do wykończenia",
              "po remoncie",
              "rozpoczęta budowa",
              "surowy otwarty",
              "surowy zamknięty",
              "bez białego montażu i podłóg",
              "wysoki standard"
            ]
          },
          {
            "name": "Rodzaj ogłoszenia",
            "type": "Multiple",
            "values": [
              "Sprzedam",
              "Wynajmę"
            ]
          },
          {
            "name": "Udogodnienia",
            "type": "Multiple",
            "values": [
              "Recepcja",
              "Klimatyzacja",
              "Winda",
              "Garaż",
              "Parking"
            ]
          },
          {
            "name": "Forma własności",
            "type": "Multiple",
            "values": [
              "własność",
              "spółdzielcze-lokatorskie",
              "udział",
              "spółdzielcze-własnościowe",
              "wieczyste użytkowanie",
              "spół.-własnościowe z KW"
            ]
          },
          {
            "name": "Stan nieruchomości",
            "type": "Multiple",
            "values": [
              "bardzo dobry",
              "dobry",
              "do remontu",
              "do rozbiórki",
              "rozpoczęta budowa",
              "surowy otwarty",
              "surowy zamknięty",
              "do wykończenia",
              "po remoncie"
            ]
          },
          {
            "name": "Kanalizacja",
            "type": "Multiple",
            "values": [
              "miejska",
              "szambo",
              "brak",
              "oczyszczalnia"
            ]
          },
          {
            "name": "Ogrzewanie",
            "type": "Multiple",
            "values": [
              "klimatyzacja",
              "zróżnicowane",
              "miejskie",
              "węglowe",
              "brak",
              "biomasa",
              "olejowe",
              "geotermika",
              "elektryczne",
              "kominkowe",
              "podłogowe",
              "gazowe",
              "słoneczne"
            ]
          },
          {
            "name": "Ogrodzenie",
            "type": "Multiple",
            "values": [
              "murowane",
              "drewniane",
              "siatka",
              "brak",
              "żywopłot",
              "metalowe/kute",
              "inne",
              "betonowe"
            ]
          },
          {
            "name": "Droga dojazdowa",
            "type": "Multiple",
            "values": [
              "asfaltowa/betonowa",
              "brak",
              "utwardzona",
              "nieutwardzona"
            ]
          },
          {
            "name": "Miejsce parkingowe",
            "type": "Multiple",
            "values": [
              "brak",
              "garaż",
              "na ulicy",
              "parking podziemny",
              "parking naziemny"
            ]
          },
          {
            "name": "Media",
            "type": "Multiple",
            "values": [
              "Prąd",
              "Siła",
              "Woda",
              "Gaz",
              "Telefon",
              "Internet"
            ]
          }
        ],
        "Biurowiec": [
          {
            "name": "Cena",
            "type": "Range",
            "unit": "zł"
          },
          {
            "name": "Stan",
            "type": "Multiple",
            "values": [
              "Używany",
              "Nowy",
              "bardzo dobry",
              "dobry",
              "do odświeżenia",
              "do remontu",
              "do wykończenia",
              "po remoncie",
              "rozpoczęta budowa",
              "surowy otwarty",
              "surowy zamknięty",
              "bez białego montażu i podłóg",
              "wysoki standard"
            ]
          },
          {
            "name": "Rodzaj ogłoszenia",
            "type": "Multiple",
            "values": [
              "Sprzedam",
              "Wynajmę"
            ]
          },
          {
            "name": "Udogodnienia",
            "type": "Multiple",
            "values": [
              "Recepcja",
              "Klimatyzacja",
              "Winda",
              "Garaż",
              "Parking"
            ]
          },
          {
            "name": "Stan nieruchomości",
            "type": "Multiple",
            "values": [
              "bardzo dobry",
              "dobry",
              "do remontu",
              "do rozbiórki",
              "rozpoczęta budowa",
              "surowy otwarty",
              "surowy zamknięty",
              "do wykończenia",
              "po remoncie"
            ]
          }
        ],
        "Sala konferencyjna": [
          {
            "name": "Cena",
            "type": "Range",
            "unit": "zł"
          },
          {
            "name": "Stan",
            "type": "Multiple",
            "values": [
              "Używany",
              "Nowy",
              "bardzo dobry",
              "dobry",
              "do odświeżenia",
              "do remontu",
              "do wykończenia",
              "po remoncie",
              "rozpoczęta budowa",
              "surowy otwarty",
              "surowy zamknięty",
              "bez białego montażu i podłóg",
              "wysoki standard"
            ]
          },
          {
            "name": "Rodzaj ogłoszenia",
            "type": "Multiple",
            "values": [
              "Sprzedam",
              "Wynajmę"
            ]
          },
          {
            "name": "Udogodnienia",
            "type": "Multiple",
            "values": [
              "Recepcja",
              "Klimatyzacja",
              "Winda",
              "Garaż",
              "Parking"
            ]
          },
          {
            "name": "Forma własności",
            "type": "Multiple",
            "values": [
              "własność",
              "spółdzielcze-lokatorskie",
              "udział",
              "spółdzielcze-własnościowe",
              "wieczyste użytkowanie",
              "spół.-własnościowe z KW"
            ]
          },
          {
            "name": "Stan nieruchomości",
            "type": "Multiple",
            "values": [
              "bardzo dobry",
              "dobry",
              "do remontu",
              "do rozbiórki",
              "rozpoczęta budowa",
              "surowy otwarty",
              "surowy zamknięty",
              "do wykończenia",
              "po remoncie"
            ]
          },
          {
            "name": "Kanalizacja",
            "type": "Multiple",
            "values": [
              "miejska",
              "szambo",
              "brak",
              "oczyszczalnia"
            ]
          },
          {
            "name": "Ogrzewanie",
            "type": "Multiple",
            "values": [
              "klimatyzacja",
              "zróżnicowane",
              "miejskie",
              "węglowe",
              "brak",
              "biomasa",
              "olejowe",
              "geotermika",
              "elektryczne",
              "kominkowe",
              "podłogowe",
              "gazowe",
              "słoneczne"
            ]
          },
          {
            "name": "Ogrodzenie",
            "type": "Multiple",
            "values": [
              "murowane",
              "drewniane",
              "siatka",
              "brak",
              "żywopłot",
              "metalowe/kute",
              "inne",
              "betonowe"
            ]
          },
          {
            "name": "Droga dojazdowa",
            "type": "Multiple",
            "values": [
              "asfaltowa/betonowa",
              "brak",
              "utwardzona",
              "nieutwardzona"
            ]
          },
          {
            "name": "Miejsce parkingowe",
            "type": "Multiple",
            "values": [
              "brak",
              "garaż",
              "na ulicy",
              "parking podziemny",
              "parking naziemny"
            ]
          },
          {
            "name": "Media",
            "type": "Multiple",
            "values": [
              "Prąd",
              "Siła",
              "Woda",
              "Gaz",
              "Telefon",
              "Internet"
            ]
          }
        ]
      },
      "Lokale użytkowe": [
        {
          "name": "Cena",
          "type": "Range",
          "unit": "zł"
        },
        {
          "name": "Stan",
          "type": "Multiple",
          "values": [
            "Używany",
            "Nowy",
            "bardzo dobry",
            "dobry",
            "do odświeżenia",
            "do remontu",
            "do wykończenia",
            "po remoncie",
            "rozpoczęta budowa",
            "surowy otwarty",
            "surowy zamknięty",
            "bez białego montażu i podłóg",
            "wysoki standard"
          ]
        },
        {
          "name": "Kategorie",
          "type": "Multiple",
          "values": [
            "Lokal gastronomiczny",
            "Lokal handlowy",
            "Lokal usługowy"
          ]
        },
        {
          "name": "Rodzaj ogłoszenia",
          "type": "Multiple",
          "values": [
            "Sprzedam",
            "Wynajmę"
          ]
        },
        {
          "name": "Udogodnienia",
          "type": "Multiple",
          "values": [
            "Recepcja",
            "Klimatyzacja",
            "Winda",
            "Garaż",
            "Parking"
          ]
        },
        {
          "name": "Materiał budynku",
          "type": "Multiple",
          "values": [
            "cegła",
            "suporex",
            "rama H",
            "bloczki",
            "kamień",
            "zróżnicowany",
            "pustak",
            "drewno",
            "beton",
            "wielka płyta"
          ]
        },
        {
          "name": "Forma własności",
          "type": "Multiple",
          "values": [
            "własność",
            "spółdzielcze-lokatorskie",
            "udział",
            "spółdzielcze-własnościowe",
            "wieczyste użytkowanie",
            "spół.-własnościowe z KW"
          ]
        },
        {
          "name": "Stan nieruchomości",
          "type": "Multiple",
          "values": [
            "bardzo dobry",
            "dobry",
            "do remontu",
            "do rozbiórki",
            "rozpoczęta budowa",
            "surowy otwarty",
            "surowy zamknięty",
            "do wykończenia",
            "po remoncie"
          ]
        },
        {
          "name": "Kanalizacja",
          "type": "Multiple",
          "values": [
            "miejska",
            "szambo",
            "brak",
            "oczyszczalnia"
          ]
        },
        {
          "name": "Ogrzewanie",
          "type": "Multiple",
          "values": [
            "klimatyzacja",
            "zróżnicowane",
            "miejskie",
            "węglowe",
            "brak",
            "biomasa",
            "olejowe",
            "geotermika",
            "elektryczne",
            "kominkowe",
            "podłogowe",
            "gazowe",
            "słoneczne"
          ]
        },
        {
          "name": "Ogrodzenie",
          "type": "Multiple",
          "values": [
            "murowane",
            "drewniane",
            "siatka",
            "brak",
            "żywopłot",
            "metalowe/kute",
            "inne",
            "betonowe"
          ]
        },
        {
          "name": "Droga dojazdowa",
          "type": "Multiple",
          "values": [
            "asfaltowa/betonowa",
            "brak",
            "utwardzona",
            "nieutwardzona"
          ]
        },
        {
          "name": "Miejsce parkingowe",
          "type": "Multiple",
          "values": [
            "brak",
            "garaż",
            "na ulicy",
            "parking podziemny",
            "parking naziemny"
          ]
        },
        {
          "name": "Media",
          "type": "Multiple",
          "values": [
            "Prąd",
            "Siła",
            "Woda",
            "Gaz",
            "Telefon",
            "Internet"
          ]
        }
      ],
      "Grunt": [
        {
          "name": "Cena",
          "type": "Range",
          "unit": "zł"
        },
        {
          "name": "Stan",
          "type": "Multiple",
          "values": [
            "Używany",
            "Nowy",
            "bardzo dobry",
            "dobry",
            "do odświeżenia",
            "do remontu",
            "do wykończenia",
            "po remoncie",
            "rozpoczęta budowa",
            "surowy otwarty",
            "surowy zamknięty",
            "bez białego montażu i podłóg",
            "wysoki standard"
          ]
        },
        {
          "name": "Kategorie",
          "type": "Multiple",
          "values": [
            "Budowlany",
            "Rolny",
            "Leśny",
            "Gospodarstwo rolne",
            "Przemysłowy",
            "Handlowo-usługowy"
          ]
        },
        {
          "name": "Rodzaj ogłoszenia",
          "type": "Multiple",
          "values": [
            "Sprzedam",
            "Wynajmę"
          ]
        },
        {
          "name": "Udogodnienia",
          "type": "Multiple",
          "values": [
            "Kanalizacja miejska",
            "Prąd",
            "Gaz",
            "Siła",
            "Woda"
          ]
        },
        {
          "name": "Kanalizacja",
          "type": "Multiple",
          "values": [
            "miejska",
            "szambo",
            "brak",
            "oczyszczalnia"
          ]
        },
        {
          "name": "Ogrodzenie",
          "type": "Multiple",
          "values": [
            "murowane",
            "drewniane",
            "siatka",
            "brak",
            "żywopłot",
            "metalowe/kute",
            "inne",
            "betonowe"
          ]
        },
        {
          "name": "Droga dojazdowa",
          "type": "Multiple",
          "values": [
            "asfaltowa/betonowa",
            "brak",
            "utwardzona",
            "nieutwardzona"
          ]
        },
        {
          "name": "Media",
          "type": "Multiple",
          "values": [
            "Prąd",
            "Siła",
            "Woda",
            "Gaz",
            "Telefon",
            "Internet"
          ]
        }
      ],
      "Hotel, pensjonat": [
        {
          "name": "Cena",
          "type": "Range",
          "unit": "zł"
        },
        {
          "name": "Stan",
          "type": "Multiple",
          "values": [
            "Używany",
            "Nowy",
            "bardzo dobry",
            "dobry",
            "do odświeżenia",
            "do remontu",
            "do wykończenia",
            "po remoncie",
            "rozpoczęta budowa",
            "surowy otwarty",
            "surowy zamknięty",
            "bez białego montażu i podłóg",
            "wysoki standard"
          ]
        },
        {
          "name": "Kategorie",
          "type": "Multiple",
          "values": [
            "Hotel",
            "Ośrodek wypoczynkowy",
            "Pensjonat"
          ]
        },
        {
          "name": "Rodzaj ogłoszenia",
          "type": "Multiple",
          "values": [
            "Sprzedam",
            "Wynajmę"
          ]
        },
        {
          "name": "Udogodnienia",
          "type": "Multiple",
          "values": [
            "Recepcja",
            "Klimatyzacja",
            "Winda",
            "Garaż",
            "Parking"
          ]
        },
        {
          "name": "Materiał budynku",
          "type": "Multiple",
          "values": [
            "cegła",
            "suporex",
            "rama H",
            "bloczki",
            "kamień",
            "zróżnicowany",
            "pustak",
            "drewno",
            "beton",
            "wielka płyta"
          ]
        },
        {
          "name": "Forma własności",
          "type": "Multiple",
          "values": [
            "własność",
            "spółdzielcze-lokatorskie",
            "udział",
            "spółdzielcze-własnościowe",
            "wieczyste użytkowanie",
            "spół.-własnościowe z KW"
          ]
        },
        {
          "name": "Stan nieruchomości",
          "type": "Multiple",
          "values": [
            "bardzo dobry",
            "dobry",
            "do remontu",
            "do rozbiórki",
            "rozpoczęta budowa",
            "surowy otwarty",
            "surowy zamknięty",
            "do wykończenia",
            "po remoncie"
          ]
        },
        {
          "name": "Kanalizacja",
          "type": "Multiple",
          "values": [
            "miejska",
            "szambo",
            "brak",
            "oczyszczalnia"
          ]
        },
        {
          "name": "Ogrzewanie",
          "type": "Multiple",
          "values": [
            "klimatyzacja",
            "zróżnicowane",
            "miejskie",
            "węglowe",
            "brak",
            "biomasa",
            "olejowe",
            "geotermika",
            "elektryczne",
            "kominkowe",
            "podłogowe",
            "gazowe",
            "słoneczne"
          ]
        },
        {
          "name": "Ogrodzenie",
          "type": "Multiple",
          "values": [
            "murowane",
            "drewniane",
            "siatka",
            "brak",
            "żywopłot",
            "metalowe/kute",
            "inne",
            "betonowe"
          ]
        },
        {
          "name": "Droga dojazdowa",
          "type": "Multiple",
          "values": [
            "asfaltowa/betonowa",
            "brak",
            "utwardzona",
            "nieutwardzona"
          ]
        },
        {
          "name": "Miejsce parkingowe",
          "type": "Multiple",
          "values": [
            "brak",
            "garaż",
            "na ulicy",
            "parking podziemny",
            "parking naziemny"
          ]
        },
        {
          "name": "Media",
          "type": "Multiple",
          "values": [
            "Prąd",
            "Siła",
            "Woda",
            "Gaz",
            "Telefon",
            "Internet"
          ]
        }
      ],
      "Magazyn, hala": [
        {
          "name": "Cena",
          "type": "Range",
          "unit": "zł"
        },
        {
          "name": "Stan",
          "type": "Multiple",
          "values": [
            "Używany",
            "Nowy",
            "bardzo dobry",
            "dobry",
            "do odświeżenia",
            "do remontu",
            "do wykończenia",
            "po remoncie",
            "rozpoczęta budowa",
            "surowy otwarty",
            "surowy zamknięty",
            "bez białego montażu i podłóg",
            "wysoki standard"
          ]
        },
        {
          "name": "Kategorie",
          "type": "Multiple",
          "values": [
            "Centrum dystrybucyjne",
            "Hala",
            "Magazyn"
          ]
        },
        {
          "name": "Rodzaj ogłoszenia",
          "type": "Multiple",
          "values": [
            "Sprzedam",
            "Wynajmę"
          ]
        },
        {
          "name": "Udogodnienia",
          "type": "Multiple",
          "values": [
            "Klimatyzacja",
            "Rampa",
            "Doki przeładunkowe"
          ]
        },
        {
          "name": "Forma własności",
          "type": "Multiple",
          "values": [
            "własność",
            "spółdzielcze-lokatorskie",
            "udział",
            "spółdzielcze-własnościowe",
            "wieczyste użytkowanie",
            "spół.-własnościowe z KW"
          ]
        },
        {
          "name": "Stan nieruchomości",
          "type": "Multiple",
          "values": [
            "bardzo dobry",
            "dobry",
            "do remontu",
            "do rozbiórki",
            "rozpoczęta budowa",
            "surowy otwarty",
            "surowy zamknięty",
            "do wykończenia",
            "po remoncie"
          ]
        },
        {
          "name": "Kanalizacja",
          "type": "Multiple",
          "values": [
            "miejska",
            "szambo",
            "brak",
            "oczyszczalnia"
          ]
        },
        {
          "name": "Ogrzewanie",
          "type": "Multiple",
          "values": [
            "klimatyzacja",
            "zróżnicowane",
            "miejskie",
            "węglowe",
            "brak",
            "biomasa",
            "olejowe",
            "geotermika",
            "elektryczne",
            "kominkowe",
            "podłogowe",
            "gazowe",
            "słoneczne"
          ]
        },
        {
          "name": "Ogrodzenie",
          "type": "Multiple",
          "values": [
            "murowane",
            "drewniane",
            "siatka",
            "brak",
            "żywopłot",
            "metalowe/kute",
            "inne",
            "betonowe"
          ]
        },
        {
          "name": "Droga dojazdowa",
          "type": "Multiple",
          "values": [
            "asfaltowa/betonowa",
            "brak",
            "utwardzona",
            "nieutwardzona"
          ]
        },
        {
          "name": "Miejsce parkingowe",
          "type": "Multiple",
          "values": [
            "brak",
            "garaż",
            "na ulicy",
            "parking podziemny",
            "parking naziemny"
          ]
        },
        {
          "name": "Media",
          "type": "Multiple",
          "values": [
            "Prąd",
            "Siła",
            "Woda",
            "Gaz",
            "Telefon",
            "Internet"
          ]
        }
      ],
      "Obiekt": [
        {
          "name": "Cena",
          "type": "Range",
          "unit": "zł"
        },
        {
          "name": "Stan",
          "type": "Multiple",
          "values": [
            "Używany",
            "Nowy",
            "bardzo dobry",
            "dobry",
            "do odświeżenia",
            "do remontu",
            "do wykończenia",
            "po remoncie",
            "rozpoczęta budowa",
            "surowy otwarty",
            "surowy zamknięty",
            "bez białego montażu i podłóg",
            "wysoki standard"
          ]
        },
        {
          "name": "Kkategorie",
          "type": "Multiple",
          "values": [
            "Fabryka, zakład",
            "Gospodarstwo rolne",
            "Inny obiekt",
            "Kamienica, blok",
            "Obiekt zabytkowy"
          ]
        },
        {
          "name": "Rodzaj ogłoszenia",
          "type": "Multiple",
          "values": [
            "Sprzedam",
            "Wynajmę"
          ]
        },
        {
          "name": "Forma własności",
          "type": "Multiple",
          "values": [
            "własność",
            "spółdzielcze-lokatorskie",
            "udział",
            "spółdzielcze-własnościowe",
            "wieczyste użytkowanie",
            "spół.-własnościowe z KW"
          ]
        },
        {
          "name": "Stan nieruchomości",
          "type": "Multiple",
          "values": [
            "bardzo dobry",
            "dobry",
            "do remontu",
            "do rozbiórki",
            "rozpoczęta budowa",
            "surowy otwarty",
            "surowy zamknięty",
            "do wykończenia",
            "po remoncie"
          ]
        },
        {
          "name": "Kanalizacja",
          "type": "Multiple",
          "values": [
            "miejska",
            "szambo",
            "brak",
            "oczyszczalnia"
          ]
        },
        {
          "name": "Ogrzewanie",
          "type": "Multiple",
          "values": [
            "klimatyzacja",
            "zróżnicowane",
            "miejskie",
            "węglowe",
            "brak",
            "biomasa",
            "olejowe",
            "geotermika",
            "elektryczne",
            "kominkowe",
            "podłogowe",
            "gazowe",
            "słoneczne"
          ]
        },
        {
          "name": "Ogrodzenie",
          "type": "Multiple",
          "values": [
            "murowane",
            "drewniane",
            "siatka",
            "brak",
            "żywopłot",
            "metalowe/kute",
            "inne",
            "betonowe"
          ]
        },
        {
          "name": "Droga dojazdowa",
          "type": "Multiple",
          "values": [
            "asfaltowa/betonowa",
            "brak",
            "utwardzona",
            "nieutwardzona"
          ]
        },
        {
          "name": "Miejsce parkingowe",
          "type": "Multiple",
          "values": [
            "brak",
            "garaż",
            "na ulicy",
            "parking podziemny",
            "parking naziemny"
          ]
        },
        {
          "name": "Media",
          "type": "Multiple",
          "values": [
            "Prąd",
            "Siła",
            "Woda",
            "Gaz",
            "Telefon",
            "Internet"
          ]
        }
      ],
      "Garaż": [
        {
          "name": "Cena",
          "type": "Range",
          "unit": "zł"
        },
        {
          "name": "Stan",
          "type": "Multiple",
          "values": [
            "Używany",
            "Nowy",
            "bardzo dobry",
            "dobry",
            "do odświeżenia",
            "do remontu",
            "do wykończenia",
            "po remoncie",
            "rozpoczęta budowa",
            "surowy otwarty",
            "surowy zamknięty",
            "bez białego montażu i podłóg",
            "wysoki standard"
          ]
        },
        {
          "name": "Rodzaj ogłoszenia",
          "type": "Multiple",
          "values": [
            "Sprzedam",
            "Wynajmę"
          ]
        },
        {
          "name": "Udogodnienia",
          "type": "Multiple",
          "values": [
            "Prąd",
            "Ogrzewanie",
            "Kanał"
          ]
        },
        {
          "name": "Konstrukcja",
          "type": "Multiple",
          "values": [
            "wiata",
            "blaszany",
            "drewniany",
            "murowany",
            "miejsce parkingowe w hali"
          ]
        },
        {
          "name": "Lokalizacja",
          "type": "Multiple",
          "values": [
            "w budynku",
            "samodzielny",
            "przy domu"
          ]
        }
      ],
      "Pokój": [
        {
          "name": "Cena",
          "type": "Range",
          "unit": "zł"
        },
        {
          "name": "Stan",
          "type": "Multiple",
          "values": [
            "Używany",
            "Nowy",
            "bardzo dobry",
            "dobry",
            "do odświeżenia",
            "do remontu",
            "do wykończenia",
            "po remoncie",
            "rozpoczęta budowa",
            "surowy otwarty",
            "surowy zamknięty",
            "bez białego montażu i podłóg",
            "wysoki standard"
          ]
        },
        {
          "name": "Rodzaj ogłoszenia",
          "type": "Multiple",
          "values": [
            "Wynajmę"
          ]
        },
        {
          "name": "Udogodnienia",
          "type": "Multiple",
          "values": [
            "Balkon",
            "Domofon",
            "Klimatyzacja",
            "Kuchnia umeblowana",
            "Ogródek",
            "Osiedle zamknięte",
            "Piwnica",
            "Poddasze",
            "Taras",
            "Umeblowane",
            "Winda",
            "Miejsce parkingowe",
            "Wielopoziomowe",
            "Ostatnie piętro"
          ]
        },
        {
          "name": "Typ budynku",
          "type": "Multiple",
          "values": [
            "apartamentowiec",
            "blok",
            "dom wielorodzinny",
            "kamienica"
          ]
        },
        {
          "name": "Typ kuchni",
          "type": "Multiple",
          "values": [
            "aneks",
            "prześwit",
            "wnęka",
            "brak",
            "otwarta",
            "półotwarta",
            "osobna"
          ]
        },
        {
          "name": "Łazienka i WC",
          "type": "Multiple",
          "values": [
            "razem",
            "osobno"
          ]
        },
        {
          "name": "Ogrzewanie",
          "type": "Multiple",
          "values": [
            "klimatyzacja",
            "zróżnicowane",
            "miejskie",
            "węglowe",
            "brak",
            "biomasa",
            "olejowe",
            "geotermika",
            "elektryczne",
            "kominkowe",
            "podłogowe",
            "gazowe",
            "słoneczne"
          ]
        },
        {
          "name": "Miejsce parkingowe",
          "type": "Multiple",
          "values": [
            "brak",
            "garaż",
            "na ulicy",
            "parking podziemny",
            "parking naziemny"
          ]
        },
        {
          "name": "Media",
          "type": "Multiple",
          "values": [
            "Siła",
            "Gaz",
            "Telefon",
            "Internet"
          ]
        }
      ]
    }
  }
}
