{
  "Sprzątanie": {
    "Utrzymanie czystości": {
      "Mopy": [
        {
          "name": "Cena",
          "type": "Range",
          "unit": "zł"
        },
        {
          "name": "Stan",
          "type": "Multiple",
          "values": [
            "Używany",
            "Nowy"
          ]
        },
        {
          "name": "rodzaj",
          "type": "Multiple",
          "values": [
            "kij do mopa",
            "mop",
            "mop i wiadro",
            "wkład do mopa",
            "inny"
          ]
        },
        {
          "name": "typ",
          "type": "Multiple",
          "values": [
            "obrotowy",
            "parowy",
            "paskowy",
            "płaski",
            "sznurkowy",
            "z gąbką",
            "inny"
          ]
        },
        {
          "name": "marka",
          "type": "Multiple",
          "values": [
            "Brabantia",
            "Curver",
            "Elephant",
            "Galicja",
            "Gosia",
            "Jan Niezbędny",
            "Karcher",
            "Kuchcik",
            "Leifheit",
            "Merida",
            "Oxo",
            "Paclan",
            "Presto",
            "Prima",
            "Pucuś",
            "Starwax",
            "Stella",
            "Swiffer",
            "Vikan",
            "Vileda",
            "Wenko",
            "York",
            "Zwoltex",
            "Alda",
            "Europlast",
            "Joseph Joseph",
            "Meliconi",
            "Prosperplast",
            "Rubbermaid",
            "Sulo",
            "Vario",
            "Zeller",
            "brak",
            "inna"
          ]
        }
      ],
      "Kosze na śmieci": [
        {
          "name": "Cena",
          "type": "Range",
          "unit": "zł"
        },
        {
          "name": "Stan",
          "type": "Multiple",
          "values": [
            "Używany",
            "Nowy"
          ]
        },
        {
          "name": "marka",
          "type": "Multiple",
          "values": [
            "Alda",
            "Brabantia",
            "Curver",
            "Galicja",
            "Gosia",
            "Jan Niezbędny",
            "Joseph Joseph",
            "Kuchcik",
            "Meliconi",
            "Merida",
            "Prosperplast",
            "Stella",
            "Sulo",
            "Vileda",
            "Wenko",
            "Zeller",
            "Zwoltex",
            "brak",
            "inna",
            "Elephant",
            "Europlast",
            "Karcher",
            "Leifheit",
            "Oxo",
            "Paclan",
            "Presto",
            "Prima",
            "Pucuś",
            "Rubbermaid",
            "Starwax",
            "Swiffer",
            "Vario",
            "Vikan",
            "York"
          ]
        },
        {
          "name": "rodzaj",
          "type": "Multiple",
          "values": [
            "kosze biurkowe",
            "kosze łazienkowe",
            "kosze na śmieci",
            "naklejki na kosze",
            "pojemniki, kubły, kontenery",
            "popielnico-kosze",
            "stojaki i stelaże na worki do segregacji",
            "inne"
          ]
        },
        {
          "name": "materiał",
          "type": "Multiple",
          "values": [
            "bambus",
            "beton",
            "blacha ocynkowana",
            "metal",
            "plastik",
            "silikon",
            "stal chromowana",
            "stal nierdzewna",
            "stal ocynkowana",
            "wiklina",
            "inny"
          ]
        },
        {
          "name": "liczba komór",
          "type": "Multiple",
          "values": [
            "1",
            "2",
            "3",
            "4 i więcej"
          ]
        }
      ],
      "Zmywanie": [
        {
          "name": "Cena",
          "type": "Range",
          "unit": "zł"
        },
        {
          "name": "Stan",
          "type": "Multiple",
          "values": [
            "Używany",
            "Nowy"
          ]
        },
        {
          "name": "rodzaj",
          "type": "Multiple",
          "values": [
            "Tabletki do zmywarki",
            "Żele i proszki do zmywarki",
            "Sole do zmywarki",
            "Nabłyszczacze do zmywarki",
            "Czyściki do zmywarki",
            "Zapachy do zmywarki",
            "Płyny do naczyń",
            "Gąbki, zmywaki, druciaki",
            "Zestawy produktów do zmywania",
            "Pozostałe"
          ]
        }
      ],
      "Suszarki na pranie": [
        {
          "name": "Cena",
          "type": "Range",
          "unit": "zł"
        },
        {
          "name": "Stan",
          "type": "Multiple",
          "values": [
            "Używany",
            "Nowy"
          ]
        },
        {
          "name": "rodzaj",
          "type": "Multiple",
          "values": [
            "Na kaloryfer",
            "Naścienne",
            "Ogrodowe",
            "Sufitowe",
            "Wolnostojące"
          ]
        },
        {
          "name": "cechy dodatkowe",
          "type": "Multiple",
          "values": [
            "Zwijane/rozciągane",
            "Z uchwytem do suszenia bielizny",
            "Z rozkładanymi skrzydłami",
            "Na kółkach"
          ]
        }
      ],
      "Środki czyszczące i myjące": [
        {
          "name": "Cena",
          "type": "Range",
          "unit": "zł"
        },
        {
          "name": "Stan",
          "type": "Multiple",
          "values": [
            "Używany",
            "Nowy"
          ]
        },
        {
          "name": "rodzaj",
          "type": "Multiple",
          "values": [
            "czyszczenie dywanów i tapicerki",
            "czyszczenie fug",
            "czyszczenie lodówek",
            "czyszczenie kabin prysznicowych",
            "czyszczenie kuchenek i płyt",
            "czyszczenie piekarnika",
            "czyszczenie stali nierdzewnej i okapów",
            "czyszczenie WC",
            "mleczka do czyszczenia",
            "mokre chusteczki czyszczące",
            "odkamieniacze do pralek",
            "odkamieniacze do czajników i ekspresów",
            "odkamienicze do łazienki",
            "pielęgnacja skóry",
            "płyn do szyb i luster",
            "płyn do mycia podłóg",
            "ściereczki",
            "środki do czyszczenia i pielęgnacji mebli",
            "usuwanie pleśni",
            "udrażnianie rur"
          ]
        }
      ],
      "Odświeżacze powietrza": [
        {
          "name": "Cena",
          "type": "Range",
          "unit": "zł"
        },
        {
          "name": "Stan",
          "type": "Multiple",
          "values": [
            "Używany",
            "Nowy"
          ]
        },
        {
          "name": "marka",
          "type": "Multiple",
          "values": [
            "Air Wick",
            "Arola",
            "At home",
            "Ambi Pur",
            "Brait",
            "Brise",
            "Glade",
            "Kala",
            "Pozostałe"
          ]
        },
        {
          "name": "opakowanie",
          "type": "Multiple",
          "values": [
            "butelka z atomizerem",
            "ceramiczny wazon",
            "plastikowy pojemnik",
            "puszka (spray)",
            "saszetka",
            "inne"
          ]
        },
        {
          "name": "rodzaj",
          "type": "Multiple",
          "values": [
            "olejek",
            "patyczki",
            "spray",
            "wkład elektryczny",
            "żel",
            "dyfuzor",
            "kulki (perełki)",
            "wkład żelowy"
          ]
        },
        {
          "name": "przeznaczenie",
          "type": "Multiple",
          "values": [
            "do kosza do śmieci",
            "do odkurzacza",
            "do pomieszczeń",
            "do szaf i szuflad"
          ]
        }
      ],
      "Ścierki i ściereczki": [
        {
          "name": "Cena",
          "type": "Range",
          "unit": "zł"
        },
        {
          "name": "Stan",
          "type": "Multiple",
          "values": [
            "Używany",
            "Nowy"
          ]
        },
        {
          "name": "rodzaj",
          "type": "Multiple",
          "values": [
            "rękawica",
            "ścierka",
            "chusteczki nawilżane",
            "ręcznik papierowy",
            "inny"
          ]
        },
        {
          "name": "materiał",
          "type": "Multiple",
          "values": [
            "bawełna",
            "celuloza",
            "frotte",
            "gąbka",
            "mikrofibra",
            "nylon",
            "papier",
            "plastik",
            "poliamid",
            "poliester",
            "wiskoza",
            "włóknina",
            "inny"
          ]
        },
        {
          "name": "zastosowanie",
          "type": "Multiple",
          "values": [
            "do kuchni",
            "do kurzu",
            "do ekranów",
            "do łazienki",
            "do mebli",
            "do szkła",
            "do szyb",
            "uniwersalne"
          ]
        }
      ],
      "Pranie i prasowanie": [
        {
          "name": "Cena",
          "type": "Range",
          "unit": "zł"
        },
        {
          "name": "Stan",
          "type": "Multiple",
          "values": [
            "Używany",
            "Nowy"
          ]
        },
        {
          "name": "rodzaj",
          "type": "Multiple",
          "values": [
            "Proszki do prania",
            "Płyny do prania",
            "Żele do prania",
            "Płyny do płukania",
            "Kapsułki i tabletki do prania",
            "Chusteczki do prania",
            "Perełki zapachowe",
            "Odplamiacze",
            "Wybielacze",
            "Krochmale",
            "Orzechy do prania",
            "Środki do prasowania",
            "Kule do prania i suszenia",
            "Czyszczenie pralki",
            "Deski do prasowania",
            "Pokrowce na deski",
            "Suszarki na pranie",
            "Klamerki, linki i koszyczki",
            "Farby i barwniki do tkanin",
            "Pozostałe"
          ]
        }
      ],
      "Worki próźniowe": [
        {
          "name": "Cena",
          "type": "Range",
          "unit": "zł"
        },
        {
          "name": "Stan",
          "type": "Multiple",
          "values": [
            "Używany",
            "Nowy"
          ]
        },
        {
          "name": "cechy dodatkowe",
          "type": "Multiple",
          "values": [
            "rolowane/podróżne",
            "z wieszakiem",
            "zapachowe",
            "zestaw",
            "nie dotyczy"
          ]
        }
      ],
      "Miotły, zmiotki i szufelki": [
        {
          "name": "Cena",
          "type": "Range",
          "unit": "zł"
        },
        {
          "name": "Stan",
          "type": "Multiple",
          "values": [
            "Używany",
            "Nowy"
          ]
        },
        {
          "name": "marka",
          "type": "Multiple",
          "values": [
            "Gosia",
            "Jan Niezbędny",
            "Leifheit",
            "Merida",
            "Vileda",
            "York",
            "Pozostałe"
          ]
        },
        {
          "name": "rodzaj",
          "type": "Multiple",
          "values": [
            "kij do miotły",
            "miotła",
            "miotła, zmiotka, szufelka",
            "szufelka",
            "szufelka i zmiotka",
            "zmiotka",
            "inny"
          ]
        },
        {
          "name": "włosie",
          "type": "Multiple",
          "values": [
            "brzoza",
            "drut",
            "guma",
            "naturalne",
            "plastik",
            "słoma",
            "inne"
          ]
        }
      ],
      "Szczotki": [
        {
          "name": "Cena",
          "type": "Range",
          "unit": "zł"
        },
        {
          "name": "Stan",
          "type": "Multiple",
          "values": [
            "Używany",
            "Nowy"
          ]
        },
        {
          "name": "marka",
          "type": "Multiple",
          "values": [
            "Gosia",
            "Jan Niezbędny",
            "Leifheit",
            "Merida",
            "Vileda",
            "York",
            "Elephant",
            "Vikan",
            "Wenko",
            "Pozostałe"
          ]
        },
        {
          "name": "włosie",
          "type": "Multiple",
          "values": [
            "brzoza",
            "drut",
            "guma",
            "naturalne",
            "plastik",
            "słoma",
            "inne"
          ]
        },
        {
          "name": "cechy dodatkowe",
          "type": "Multiple",
          "values": [
            "z rączką",
            "z dozownikiem",
            "dwustronna",
            "do fug, narożników",
            "antystatyczna",
            "ryżowa",
            "do delikatnych powierzchni",
            "typu żelazko",
            "brak"
          ]
        },
        {
          "name": "typ",
          "type": "Multiple",
          "values": [
            "elektryczna",
            "manualna",
            "mechaniczna",
            "rolka do ubrań",
            "wkład zapachowy",
            "inny"
          ]
        }
      ],
      "Worki na śmieci": [
        {
          "name": "Cena",
          "type": "Range",
          "unit": "zł"
        },
        {
          "name": "Stan",
          "type": "Multiple",
          "values": [
            "Używany",
            "Nowy"
          ]
        },
        {
          "name": "marka",
          "type": "Multiple",
          "values": [
            "Gosia",
            "Jan Niezbędny",
            "Joseph Joseph",
            "Merida",
            "Stella",
            "York",
            "Pozostałe"
          ]
        },
        {
          "name": "rodzaj",
          "type": "Multiple",
          "values": [
            "do bioodpadów",
            "do odpadów zmieszanych",
            "do papieru",
            "do plastiku",
            "do szkła",
            "łazienkowe",
            "na gruz",
            "uniwersalne"
          ]
        }
      ],
      "Szczotki do WC": [
        {
          "name": "Cena",
          "type": "Range",
          "unit": "zł"
        },
        {
          "name": "Stan",
          "type": "Multiple",
          "values": [
            "Używany",
            "Nowy"
          ]
        },
        {
          "name": "rodzaj",
          "type": "Multiple",
          "values": [
            "naścienne",
            "wolnostojące"
          ]
        },
        {
          "name": "materiał końcówki",
          "type": "Multiple",
          "values": [
            "silikon",
            "włosie naturalne",
            "włosie syntetyczne",
            "inne"
          ]
        }
      ],
      "Suszarki i ociekacze": [
        {
          "name": "Cena",
          "type": "Range",
          "unit": "zł"
        },
        {
          "name": "Stan",
          "type": "Multiple",
          "values": [
            "Używany",
            "Nowy"
          ]
        },
        {
          "name": "marka",
          "type": "Multiple",
          "values": [
            "Curver",
            "Galicja",
            "Joseph Joseph",
            "Metpol",
            "Wenko",
            "Zeller",
            "Pozostałe"
          ]
        },
        {
          "name": "rodzaj",
          "type": "Multiple",
          "values": [
            "mata",
            "ociekacz (suszarka)",
            "ociekacz na sztućce",
            "tacka pod ociekacz",
            "inny"
          ]
        }
      ],
      "Odkamieniacze": [
        {
          "name": "Cena",
          "type": "Range",
          "unit": "zł"
        },
        {
          "name": "Stan",
          "type": "Multiple",
          "values": [
            "Używany",
            "Nowy"
          ]
        },
        {
          "name": "rodzaj",
          "type": "Multiple",
          "values": [
            "odkamieniacze do pralek",
            "odkamieniacze do czajników i ekspresów",
            "odkamieniacze do łazienki"
          ]
        }
      ],
      "Mydła": [
        {
          "name": "Cena",
          "type": "Range",
          "unit": "zł"
        },
        {
          "name": "Stan",
          "type": "Multiple",
          "values": [
            "Używany",
            "Nowy"
          ]
        },
        {
          "name": "rodzaj",
          "type": "Multiple",
          "values": [
            "w kostce",
            "w piance",
            "w płynie",
            "inny"
          ]
        }
      ],
      "Zestawy chemii domowej": [
        {
          "name": "Cena",
          "type": "Range",
          "unit": "zł"
        },
        {
          "name": "Stan",
          "type": "Multiple",
          "values": [
            "Używany",
            "Nowy"
          ]
        }
      ]
    }
  }
}