{
  "Uroda": {
    "Makijaż": {
      "Cienie do powiek": [
        {
          "name": "Cena",
          "type": "Range",
          "unit": "zł"
        },
        {
          "name": "Stan",
          "type": "Multiple",
          "values": [
            "Używany",
            "Nowy"
          ]
        },
        {
          "name": "rodzaj",
          "type": "Multiple",
          "values": [
            "pojedyncze",
            "komplety"
          ]
        },
        {
          "name": "forma",
          "type": "Multiple",
          "values": [
            "prasowane",
            "sypkie",
            "w kremie",
            "w kredce",
            "w żelu"
          ]
        },
        {
          "name": "wykończenie",
          "type": "Multiple",
          "values": [
            "brokatowe",
            "matowe",
            "metaliczne",
            "perłowe",
            "satynowe"
          ]
        },
        {
          "name": "produkt wodoodporny",
          "type": "Multiple",
          "values": [
            "tak",
            "nie"
          ]
        },
        {
          "name": "kolor",
          "type": "Multiple",
          "values": [
            "bezbarwny",
            "biały",
            "brązowy, beżowy",
            "czarny",
            "czerwony",
            "ecru",
            "fioletowy",
            "inny kolor",
            "miedziany",
            "niebieski",
            "pomarańczowy",
            "różowy",
            "srebrny, szary",
            "wielokolorowy",
            "zielony",
            "złoty"
          ]
        },
        {
          "name": "filtry SPF",
          "type": "Multiple",
          "values": [
            "brak",
            "do 10",
            "11 - 20",
            "21 - 30",
            "31 - 40",
            "41 - 50",
            "powyżej 50"
          ]
        }
      ],
      "Eyelinery i kredki do oczy": [
        {
          "name": "Cena",
          "type": "Range",
          "unit": "zł"
        },
        {
          "name": "Stan",
          "type": "Multiple",
          "values": [
            "Używany",
            "Nowy"
          ]
        },
        {
          "name": "rodzaj",
          "type": "Multiple",
          "values": [
            "w kredce",
            "w kremie",
            "w pędzelku",
            "w pisaku",
            "w płynie",
            "w żelu"
          ]
        },
        {
          "name": "wykończenie",
          "type": "Multiple",
          "values": [
            "brokatowe",
            "matowe",
            "metaliczne",
            "perłowe",
            "satynowe"
          ]
        },
        {
          "name": "produkt wodoodporny",
          "type": "Multiple",
          "values": [
            "tak",
            "nie"
          ]
        },
        {
          "name": "kolor",
          "type": "Multiple",
          "values": [
            "bezbarwny",
            "biały",
            "brązowy, beżowy",
            "czarny",
            "czerwony",
            "ecru",
            "fioletowy",
            "inny kolor",
            "miedziany",
            "niebieski",
            "pomarańczowy",
            "różowy",
            "srebrny, szary",
            "wielokolorowy",
            "zielony",
            "złoty"
          ]
        },
        {
          "name": "filtry SPF",
          "type": "Multiple",
          "values": [
            "brak",
            "do 10",
            "11 - 20",
            "21 - 30",
            "31 - 40",
            "41 - 50",
            "powyżej 50"
          ]
        }
      ],
      "Makijaż brwi": [
        {
          "name": "Cena",
          "type": "Range",
          "unit": "zł"
        },
        {
          "name": "Stan",
          "type": "Multiple",
          "values": [
            "Używany",
            "Nowy"
          ]
        },
        {
          "name": "rodzaj",
          "type": "Multiple",
          "values": [
            "cienie",
            "henny",
            "kredki",
            "palety",
            "pomady",
            "szablony",
            "woski",
            "żele",
            "serum",
            "odżywki"
          ]
        },
        {
          "name": "kolor",
          "type": "Multiple",
          "values": [
            "brązowy",
            "czarny",
            "szary",
            "inny"
          ]
        },
        {
          "name": "produkt wodoodporny",
          "type": "Multiple",
          "values": [
            "tak",
            "nie"
          ]
        },
        {
          "name": "filtry SPF",
          "type": "Multiple",
          "values": [
            "brak",
            "do 10",
            "11 - 20",
            "21 - 30",
            "31 - 40",
            "41 - 50",
            "powyżej 50"
          ]
        }
      ],
      "Tusze do rzęs": [
        {
          "name": "Cena",
          "type": "Range",
          "unit": "zł"
        },
        {
          "name": "Stan",
          "type": "Multiple",
          "values": [
            "Używany",
            "Nowy"
          ]
        },
        {
          "name": "właściwości",
          "type": "Multiple",
          "values": [
            "hipoalergiczne",
            "pogrubiające",
            "podkreślające",
            "rozdzielające",
            "wydłużające",
            "z odżywką"
          ]
        },
        {
          "name": "szczoteczka",
          "type": "Multiple",
          "values": [
            "grzebyk",
            "klasyczna",
            "silikonowa",
            "inna"
          ]
        },
        {
          "name": "kolor",
          "type": "Multiple",
          "values": [
            "bezbarwny",
            "biały",
            "brązowy, beżowy",
            "czarny",
            "czerwony",
            "ecru",
            "fioletowy",
            "inny kolor",
            "miedziany",
            "niebieski",
            "pomarańczowy",
            "różowy",
            "srebrny, szary",
            "wielokolorowy",
            "zielony",
            "złoty"
          ]
        },
        {
          "name": "produkt wodoodporny",
          "type": "Multiple",
          "values": [
            "tak",
            "nie"
          ]
        },
        {
          "name": "wielkość",
          "type": "Multiple",
          "values": [
            "pełnowymiarowy",
            "miniaturka"
          ]
        },
        {
          "name": "filtry SPF",
          "type": "Multiple",
          "values": [
            "brak",
            "do 10",
            "11 - 20",
            "21 - 30",
            "31 - 40",
            "41 - 50",
            "powyżej 50"
          ]
        }
      ],
      "Sztuczne rzęsy": [
        {
          "name": "Cena",
          "type": "Range",
          "unit": "zł"
        },
        {
          "name": "Stan",
          "type": "Multiple",
          "values": [
            "Używany",
            "Nowy"
          ]
        },
        {
          "name": "rodzaj",
          "type": "Multiple",
          "values": [
            "akcesoria",
            "kleje",
            "preparaty do usuwania rzęs",
            "rzęsy",
            "pozostałe"
          ]
        },
        {
          "name": "produkt wodoodporny",
          "type": "Multiple",
          "values": [
            "tak",
            "nie"
          ]
        },
        {
          "name": "filtry SPF",
          "type": "Multiple",
          "values": [
            "brak",
            "do 10",
            "11 - 20",
            "21 - 30",
            "31 - 40",
            "41 - 50",
            "powyżej 50"
          ]
        }
      ],
      "Błyszczyki": [
        {
          "name": "Cena",
          "type": "Range",
          "unit": "zł"
        },
        {
          "name": "Stan",
          "type": "Multiple",
          "values": [
            "Używany",
            "Nowy"
          ]
        },
        {
          "name": "kolor",
          "type": "Multiple",
          "values": [
            "bezbarwny",
            "biały",
            "brązowy, beżowy",
            "czarny",
            "czerwony",
            "ecru",
            "fioletowy",
            "inny kolor",
            "miedziany",
            "niebieski",
            "pomarańczowy",
            "różowy",
            "srebrny, szary",
            "wielokolorowy",
            "zielony",
            "złoty"
          ]
        },
        {
          "name": "efekt",
          "type": "Multiple",
          "values": [
            "brokatowy",
            "matowy",
            "naturalny",
            "perłowy",
            "satynowy",
            "transparentny"
          ]
        },
        {
          "name": "właściwości",
          "type": "Multiple",
          "values": [
            "brak",
            "nawilżające",
            "o przedłużonej trwałości",
            "powiększające",
            "regenerujące",
            "z filtrem UV"
          ]
        },
        {
          "name": "opakowanie",
          "type": "Multiple",
          "values": [
            "w słoiczku",
            "w tubce",
            "w paletce",
            "w pędzelku",
            "z aplikatorem"
          ]
        },
        {
          "name": "poziom krycia",
          "type": "Multiple",
          "values": [
            "niski",
            "średni",
            "wysoki"
          ]
        },
        {
          "name": "produkt wodoodporny",
          "type": "Multiple",
          "values": [
            "tak",
            "nie"
          ]
        },
        {
          "name": "filtry SPF",
          "type": "Multiple",
          "values": [
            "brak",
            "do 10",
            "11 - 20",
            "21 - 30",
            "31 - 40",
            "41 - 50",
            "powyżej 50"
          ]
        }
      ],
      "Pielęgnacja ust": [
        {
          "name": "Cena",
          "type": "Range",
          "unit": "zł"
        },
        {
          "name": "Stan",
          "type": "Multiple",
          "values": [
            "Używany",
            "Nowy"
          ]
        },
        {
          "name": "rodzaj",
          "type": "Multiple",
          "values": [
            "balsamy",
            "masła",
            "peelingi i scruby",
            "pomadki"
          ]
        },
        {
          "name": "właściwości",
          "type": "Multiple",
          "values": [
            "nawilżajace",
            "ochrona przed zimnem",
            "ochrona przed słońcem",
            "powiększajace",
            "regenerujące",
            "wygładzajace"
          ]
        },
        {
          "name": "produkt wodoodporny",
          "type": "Multiple",
          "values": [
            "tak",
            "nie"
          ]
        },
        {
          "name": "filtry SPF",
          "type": "Multiple",
          "values": [
            "brak",
            "do 10",
            "11 - 20",
            "21 - 30",
            "31 - 40",
            "41 - 50",
            "powyżej 50"
          ]
        }
      ],
      "Konturówki": [
        {
          "name": "Cena",
          "type": "Range",
          "unit": "zł"
        },
        {
          "name": "Stan",
          "type": "Multiple",
          "values": [
            "Używany",
            "Nowy"
          ]
        },
        {
          "name": "kolor",
          "type": "Multiple",
          "values": [
            "bezbarwny",
            "biały",
            "brązowy, beżowy",
            "czarny",
            "czerwony",
            "ecru",
            "fioletowy",
            "inny kolor",
            "miedziany",
            "niebieski",
            "pomarańczowy",
            "różowy",
            "srebrny, szary",
            "wielokolorowy",
            "zielony",
            "złoty"
          ]
        },
        {
          "name": "rodzaj",
          "type": "Multiple",
          "values": [
            "do temperowania",
            "wykręcane"
          ]
        },
        {
          "name": "produkt wodoodporny",
          "type": "Multiple",
          "values": [
            "tak",
            "nie"
          ]
        },
        {
          "name": "filtry SPF",
          "type": "Multiple",
          "values": [
            "brak",
            "do 10",
            "11 - 20",
            "21 - 30",
            "31 - 40",
            "41 - 50",
            "powyżej 50"
          ]
        }
      ],
      "Szminki i pomadki": [
        {
          "name": "Cena",
          "type": "Range",
          "unit": "zł"
        },
        {
          "name": "Stan",
          "type": "Multiple",
          "values": [
            "Używany",
            "Nowy"
          ]
        },
        {
          "name": "kolor",
          "type": "Multiple",
          "values": [
            "bezbarwny",
            "biały",
            "brązowy, beżowy",
            "czarny",
            "czerwony",
            "ecru",
            "fioletowy",
            "miedziany",
            "niebieski",
            "granatowy",
            "pomarańczowy",
            "różowy",
            "srebrny, szary",
            "wielokolorowy",
            "zielony",
            "złoty",
            "inny kolor"
          ]
        },
        {
          "name": "rodzaj",
          "type": "Multiple",
          "values": [
            "w flamastrze",
            "w kredce",
            "w kremie",
            "w płynie",
            "w sztyfcie"
          ]
        },
        {
          "name": "efekt",
          "type": "Multiple",
          "values": [
            "brokatowy",
            "matowy",
            "naturalny",
            "perłowy",
            "satynowy",
            "transparentny"
          ]
        },
        {
          "name": "właściwosci",
          "type": "Multiple",
          "values": [
            "brak",
            "nawilżajace",
            "o przedłużonej trwałości",
            "powiększające",
            "regenerujące",
            "z filtrem UV"
          ]
        },
        {
          "name": "poziom krycia",
          "type": "Multiple",
          "values": [
            "niski",
            "średni",
            "wysoki"
          ]
        },
        {
          "name": "produkt wodoodporny",
          "type": "Multiple",
          "values": [
            "tak",
            "nie"
          ]
        },
        {
          "name": "filtry SPF",
          "type": "Multiple",
          "values": [
            "brak",
            "do 10",
            "11 - 20",
            "21 - 30",
            "31 - 40",
            "41 - 50",
            "powyżej 50"
          ]
        }
      ],
      "Baza pod makijaż": [
        {
          "name": "Cena",
          "type": "Range",
          "unit": "zł"
        },
        {
          "name": "Stan",
          "type": "Multiple",
          "values": [
            "Używany",
            "Nowy"
          ]
        },
        {
          "name": "rodzaj",
          "type": "Multiple",
          "values": [
            "twarz",
            "oczy",
            "usta"
          ]
        },
        {
          "name": "typ skóry",
          "type": "Multiple",
          "values": [
            "alergiczna",
            "dojrzała",
            "mieszana",
            "naczynkowa",
            "normalna",
            "problematyczna",
            "sucha",
            "tłusta",
            "wrażliwa",
            "do wszystkich typów skóry"
          ]
        },
        {
          "name": "właściwosci",
          "type": "Multiple",
          "values": [
            "matujące",
            "nawilżające",
            "przedłużenie trwałości",
            "rozświetlające",
            "wygładzajace",
            "wyrównanie kolorytu",
            "zwężenie porów"
          ]
        },
        {
          "name": "filtr SPF",
          "type": "Multiple",
          "values": [
            "brak",
            "do 10",
            "11 - 20",
            "21 - 30",
            "31 - 40",
            "41 - 50",
            "powyżej 50"
          ]
        },
        {
          "name": "produkt wodoodporny",
          "type": "Multiple",
          "values": [
            "tak",
            "nie"
          ]
        },
        {
          "name": "wielkość",
          "type": "Multiple",
          "values": [
            "pełnowymiarowe",
            "miniaturka"
          ]
        }
      ],
      "Korektory": [
        {
          "name": "Cena",
          "type": "Range",
          "unit": "zł"
        },
        {
          "name": "Stan",
          "type": "Multiple",
          "values": [
            "Używany",
            "Nowy"
          ]
        },
        {
          "name": "właściwości",
          "type": "Multiple",
          "values": [
            "antybakteryjne",
            "kryjące",
            "rozświetlające",
            "wygładzające"
          ]
        },
        {
          "name": "poziom krycia",
          "type": "Multiple",
          "values": [
            "niski",
            "średni",
            "wysoki"
          ]
        },
        {
          "name": "opakowanie",
          "type": "Multiple",
          "values": [
            "w słoiczku",
            "w tubce",
            "w paletce",
            "w pędzelku",
            "z aplikatorem"
          ]
        },
        {
          "name": "produkt wodoodporny",
          "type": "Multiple",
          "values": [
            "tak",
            "nie"
          ]
        },
        {
          "name": "filtr SPF",
          "type": "Multiple",
          "values": [
            "brak",
            "do 10",
            "11 - 20",
            "21 - 30",
            "31 - 40",
            "41 - 50",
            "powyżej 50"
          ]
        },
        {
          "name": "wielkość",
          "type": "Multiple",
          "values": [
            "pełnowymiarowe",
            "miniaturka"
          ]
        }
      ],
      "Kremy BB i CC": [
        {
          "name": "Cena",
          "type": "Range",
          "unit": "zł"
        },
        {
          "name": "Stan",
          "type": "Multiple",
          "values": [
            "Używany",
            "Nowy"
          ]
        },
        {
          "name": "rodzaj",
          "type": "Multiple",
          "values": [
            "krem BB",
            "krem CC",
            "kremy koloryzujące",
            "inne"
          ]
        },
        {
          "name": "właściwości",
          "type": "Multiple",
          "values": [
            "matujące",
            "nawilżające",
            "przedłużenie trwałości",
            "rozświetlające",
            "wygładzajace",
            "wyrównanie kolorytu",
            "zwężenie porów"
          ]
        },
        {
          "name": "typ skóry",
          "type": "Multiple",
          "values": [
            "alergiczna",
            "dojrzała",
            "mieszana",
            "naczynkowa",
            "normalna",
            "problematyczna",
            "sucha",
            "tłusta",
            "wrażliwa",
            "do wszystkich typów skóry"
          ]
        },
        {
          "name": "produkt wodoodporny",
          "type": "Multiple",
          "values": [
            "tak",
            "nie"
          ]
        },
        {
          "name": "filtr SPF",
          "type": "Multiple",
          "values": [
            "brak",
            "do 10",
            "11 - 20",
            "21 - 30",
            "31 - 40",
            "41 - 50",
            "powyżej 50"
          ]
        },
        {
          "name": "wielkość",
          "type": "Multiple",
          "values": [
            "pełnowymiarowe",
            "miniaturka"
          ]
        }
      ],
      "Kremy tonizujące": [
        {
          "name": "Cena",
          "type": "Range",
          "unit": "zł"
        },
        {
          "name": "Stan",
          "type": "Multiple",
          "values": [
            "Używany",
            "Nowy"
          ]
        },
        {
          "name": "rodzaj",
          "type": "Multiple",
          "values": [
            "dla kobiet",
            "dla mężczyzn"
          ]
        },
        {
          "name": "produkt wodoodporny",
          "type": "Multiple",
          "values": [
            "tak",
            "nie"
          ]
        },
        {
          "name": "filtry SPF",
          "type": "Multiple",
          "values": [
            "brak",
            "do 10",
            "11 - 20",
            "21 - 30",
            "31 - 40",
            "41 - 50",
            "powyżej 50"
          ]
        }
      ],
      "Podkłady": [
        {
          "name": "Cena",
          "type": "Range",
          "unit": "zł"
        },
        {
          "name": "Stan",
          "type": "Multiple",
          "values": [
            "Używany",
            "Nowy"
          ]
        },
        {
          "name": "konsystencja",
          "type": "Multiple",
          "values": [
            "kremowa",
            "płynna",
            "serum",
            "w kompakcie",
            "w musie",
            "w piance",
            "w pudrze",
            "w sprayu",
            "w sztyfcie"
          ]
        },
        {
          "name": "właściwości",
          "type": "Multiple",
          "values": [
            "matujące",
            "nawilżające",
            "przedłużenie trwałości",
            "rozświetlające",
            "wygładzajace",
            "wyrównanie kolorytu",
            "zwężenie porów"
          ]
        },
        {
          "name": "poziom krycia",
          "type": "Multiple",
          "values": [
            "niski",
            "średni",
            "wysoki"
          ]
        },
        {
          "name": "typ skóry",
          "type": "Multiple",
          "values": [
            "alergiczna",
            "dojrzała",
            "mieszana",
            "naczynkowa",
            "normalna",
            "problematyczna",
            "sucha",
            "tłusta",
            "wrażliwa",
            "do wszystkich typów skóry"
          ]
        },
        {
          "name": "filtr SPF",
          "type": "Multiple",
          "values": [
            "brak",
            "do 10",
            "11 - 20",
            "21 - 30",
            "31 - 40",
            "41 - 50",
            "powyżej 50"
          ]
        },
        {
          "name": "produkt wodoodporny",
          "type": "Multiple",
          "values": [
            "tak",
            "nie"
          ]
        },
        {
          "name": "wielkość",
          "type": "Multiple",
          "values": [
            "pełnowymiarowe",
            "miniaturka"
          ]
        }
      ],
      "Pudry": [
        {
          "name": "Cena",
          "type": "Range",
          "unit": "zł"
        },
        {
          "name": "Stan",
          "type": "Multiple",
          "values": [
            "Używany",
            "Nowy"
          ]
        },
        {
          "name": "rodzaj",
          "type": "Multiple",
          "values": [
            "mineralne",
            "prasowane",
            "sypkie",
            "w kulkach",
            "wypiekane"
          ]
        },
        {
          "name": "typ skóry",
          "type": "Multiple",
          "values": [
            "alergiczna",
            "dojrzała",
            "mieszana",
            "naczynkowa",
            "normalna",
            "problematyczna",
            "sucha",
            "tłusta",
            "wrażliwa",
            "do wszystkich typów skóry"
          ]
        },
        {
          "name": "właściwości",
          "type": "Multiple",
          "values": [
            "matujące",
            "rozświetlające",
            "utrwalające"
          ]
        },
        {
          "name": "poziom krycia",
          "type": "Multiple",
          "values": [
            "niski",
            "średni",
            "wysoki"
          ]
        },
        {
          "name": "filtr SPF",
          "type": "Multiple",
          "values": [
            "brak",
            "do 10",
            "11 - 20",
            "21 - 30",
            "31 - 40",
            "41 - 50",
            "powyżej 50"
          ]
        },
        {
          "name": "produkt wodoodporny",
          "type": "Multiple",
          "values": [
            "tak",
            "nie"
          ]
        },
        {
          "name": "wielkość",
          "type": "Multiple",
          "values": [
            "pełnowymiarowe",
            "miniaturka"
          ]
        }
      ],
      "Konturowanie twarzy": [
        {
          "name": "Cena",
          "type": "Range",
          "unit": "zł"
        },
        {
          "name": "Stan",
          "type": "Multiple",
          "values": [
            "Używany",
            "Nowy"
          ]
        },
        {
          "name": "produkt",
          "type": "Multiple",
          "values": [
            "rozświetlacz",
            "bronzer",
            "róże"
          ]
        },
        {
          "name": "rodzaj",
          "type": "Multiple",
          "values": [
            "mineralne",
            "prasowane",
            "sypkie",
            "w kremie",
            "w kulkach",
            "w płynie",
            "w sztyfcie",
            "wypiekane"
          ]
        },
        {
          "name": "odcień",
          "type": "Multiple",
          "values": [
            "różowy",
            "złoty",
            "inny"
          ]
        },
        {
          "name": "wykończenie",
          "type": "Multiple",
          "values": [
            "matowe",
            "satynowe",
            "z drobinkami"
          ]
        },
        {
          "name": "filtry SPF",
          "type": "Multiple",
          "values": [
            "brak",
            "do 10",
            "11 - 20",
            "21 - 30",
            "31 - 40",
            "41 - 50",
            "powyżej 50"
          ]
        },
        {
          "name": "wielkość",
          "type": "Multiple",
          "values": [
            "pełnowymiarowe",
            "miniaturka"
          ]
        },
        {
          "name": "produkt wodoodporny",
          "type": "Multiple",
          "values": [
            "tak",
            "nie"
          ]
        }
      ],
      "Utrwalenie makijażu": [
        {
          "name": "Cena",
          "type": "Range",
          "unit": "zł"
        },
        {
          "name": "Stan",
          "type": "Multiple",
          "values": [
            "Używany",
            "Nowy"
          ]
        },
        {
          "name": "produkt wodoodporny",
          "type": "Multiple",
          "values": [
            "tak",
            "nie"
          ]
        },
        {
          "name": "filtry SPF",
          "type": "Multiple",
          "values": [
            "brak",
            "do 10",
            "11 - 20",
            "21 - 30",
            "31 - 40",
            "41 - 50",
            "powyżej 50"
          ]
        }
      ],
      "Palety do makijażu": [
        {
          "name": "Cena",
          "type": "Range",
          "unit": "zł"
        },
        {
          "name": "Stan",
          "type": "Multiple",
          "values": [
            "Używany",
            "Nowy"
          ]
        },
        {
          "name": "produkt wodoodporny",
          "type": "Multiple",
          "values": [
            "tak",
            "nie"
          ]
        },
        {
          "name": "filtry SPF",
          "type": "Multiple",
          "values": [
            "brak",
            "do 10",
            "11 - 20",
            "21 - 30",
            "31 - 40",
            "41 - 50",
            "powyżej 50"
          ]
        }
      ],
      "Kuferki kosmetyczne": [
        {
          "name": "Cena",
          "type": "Range",
          "unit": "zł"
        },
        {
          "name": "Stan",
          "type": "Multiple",
          "values": [
            "Używany",
            "Nowy"
          ]
        },
        {
          "name": "produkt wodoodporny",
          "type": "Multiple",
          "values": [
            "tak",
            "nie"
          ]
        },
        {
          "name": "filtry SPF",
          "type": "Multiple",
          "values": [
            "brak",
            "do 10",
            "11 - 20",
            "21 - 30",
            "31 - 40",
            "41 - 50",
            "powyżej 50"
          ]
        }
      ],
      "Pędzle i akcesoria": [
        {
          "name": "Cena",
          "type": "Range",
          "unit": "zł"
        },
        {
          "name": "Stan",
          "type": "Multiple",
          "values": [
            "Używany",
            "Nowy"
          ]
        },
        {
          "name": "rodzaj",
          "type": "Multiple",
          "values": [
            "gąbki do makijażu",
            "pędzle do makijażu",
            "lusterka",
            "pozostałe"
          ]
        },
        {
          "name": "produkt wodoodporny",
          "type": "Multiple",
          "values": [
            "tak",
            "nie"
          ]
        },
        {
          "name": "filtry SPF",
          "type": "Multiple",
          "values": [
            "brak",
            "do 10",
            "11 - 20",
            "21 - 30",
            "31 - 40",
            "41 - 50",
            "powyżej 50"
          ]
        }
      ],
      "Pozostałe": [
        {
          "name": "Cena",
          "type": "Range",
          "unit": "zł"
        },
        {
          "name": "Stan",
          "type": "Multiple",
          "values": [
            "Używany",
            "Nowy"
          ]
        }
      ]
    },
    "Manicure i pedicure": {
      "Akcesoria i przybory": [
        {
          "name": "Cena",
          "type": "Range",
          "unit": "zł"
        },
        {
          "name": "Stan",
          "type": "Multiple",
          "values": [
            "Używany",
            "Nowy"
          ]
        },
        {
          "name": "rodzaj",
          "type": "Multiple",
          "values": [
            "klipsy do usuwania hybrydy, żelu i akrylu",
            "kuferki",
            "nożyczki, cążki, kopytka",
            "ochrona skórek",
            "patyczki",
            "pilniki i polerki do rąk",
            "pilniki, tarki, pumeksy do stóp",
            "podkładki, poduszki",
            "pojemniki, pudełka",
            "pędzelki",
            "szablony",
            "szczoteczki",
            "waciki",
            "wzorniki kolorów",
            "zestawy akcesoriów",
            "pozostałe"
          ]
        }
      ],
      "Akryle i żele": [
        {
          "name": "Cena",
          "type": "Range",
          "unit": "zł"
        },
        {
          "name": "Stan",
          "type": "Multiple",
          "values": [
            "Używany",
            "Nowy"
          ]
        },
        {
          "name": "rodzaj",
          "type": "Multiple",
          "values": [
            "akryle",
            "żele",
            "zestawy akrylowe",
            "zestawy żelowe"
          ]
        }
      ],
      "Lakiery do paznokci": [
        {
          "name": "Cena",
          "type": "Range",
          "unit": "zł"
        },
        {
          "name": "Stan",
          "type": "Multiple",
          "values": [
            "Używany",
            "Nowy"
          ]
        },
        {
          "name": "kolor",
          "type": "Multiple",
          "values": [
            "bezbarwny",
            "biały",
            "czarny",
            "odcienie beżu i brązu",
            "odcienie czerwieni i różu",
            "odcienie niebieskiego",
            "odcienie fioletu",
            "odcienie pomarańczowego",
            "odcienie szarości i srebra",
            "odcienie zieleni",
            "odcienie zółtego i złota",
            "zestawy",
            "inny kolor"
          ]
        },
        {
          "name": "wykończenie",
          "type": "Multiple",
          "values": [
            "błyszczące",
            "brokatowe",
            "fluorescencyjne",
            "matowe",
            "neonowe",
            "perłowe",
            "inny rodzaj"
          ]
        },
        {
          "name": "właściwości",
          "type": "Multiple",
          "values": [
            "szybkoschnące",
            "witaminowe",
            "efekt żelowych paznokci",
            "do stempli",
            "do zdobień",
            "w pisaku"
          ]
        },
        {
          "name": "produkt bez",
          "type": "Multiple",
          "values": [
            "toluenu",
            "DBP",
            "formaldehydu",
            "żywicy formaldehydowej",
            "kamfory",
            "ksylenu",
            "TPHP"
          ]
        }
      ],
      "Lakiery hybrydowe": [
        {
          "name": "Cena",
          "type": "Range",
          "unit": "zł"
        },
        {
          "name": "Stan",
          "type": "Multiple",
          "values": [
            "Używany",
            "Nowy"
          ]
        },
        {
          "name": "kolor",
          "type": "Multiple",
          "values": [
            "bezbarwny",
            "biały",
            "czarny",
            "odcienie beżu i brązu",
            "odcienie czerwieni i różu",
            "odcienie niebieskiego",
            "odcienie fioletu",
            "odcienie pomarańczowego",
            "odcienie szarości i srebra",
            "odcienie zieleni",
            "odcienie zółtego i złota",
            "zestawy",
            "inny kolor"
          ]
        },
        {
          "name": "rodzaj",
          "type": "Multiple",
          "values": [
            "baza",
            "top",
            "lakier kolorowy",
            "3w1"
          ]
        },
        {
          "name": "właściwości",
          "type": "Multiple",
          "values": [
            "budujące",
            "bez przecierania (no wipe)",
            "kocie oko (cat eye)",
            "do zdobień",
            "matujace",
            "proteinowe",
            "termiczne",
            "witaminowe"
          ]
        },
        {
          "name": "produkt bez",
          "type": "Multiple",
          "values": [
            "toluenu",
            "DBP",
            "formaldehydu",
            "żywicy formaldehydowej",
            "kamfory",
            "ksylenu",
            "TPHP"
          ]
        }
      ],
      "Urządzenia": [
        {
          "name": "Cena",
          "type": "Range",
          "unit": "zł"
        },
        {
          "name": "Stan",
          "type": "Multiple",
          "values": [
            "Używany",
            "Nowy"
          ]
        },
        {
          "name": "rodzaj",
          "type": "Multiple",
          "values": [
            "frezarki i akcesoria",
            "lampy kosmetyczne",
            "lampy UV i LED",
            "parafiniarki",
            "pochłaniacze pyłu",
            "sterylizatory",
            "suszarki do paznokci",
            "pozostałe"
          ]
        },
        {
          "name": "zasilanie",
          "type": "Multiple",
          "values": [
            "akumulatorowe",
            "bateryjne",
            "sieciowe",
            "sieciowo-akumulatorowe",
            "brak"
          ]
        },
        {
          "name": "kolor dominujący",
          "type": "Multiple",
          "values": [
            "bezbarwny",
            "biały",
            "brązowy, beżowy",
            "czarny",
            "czerwony",
            "ecru",
            "fioletowy",
            "miedziany",
            "niebieski",
            "granatowy",
            "pomarańczowy",
            "różowy",
            "srebrny, szary",
            "wielokolorowy",
            "zielony",
            "złoty",
            "inny kolor"
          ]
        },
        {
          "name": "oświetlenie",
          "type": "Multiple",
          "values": [
            "LED",
            "UV",
            "LED + UV",
            "halogenowe",
            "świetlówka",
            "tradycyjne oświetlenie"
          ]
        },
        {
          "name": "cechy dodatkowe",
          "type": "Multiple",
          "values": [
            "regulacja mocy",
            "sensor ruchu",
            "suszarka do paznokci",
            "sygnał dźwiękowy",
            "timer",
            "zdejmowane dno",
            "brak"
          ]
        }
      ],
      "Manicure japoński": [
        {
          "name": "Cena",
          "type": "Range",
          "unit": "zł"
        },
        {
          "name": "Stan",
          "type": "Multiple",
          "values": [
            "Używany",
            "Nowy"
          ]
        },
        {
          "name": "zestaw",
          "type": "Multiple",
          "values": [
            "tak",
            "nie"
          ]
        }
      ],
      "Nabłyszczacze, utrwalacze": [
        {
          "name": "Cena",
          "type": "Range",
          "unit": "zł"
        },
        {
          "name": "Stan",
          "type": "Multiple",
          "values": [
            "Używany",
            "Nowy"
          ]
        },
        {
          "name": "rodzaj",
          "type": "Multiple",
          "values": [
            "glitter",
            "matujący",
            "nabłyszczający",
            "sunblocker",
            "utrwalający",
            "wysuszający lakier"
          ]
        },
        {
          "name": "produkt bez",
          "type": "Multiple",
          "values": [
            "toluenu",
            "DBP",
            "formaldehydu",
            "żywicy formaldehydowej",
            "kamfory",
            "ksylenu",
            "TPHP"
          ]
        }
      ],
      "Odżywki do paznokci i skórek": [
        {
          "name": "Cena",
          "type": "Range",
          "unit": "zł"
        },
        {
          "name": "Stan",
          "type": "Multiple",
          "values": [
            "Używany",
            "Nowy"
          ]
        }
      ],
      "Ozdoby i przyrządy do zdobień": [
        {
          "name": "Cena",
          "type": "Range",
          "unit": "zł"
        },
        {
          "name": "Stan",
          "type": "Multiple",
          "values": [
            "Używany",
            "Nowy"
          ]
        },
        {
          "name": "rodzaj",
          "type": "Multiple",
          "values": [
            "biżuteria do paznokci",
            "brokat",
            "bulion",
            "cyrkonie",
            "dżety",
            "farbki i lakiery",
            "folia transferowa",
            "hologramy",
            "magnes",
            "naklejki",
            "perełki",
            "pyłek",
            "rapidograf",
            "stempelki",
            "sonda",
            "stylograf",
            "tasiemki",
            "zestawy",
            "pozostałe"
          ]
        },
        {
          "name": "kolor",
          "type": "Multiple",
          "values": [
            "bezbarwny",
            "biały",
            "brązowy, beżowy",
            "czarny",
            "czerwony",
            "ecru",
            "fioletowy",
            "miedziany",
            "niebieski",
            "granatowy",
            "pomarańczowy",
            "różowy",
            "srebrny, szary",
            "wielokolorowy",
            "zielony",
            "złoty",
            "inny kolor"
          ]
        }
      ],
      "Podkłady, bazy": [
        {
          "name": "Cena",
          "type": "Range",
          "unit": "zł"
        },
        {
          "name": "Stan",
          "type": "Multiple",
          "values": [
            "Używany",
            "Nowy"
          ]
        },
        {
          "name": "rodzaj",
          "type": "Multiple",
          "values": [
            "baza i top 2w1",
            "peel off",
            "proteinowa",
            "witaminowa",
            "inna"
          ]
        },
        {
          "name": "produkt bez",
          "type": "Multiple",
          "values": [
            "toluenu",
            "DBP",
            "formaldehydu",
            "żywicy formaldehydowej",
            "kamfory",
            "ksylenu",
            "TPHP"
          ]
        }
      ],
      "Sztuczne paznokcie, tipsy": [
        {
          "name": "Cena",
          "type": "Range",
          "unit": "zł"
        },
        {
          "name": "Stan",
          "type": "Multiple",
          "values": [
            "Używany",
            "Nowy"
          ]
        },
        {
          "name": "rodzaj",
          "type": "Multiple",
          "values": [
            "airbrush",
            "clear",
            "do stóp",
            "french",
            "kolorowe",
            "mleczne",
            "naturalne",
            "pozostałe"
          ]
        },
        {
          "name": "kolor",
          "type": "Multiple",
          "values": [
            "bezbarwny",
            "biały",
            "czarny",
            "odcienie beżu i brązu",
            "odcienie czerwieni i różu",
            "odcienie niebieskiego",
            "odcienie fioletu",
            "odcienie pomarańczowego",
            "odcienie szarości i srebra",
            "odcienie zieleni",
            "odcienie zółtego i złota",
            "zestawy",
            "inny kolor"
          ]
        },
        {
          "name": "kształt",
          "type": "Multiple",
          "values": [
            "migdałowy",
            "kwadratowy",
            "owalny",
            "szpic",
            "inny"
          ]
        },
        {
          "name": "kieszonka",
          "type": "Multiple",
          "values": [
            "krótka",
            "długa",
            "brak"
          ]
        },
        {
          "name": "ilość",
          "type": "Multiple",
          "values": [
            "10 szt.",
            "12 szt.",
            "20 szt.",
            "24 szt.",
            "50 szt.",
            "100 szt.",
            "120 szt.",
            "200 szt.",
            "300 szt.",
            "500 szt.",
            "inna"
          ]
        }
      ],
      "Zmywacze, odtłuszczacze, kleje": [
        {
          "name": "Cena",
          "type": "Range",
          "unit": "zł"
        },
        {
          "name": "Stan",
          "type": "Multiple",
          "values": [
            "Używany",
            "Nowy"
          ]
        },
        {
          "name": "rodzaj",
          "type": "Multiple",
          "values": [
            "acetony, removery",
            "kleje",
            "odtłuszczacze",
            "primery",
            "zmywacze",
            "pozostałe"
          ]
        }
      ],
      "Zestawy": [
        {
          "name": "Cena",
          "type": "Range",
          "unit": "zł"
        },
        {
          "name": "Stan",
          "type": "Multiple",
          "values": [
            "Używany",
            "Nowy"
          ]
        },
        {
          "name": "zawartość zestawu",
          "type": "Multiple",
          "values": [
            "aceton",
            "baza, top 2w1",
            "blok polerski",
            "cleaner",
            "frezarka",
            "klipsy do usuwania lakieru",
            "kuferek",
            "lakier hybrydowy",
            "lampa LED",
            "lampa UV",
            "oliwka do skórek",
            "ozdoby",
            "patyczki",
            "pędzelek do zdobień",
            "pilnik do paznokci",
            "płyn do usuwania skóek",
            "sonda do zdobień",
            "striper",
            "szablony do przedłużania paznokci",
            "top",
            "waciki bezpyłowe",
            "wzornik",
            "inne"
          ]
        }
      ],
      "Pozostałe": [
        {
          "name": "Cena",
          "type": "Range",
          "unit": "zł"
        },
        {
          "name": "Stan",
          "type": "Multiple",
          "values": [
            "Używany",
            "Nowy"
          ]
        }
      ]
    },
    "Perfumy": {
      "Perfumy damskie": [
        {
          "name": "Cena",
          "type": "Range",
          "unit": "zł"
        },
        {
          "name": "Stan",
          "type": "Multiple",
          "values": [
            "Używany",
            "Nowy"
          ]
        },
        {
          "name": "rodzaj",
          "type": "Multiple",
          "values": [
            "perfumy i wody perfumowane",
            "wody toaletowe",
            "inne"
          ]
        }
      ],
      "Perfumy męskie": [
        {
          "name": "Cena",
          "type": "Range",
          "unit": "zł"
        },
        {
          "name": "Stan",
          "type": "Multiple",
          "values": [
            "Używany",
            "Nowy"
          ]
        },
        {
          "name": "rodzaj",
          "type": "Multiple",
          "values": [
            "wody perfumowane",
            "wody toaletowe",
            "wody kolońskie",
            "wody po goleniu",
            "pozostałe"
          ]
        }
      ],
      "Testery": [
        {
          "name": "Cena",
          "type": "Range",
          "unit": "zł"
        },
        {
          "name": "Stan",
          "type": "Multiple",
          "values": [
            "Używany",
            "Nowy"
          ]
        }
      ],
      "Dezodoranty": [
        {
          "name": "Cena",
          "type": "Range",
          "unit": "zł"
        },
        {
          "name": "Stan",
          "type": "Multiple",
          "values": [
            "Używany",
            "Nowy"
          ]
        },
        {
          "name": "dla kogo",
          "type": "Multiple",
          "values": [
            "damskie",
            "męskie"
          ]
        },
        {
          "name": "forma",
          "type": "Multiple",
          "values": [
            "w kulce",
            "w sprayu",
            "w sztyfcie",
            "pozostałe"
          ]
        }
      ],
      "Zestawy perfum": [
        {
          "name": "Cena",
          "type": "Range",
          "unit": "zł"
        },
        {
          "name": "Stan",
          "type": "Multiple",
          "values": [
            "Używany",
            "Nowy"
          ]
        },
        {
          "name": "dla kogo",
          "type": "Multiple",
          "values": [
            "damskie",
            "męskie"
          ]
        }
      ],
      "Pozostałe": [
        {
          "name": "Cena",
          "type": "Range",
          "unit": "zł"
        },
        {
          "name": "Stan",
          "type": "Multiple",
          "values": [
            "Używany",
            "Nowy"
          ]
        }
      ]
    },
    "Pielęgnacja ciała": {
      "Balsamy do ciała": [
        {
          "name": "Cena",
          "type": "Range",
          "unit": "zł"
        },
        {
          "name": "Stan",
          "type": "Multiple",
          "values": [
            "Używany",
            "Nowy"
          ]
        },
        {
          "name": "rodzaj",
          "type": "Multiple",
          "values": [
            "balsam",
            "emulsja",
            "krem",
            "masło",
            "mleczko",
            "olejek",
            "serum",
            "żel",
            "pianka",
            "lotion",
            "mgiełka",
            "mydło",
            "tonik",
            "inny"
          ]
        },
        {
          "name": "produkt bez",
          "type": "Multiple",
          "values": [
            "alkoholu",
            "aluminium",
            "amoniaku",
            "olejów mineralnych",
            "parabenów",
            "parafiny",
            "PEG",
            "silikonów",
            "składników pochodzenia zwierzęcego",
            "SLES",
            "SLS",
            "substancji zapachowych"
          ]
        },
        {
          "name": "opakowanie",
          "type": "Multiple",
          "values": [
            "ampułki",
            "atomizer",
            "butelka",
            "butelka z pipetką",
            "butelka z pompką",
            "kapsułki",
            "kartonik",
            "roll-on",
            "saszetka",
            "słoiczek",
            "spray",
            "tubka",
            "wiaderko",
            "woreczek",
            "tygielek",
            "inne"
          ]
        },
        {
          "name": "wielkosć",
          "type": "Multiple",
          "values": [
            "produkt pełnowymiarowy",
            "miniaturka"
          ]
        }
      ],
      "Samoopalacze": [
        {
          "name": "Cena",
          "type": "Range",
          "unit": "zł"
        },
        {
          "name": "Stan",
          "type": "Multiple",
          "values": [
            "Używany",
            "Nowy"
          ]
        },
        {
          "name": "przeznaczenie",
          "type": "Multiple",
          "values": [
            "do całego ciała",
            "do nóg",
            "do twarzy",
            "do twarzy i ciała"
          ]
        },
        {
          "name": "typ karnacji",
          "type": "Multiple",
          "values": [
            "jasna",
            "normalna",
            "ciemna"
          ]
        },
        {
          "name": "rodzaj",
          "type": "Multiple",
          "values": [
            "blasam",
            "chusteczki",
            "krem",
            "krople",
            "mgiełka",
            "mleczko",
            "mus",
            "pianka",
            "płyn",
            "rajstopy w sprayu/kremie",
            "spray",
            "żel",
            "inne"
          ]
        },
        {
          "name": "produkt bez",
          "type": "Multiple",
          "values": [
            "alkoholu",
            "aluminium",
            "amoniaku",
            "olejów mineralnych",
            "parabenów",
            "parafiny",
            "PEG",
            "silikonów",
            "składników pochodzenia zwierzęcego",
            "SLES",
            "SLS",
            "substancji zapachowych"
          ]
        },
        {
          "name": "opakowanie",
          "type": "Multiple",
          "values": [
            "atomizer",
            "butelka",
            "butelka z pipetką",
            "butelka z pompką",
            "saszetka",
            "spray",
            "tubka",
            "ampułki",
            "kartonik",
            "inne"
          ]
        },
        {
          "name": "wielkość",
          "type": "Multiple",
          "values": [
            "produkt pełnowymiarowy",
            "miniaturka"
          ]
        }
      ],
      "Kąpiel i prysznic": [
        {
          "name": "Cena",
          "type": "Range",
          "unit": "zł"
        },
        {
          "name": "Stan",
          "type": "Multiple",
          "values": [
            "Używany",
            "Nowy"
          ]
        },
        {
          "name": "rodzaj",
          "type": "Multiple",
          "values": [
            "mydła",
            "płyny, emulsje i olejki",
            "sole i kule do kąpieli",
            "żele",
            "pozostałe",
            "myjki, gąbki, szczotki"
          ]
        },
        {
          "name": "produkt bez",
          "type": "Multiple",
          "values": [
            "alkoholu",
            "aluminium",
            "amoniaku",
            "olejów mineralnych",
            "parabenów",
            "parafiny",
            "PEG",
            "silikonów",
            "składników pochodzenia zwierzęcego",
            "SLES",
            "SLS",
            "substancji zapachowych"
          ]
        }
      ],
      "Kosmetyki do opalania": [
        {
          "name": "Cena",
          "type": "Range",
          "unit": "zł"
        },
        {
          "name": "Stan",
          "type": "Multiple",
          "values": [
            "Używany",
            "Nowy"
          ]
        },
        {
          "name": "rodzaj",
          "type": "Multiple",
          "values": [
            "kosmetyki po opalaniu",
            "opalanie na słońcu",
            "opalanie natryskowe",
            "opalanie w solarium",
            "pozostałe"
          ]
        },
        {
          "name": "wielkość produktów",
          "type": "Multiple",
          "values": [
            "produkt pełnowymiarowy",
            "miniaturka"
          ]
        }
      ],
      "Kremy na rozstępy": [
        {
          "name": "Cena",
          "type": "Range",
          "unit": "zł"
        },
        {
          "name": "Stan",
          "type": "Multiple",
          "values": [
            "Używany",
            "Nowy"
          ]
        },
        {
          "name": "rodzaj",
          "type": "Multiple",
          "values": [
            "balsam",
            "emulsja",
            "krem",
            "masło",
            "mleczko",
            "olejek",
            "serum",
            "żel",
            "pianka",
            "lotion",
            "mgiełka",
            "mydło",
            "tonik",
            "inny"
          ]
        },
        {
          "name": "produkt bez",
          "type": "Multiple",
          "values": [
            "alkoholu",
            "aluminium",
            "amoniaku",
            "olejów mineralnych",
            "parabenów",
            "parafiny",
            "PEG",
            "silikonów",
            "składników pochodzenia zwierzęcego",
            "SLES",
            "SLS",
            "substancji zapachowych"
          ]
        },
        {
          "name": "opakowanie",
          "type": "Multiple",
          "values": [
            "ampułki",
            "atomizer",
            "butelka",
            "butelka z pipetką",
            "butelka z pompką",
            "kapsułki",
            "kartonik",
            "roll-on",
            "saszetka",
            "słoiczek",
            "spray",
            "tubka",
            "wiaderko",
            "woreczek",
            "tygielek",
            "inne"
          ]
        },
        {
          "name": "wielkość",
          "type": "Multiple",
          "values": [
            "produkt pełnowymiarowy",
            "miniaturka"
          ]
        }
      ],
      "Dłonie i stopy": [
        {
          "name": "Cena",
          "type": "Range",
          "unit": "zł"
        },
        {
          "name": "Stan",
          "type": "Multiple",
          "values": [
            "Używany",
            "Nowy"
          ]
        },
        {
          "name": "produkt",
          "type": "Multiple",
          "values": [
            "kremy do rąk",
            "maski, serum do rąk",
            "peelingi do rąk",
            "sole rąk",
            "parafiny",
            "kremy do stóp",
            "maski, serum do stóp",
            "peelingi do stóp",
            "sole do stóp",
            "dezodoranty do stóp",
            "na odciski, zrogowacenia, modzele, kurzajki i brodawki",
            "skarpetki złuszczające",
            "skarpetki i rękawiczki z preparatami",
            "skarpetki i rękawiczki bawełniane/kosmetyczne",
            "zestawy",
            "pozostałe"
          ]
        },
        {
          "name": "rodzaj",
          "type": "Multiple",
          "values": [
            "kremy",
            "plastry",
            "płyny",
            "pianki",
            "żele",
            "inne"
          ]
        },
        {
          "name": "opakowanie",
          "type": "Multiple",
          "values": [
            "ampułki",
            "atomizer",
            "butelka",
            "butelka z pipetką",
            "butelka z pompką",
            "kapsułki",
            "kartonik",
            "roll-on",
            "saszetka",
            "słoiczek",
            "spray",
            "tubka",
            "wiaderko",
            "woreczek",
            "tygielek",
            "inne"
          ]
        },
        {
          "name": "produkt bez",
          "type": "Multiple",
          "values": [
            "alkoholu",
            "aluminium",
            "amoniaku",
            "olejów mineralnych",
            "parabenów",
            "parafiny",
            "PEG",
            "silikonów",
            "składników pochodzenia zwierzęcego",
            "SLES",
            "SLS",
            "substancji zapachowych"
          ]
        },
        {
          "name": "filtr SPF",
          "type": "Multiple",
          "values": [
            "brak",
            "do 10",
            "11 - 20",
            "21 - 30",
            "31 - 40",
            "41 - 50",
            "powyżej 50"
          ]
        },
        {
          "name": "pojemność",
          "type": "Range"
        }
      ],
      "Golenie i depilacja": [
        {
          "name": "Cena",
          "type": "Range",
          "unit": "zł"
        },
        {
          "name": "Stan",
          "type": "Multiple",
          "values": [
            "Używany",
            "Nowy"
          ]
        },
        {
          "name": "dla kogo",
          "type": "Multiple",
          "values": [
            "dla kobiet",
            "dla mężczyzn",
            "pozostałe"
          ]
        },
        {
          "name": "rodzaj",
          "type": "Multiple",
          "values": [
            "depilacja woskiem, pastą",
            "kosmetyki przed depilacją",
            "kremy, żele, pianki do depilacji",
            "kosmetyki po depilacji",
            "maszynki",
            "wkłady do maszynek",
            "pianki, żele i mydła do golenia",
            "rozjaśniacze do włosków",
            "brzytwy, szawetki i akcesoria",
            "pędzle do golenia",
            "żyletki",
            "balsamy po goleniu",
            "zestawy do golenia",
            "ałuny",
            "pielegnacja zarostu"
          ]
        }
      ],
      "Produkty do higieny intymnej": [
        {
          "name": "Cena",
          "type": "Range",
          "unit": "zł"
        },
        {
          "name": "Stan",
          "type": "Multiple",
          "values": [
            "Używany",
            "Nowy"
          ]
        },
        {
          "name": "produkt",
          "type": "Multiple",
          "values": [
            "podpaski",
            "wkładki higieniczne",
            "tampony",
            "pozostałe"
          ]
        },
        {
          "name": "długość",
          "type": "Multiple",
          "values": [
            "standardowe",
            "długie",
            "stringi",
            "multiform",
            "inne"
          ]
        },
        {
          "name": "chłonność",
          "type": "Multiple",
          "values": [
            "normal",
            "super",
            "super plus"
          ]
        }
      ],
      "Kosmetyki do higieny intymnej": [
        {
          "name": "Cena",
          "type": "Range",
          "unit": "zł"
        },
        {
          "name": "Stan",
          "type": "Multiple",
          "values": [
            "Używany",
            "Nowy"
          ]
        },
        {
          "name": "produkt",
          "type": "Multiple",
          "values": [
            "płyny",
            "chusteczki do higieny intymnej",
            "pozostałe"
          ]
        },
        {
          "name": "rodzaj",
          "type": "Multiple",
          "values": [
            "emulsja",
            "mydło w kostce",
            "pianka",
            "płyn",
            "żel",
            "inny"
          ]
        },
        {
          "name": "produkt bez",
          "type": "Multiple",
          "values": [
            "alkoholu",
            "aluminium",
            "amoniaku",
            "olejów mineralnych",
            "parabenów",
            "parafiny",
            "PEG",
            "silikonów",
            "składników pochodzenia zwierzęcego",
            "SLES",
            "SLS",
            "substancji zapachowych"
          ]
        },
        {
          "name": "opakowanie",
          "type": "Multiple",
          "values": [
            "ampułki",
            "atomizer",
            "butelka",
            "butelka z pipetką",
            "butelka z pompką",
            "kapsułki",
            "kartonik",
            "roll-on",
            "saszetka",
            "słoiczek",
            "spray",
            "tubka",
            "wiaderko"
          ]
        }
      ],
      "Zestawy kosmetyków": [
        {
          "name": "Cena",
          "type": "Range",
          "unit": "zł"
        },
        {
          "name": "Stan",
          "type": "Multiple",
          "values": [
            "Używany",
            "Nowy"
          ]
        },
        {
          "name": "przeznaczenie",
          "type": "Multiple",
          "values": [
            "do ciała",
            "do twarzy",
            "do włosów",
            "do manicure",
            "do pedicure"
          ]
        },
        {
          "name": "wielkość produktu",
          "type": "Multiple",
          "values": [
            "produkt pełnowymiarowy",
            "miniaturka"
          ]
        }
      ],
      "Pozostałe": [
        {
          "name": "Cena",
          "type": "Range",
          "unit": "zł"
        },
        {
          "name": "Stan",
          "type": "Multiple",
          "values": [
            "Używany",
            "Nowy"
          ]
        }
      ]
    },
    "Pielęgnacja twarzy": {
      "Kremy do twarzy": [
        {
          "name": "Cena",
          "type": "Range",
          "unit": "zł"
        },
        {
          "name": "Stan",
          "type": "Multiple",
          "values": [
            "Używany",
            "Nowy"
          ]
        },
        {
          "name": "rodzaj",
          "type": "Multiple",
          "values": [
            "na dzień",
            "na noc",
            "na dzień i na noc"
          ]
        },
        {
          "name": "typ skóry",
          "type": "Multiple",
          "values": [
            "alergiczna",
            "dojrzała",
            "mieszana",
            "naczynkowa",
            "normalna",
            "problematyczna",
            "sucha",
            "tłusta",
            "wrażliwa",
            "do wszystkich typów skóry"
          ]
        },
        {
          "name": "działanie",
          "type": "Multiple",
          "values": [
            "chłodzące",
            "łagodzące",
            "matujące",
            "natłuszczające",
            "nawilżające",
            "ochrona UV",
            "ochrona zimowa",
            "oczyszczające",
            "odżywiające",
            "przeciw niedoskonałościom",
            "przeciw zaskórnikom",
            "przeciwstarzeniowe",
            "redukujące cenie pod oczami",
            "rozgrzewające",
            "rozświetlające",
            "ujędrniające",
            "wielozadaniowe",
            "złuszczające",
            "zwężające pory"
          ]
        },
        {
          "name": "forma",
          "type": "Multiple",
          "values": [
            "emulsja",
            "żel",
            "krem",
            "płyn",
            "roll-on",
            "inna"
          ]
        },
        {
          "name": "produkt bez",
          "type": "Multiple",
          "values": [
            "alkoholu",
            "aluminium",
            "amoniaku",
            "olejów mineralnych",
            "parabenów",
            "parafiny",
            "PEG",
            "silikonów",
            "składników pochodzenia zwierzęcego",
            "SLES",
            "SLS",
            "substancji zapachowych"
          ]
        },
        {
          "name": "filtr SPF",
          "type": "Multiple",
          "values": [
            "brak",
            "do 10",
            "11 - 20",
            "21 - 30",
            "31 - 40",
            "41 - 50",
            "powyżej 50"
          ]
        },
        {
          "name": "opakowanie",
          "type": "Multiple",
          "values": [
            "ampułki",
            "atomizer",
            "butelka",
            "butelka z pipetką",
            "butelka z pompką",
            "kapsułki",
            "kartonik",
            "roll-on",
            "saszetka",
            "słoiczek",
            "spray",
            "tubka",
            "wiaderko",
            "woreczek",
            "tygielek",
            "inne",
            "woreczek",
            "tygielek",
            "inne"
          ]
        }
      ],
      "Kremy pod oczy": [
        {
          "name": "Cena",
          "type": "Range",
          "unit": "zł"
        },
        {
          "name": "Stan",
          "type": "Multiple",
          "values": [
            "Używany",
            "Nowy"
          ]
        }
      ],
      "Serum do twarzy": [
        {
          "name": "Cena",
          "type": "Range",
          "unit": "zł"
        },
        {
          "name": "Stan",
          "type": "Multiple",
          "values": [
            "Używany",
            "Nowy"
          ]
        }
      ],
      "Maseczki do twarzy": [
        {
          "name": "Cena",
          "type": "Range",
          "unit": "zł"
        },
        {
          "name": "Stan",
          "type": "Multiple",
          "values": [
            "Używany",
            "Nowy"
          ]
        }
      ],
      "Oczyszczanie i demakijaż": [
        {
          "name": "Cena",
          "type": "Range",
          "unit": "zł"
        },
        {
          "name": "Stan",
          "type": "Multiple",
          "values": [
            "Używany",
            "Nowy"
          ]
        }
      ],
      "Kolagen": [
        {
          "name": "Cena",
          "type": "Range",
          "unit": "zł"
        },
        {
          "name": "Stan",
          "type": "Multiple",
          "values": [
            "Używany",
            "Nowy"
          ]
        }
      ],
      "Kwasy, peelingi chemiczne": [
        {
          "name": "Cena",
          "type": "Range",
          "unit": "zł"
        },
        {
          "name": "Stan",
          "type": "Multiple",
          "values": [
            "Używany",
            "Nowy"
          ]
        },
        {
          "name": "rodzaj",
          "type": "Multiple",
          "values": [
            "kwas",
            "neutralizator",
            "inny"
          ]
        },
        {
          "name": "typ kwasu",
          "type": "Multiple",
          "values": [
            "azelainowy",
            "ferulowy",
            "glikolowy",
            "laktobionowy",
            "migdałowy",
            "mlekowy",
            "pirogronowy",
            "salicylowy",
            "inny"
          ]
        },
        {
          "name": "działanie",
          "type": "Multiple",
          "values": [
            "chłodzące",
            "łagodzące",
            "matujące",
            "natłuszczające",
            "nawilżające",
            "ochrona UV",
            "ochrona zimowa",
            "oczyszczające",
            "odżywiające",
            "przeciw niedoskonałościom",
            "przeciw zaskórnikom",
            "przeciwstarzeniowe",
            "redukujące cenie pod oczami",
            "rozgrzewające",
            "rozświetlające",
            "ujędrniające",
            "wielozadaniowe",
            "złuszczające",
            "zwężające pory"
          ]
        }
      ],
      "Olejki do twarzy": [
        {
          "name": "Cena",
          "type": "Range",
          "unit": "zł"
        },
        {
          "name": "Stan",
          "type": "Multiple",
          "values": [
            "Używany",
            "Nowy"
          ]
        },
        {
          "name": "rodzaj",
          "type": "Multiple",
          "values": [
            "Arganowy",
            "Awokado",
            "Czarna porzeczka",
            "Czarnuszka",
            "Drzewo herbaciane",
            "Jojoba",
            "Kokosowy",
            "Konopny",
            "Laurowy",
            "Makadamia",
            "Marchewkowy",
            "Marula",
            "Mieszanka",
            "Migdałowy",
            "Monoi",
            "Ogórecznik",
            "Opuncja figowa",
            "Perilla",
            "Pestki dyni",
            "Pestki malin",
            "Pestki moreli",
            "Rokitnikowy",
            "Różany",
            "Rycynowy",
            "Tamanu",
            "Inny",
            "Pichtowy"
          ]
        },
        {
          "name": "produkt bez",
          "type": "Multiple",
          "values": [
            "alkoholu",
            "aluminium",
            "amoniaku",
            "olejów mineralnych",
            "parabenów",
            "parafiny",
            "PEG",
            "silikonów",
            "składników pochodzenia zwierzęcego",
            "SLES",
            "SLS",
            "substancji zapachowych"
          ]
        },
        {
          "name": "opakowanie",
          "type": "Multiple",
          "values": [
            "ampułki",
            "atomizer",
            "butelka",
            "butelka z pipetką",
            "butelka z pompką",
            "kapsułki",
            "kartonik",
            "roll-on",
            "saszetka",
            "słoiczek",
            "spray",
            "tubka",
            "wiaderko",
            "woreczek",
            "tygielek",
            "inne"
          ]
        },
        {
          "name": "działanie",
          "type": "Multiple",
          "values": [
            "chłodzące",
            "łagodzące",
            "matujące",
            "natłuszczające",
            "nawilżające",
            "ochrona UV",
            "ochrona zimowa",
            "oczyszczające",
            "odżywiające",
            "przeciw niedoskonałościom",
            "przeciw zaskórnikom",
            "przeciwstarzeniowe",
            "redukujące cenie pod oczami",
            "rozgrzewające",
            "rozświetlające",
            "ujędrniające",
            "wielozadaniowe",
            "złuszczające",
            "zwężające pory"
          ]
        }
      ],
      "Peelingi i scruby": [
        {
          "name": "Cena",
          "type": "Range",
          "unit": "zł"
        },
        {
          "name": "Stan",
          "type": "Multiple",
          "values": [
            "Używany",
            "Nowy"
          ]
        },
        {
          "name": "rodzaj",
          "type": "Multiple",
          "values": [
            "drobnoziarnisty",
            "enzymatyczny",
            "gruboziarnisty",
            "mikrodermabrazja",
            "inny"
          ]
        },
        {
          "name": "działanie",
          "type": "Multiple",
          "values": [
            "chłodzące",
            "łagodzące",
            "matujące",
            "natłuszczające",
            "nawilżające",
            "ochrona UV",
            "ochrona zimowa",
            "oczyszczające",
            "odżywiające",
            "przeciw niedoskonałościom",
            "przeciw zaskórnikom",
            "przeciwstarzeniowe",
            "redukujące cenie pod oczami",
            "rozgrzewające",
            "rozświetlające",
            "ujędrniające",
            "wielozadaniowe",
            "złuszczające",
            "zwężające pory"
          ]
        },
        {
          "name": "postać",
          "type": "Multiple",
          "values": [
            "krem",
            "pasta",
            "peel-off",
            "proszek",
            "płatki",
            "żel"
          ]
        },
        {
          "name": "produkt bez",
          "type": "Multiple",
          "values": [
            "alkoholu",
            "aluminium",
            "amoniaku",
            "olejów mineralnych",
            "parabenów",
            "parafiny",
            "PEG",
            "silikonów",
            "składników pochodzenia zwierzęcego",
            "SLES",
            "SLS",
            "substancji zapachowych"
          ]
        }
      ],
      "Toniki, hydrolaty, wody termalne": [
        {
          "name": "Cena",
          "type": "Range",
          "unit": "zł"
        },
        {
          "name": "Stan",
          "type": "Multiple",
          "values": [
            "Używany",
            "Nowy"
          ]
        },
        {
          "name": "rodzaj",
          "type": "Multiple",
          "values": [
            "esencja",
            "hydrolat",
            "lotion",
            "mgiełka",
            "tonik",
            "woda termalna",
            "inny"
          ]
        },
        {
          "name": "działanie",
          "type": "Multiple",
          "values": [
            "antybakteryjne",
            "matujące",
            "nawilżające",
            "odświeżające",
            "złuszczające",
            "łagodzące",
            "przeciw zaskórnikom",
            "przeciwstarzeniowe",
            "ujędrniające",
            "zwężające pory"
          ]
        },
        {
          "name": "produkt bez",
          "type": "Multiple",
          "values": [
            "alkoholu",
            "aluminium",
            "amoniaku",
            "olejów mineralnych",
            "parabenów",
            "parafiny",
            "PEG",
            "silikonów",
            "składników pochodzenia zwierzęcego",
            "SLES",
            "SLS",
            "substancji zapachowych"
          ]
        },
        {
          "name": "opakowanie",
          "type": "Multiple",
          "values": [
            "ampułki",
            "atomizer",
            "butelka",
            "butelka z pipetką",
            "butelka z pompką",
            "kapsułki",
            "kartonik",
            "roll-on",
            "saszetka",
            "słoiczek",
            "spray",
            "tubka",
            "wiaderko",
            "woreczek",
            "tygielek",
            "inne"
          ]
        }
      ],
      "Pozostałe": [
        {
          "name": "Cena",
          "type": "Range",
          "unit": "zł"
        },
        {
          "name": "Stan",
          "type": "Multiple",
          "values": [
            "Używany",
            "Nowy"
          ]
        }
      ]
    },
    "Urządzenia kosmetyczne": {
      "Urządzenia": [
        {
          "name": "Cena",
          "type": "Range",
          "unit": "zł"
        },
        {
          "name": "Stan",
          "type": "Multiple",
          "values": [
            "Używany",
            "Nowy"
          ]
        },
        {
          "name": "rodzaj",
          "type": "Multiple",
          "values": [
            "odkurzacze na wągry",
            "peelingi kawitacyjne",
            "szczoteczki do twarzy",
            "urządzenia do mezoterapii",
            "urządzenia do okolic oczu",
            "urządzenia typu Darsonval",
            "pozostałe"
          ]
        },
        {
          "name": "zasilanie",
          "type": "Multiple",
          "values": [
            "akumulatorowe",
            "bateryjne",
            "sieciowe",
            "sieciowo-akumulatorowe",
            "brak"
          ]
        }
      ]
    },
    "Pielęgnacja włosów": {
      "Szampony": [
        {
          "name": "Cena",
          "type": "Range",
          "unit": "zł"
        },
        {
          "name": "Stan",
          "type": "Multiple",
          "values": [
            "Używany",
            "Nowy"
          ]
        },
        {
          "name": "typ szamponu",
          "type": "Multiple",
          "values": [
            "suche szampony",
            "szampon i odżywka 2w1",
            "szampon i żel pod prysznic 2w1",
            "szampony"
          ]
        },
        {
          "name": "kolor włosów",
          "type": "Multiple",
          "values": [
            "dla blondynek",
            "dla brunetek",
            "dla rudych",
            "dla siwych",
            "dla szatynek",
            "do każdego koloru włosów"
          ]
        },
        {
          "name": "produkt bez",
          "type": "Multiple",
          "values": [
            "alkoholu",
            "aluminium",
            "amoniaku",
            "olejów mineralnych",
            "parabenów",
            "parafiny",
            "PEG",
            "silikonów",
            "składników pochodzenia zwierzęcego",
            "SLES",
            "SLS",
            "substancji zapachowych"
          ]
        },
        {
          "name": "rodzaj włosów",
          "type": "Multiple",
          "values": [
            "cienkie i delikatne",
            "farbowane",
            "kręcone",
            "przetłuszczające się",
            "siwe",
            "suche i zniszczone",
            "do każdego typu włosów",
            "osłabione"
          ]
        },
        {
          "name": "efekt",
          "type": "Multiple",
          "values": [
            "dodatkowa objętość",
            "ochorna UV",
            "prostowanie i wygładzanie",
            "przeciw starzeniu się włosów",
            "przeciw wypadaniu włosów",
            "przeciwłupieżowe",
            "regeneracja i nawilżenie",
            "łagodzące",
            "ułatwiające rozczesywanie",
            "ochorna koloru",
            "regulacja sebum",
            "termochorona",
            "oczyszczanie",
            "uniwersalna promocja",
            "stymulacja wzrosu włosów"
          ]
        },
        {
          "name": "opakowanie",
          "type": "Multiple",
          "values": [
            "ampułki",
            "atomizer",
            "butelka",
            "butelka z pipetką",
            "butelka z pompką",
            "kapsułki",
            "kartonik",
            "roll-on",
            "saszetka",
            "słoiczek",
            "spray",
            "tubka",
            "wiaderko",
            "woreczek",
            "tygielek",
            "inne"
          ]
        }
      ],
      "Odżywki i maski do włosów": [
        {
          "name": "Cena",
          "type": "Range",
          "unit": "zł"
        },
        {
          "name": "Stan",
          "type": "Multiple",
          "values": [
            "Używany",
            "Nowy"
          ]
        },
        {
          "name": "typ",
          "type": "Multiple",
          "values": [
            "do spłukania",
            "bez spłukiwania"
          ]
        },
        {
          "name": "kolor włosów",
          "type": "Multiple",
          "values": [
            "dla blondynek",
            "dla brunetek",
            "dla rudych",
            "dla siwych",
            "dla szatynek",
            "do każdego koloru włosów"
          ]
        },
        {
          "name": "produkt bez",
          "type": "Multiple",
          "values": [
            "alkoholu",
            "aluminium",
            "amoniaku",
            "olejów mineralnych",
            "parabenów",
            "parafiny",
            "PEG",
            "silikonów",
            "składników pochodzenia zwierzęcego",
            "SLES",
            "SLS",
            "substancji zapachowych"
          ]
        },
        {
          "name": "rodzaj włosów",
          "type": "Multiple",
          "values": [
            "cienkie i delikatne",
            "farbowane",
            "kręcone",
            "przetłuszczające się",
            "siwe",
            "suche i zniszczone",
            "do każdego typu włosów",
            "osłabione"
          ]
        },
        {
          "name": "działanie",
          "type": "Multiple",
          "values": [
            "dodatkowa objętość",
            "ochorna UV",
            "prostowanie i wygładzanie",
            "przeciw starzeniu się włosów",
            "przeciw wypadaniu włosów",
            "przeciwłupieżowe",
            "regeneracja i nawilżenie",
            "łagodzące",
            "ułatwiające rozczesywanie",
            "ochorna koloru",
            "regulacja sebum",
            "termochorona",
            "oczyszczanie",
            "uniwersalna promocja",
            "stymulacja wzrosu włosów"
          ]
        },
        {
          "name": "opakowanie",
          "type": "Multiple",
          "values": [
            "ampułki",
            "atomizer",
            "butelka",
            "butelka z pipetką",
            "butelka z pompką",
            "kapsułki",
            "kartonik",
            "roll-on",
            "saszetka",
            "słoiczek",
            "spray",
            "tubka",
            "wiaderko",
            "woreczek",
            "tygielek"
          ]
        }
      ],
      "Koloryzacja": [
        {
          "name": "Cena",
          "type": "Range",
          "unit": "zł"
        },
        {
          "name": "Stan",
          "type": "Multiple",
          "values": [
            "Używany",
            "Nowy"
          ]
        },
        {
          "name": "typ",
          "type": "Multiple",
          "values": [
            "farby",
            "henny",
            "kremy utleniajace",
            "płukanki",
            "rozjaśniacze",
            "przybory fryzjerskie"
          ]
        },
        {
          "name": "kolor farby",
          "type": "Multiple",
          "values": [
            "blondy",
            "brązy",
            "czernie",
            "rudości i czerwienie",
            "mahonie",
            "inne"
          ]
        },
        {
          "name": "produkt bez",
          "type": "Multiple",
          "values": [
            "alkoholu",
            "aluminium",
            "amoniaku",
            "olejów mineralnych",
            "parabenów",
            "parafiny",
            "PEG",
            "silikonów",
            "składników pochodzenia zwierzęcego",
            "SLES",
            "SLS",
            "substancji zapachowych"
          ]
        },
        {
          "name": "kolor włosów",
          "type": "Multiple",
          "values": [
            "dla blondynek",
            "dla brunetek",
            "dla rudych",
            "dla siwych",
            "dla szatynek",
            "do każdego koloru włosów"
          ]
        }
      ],
      "Keratynowe prostowanie włosów": [
        {
          "name": "Cena",
          "type": "Range",
          "unit": "zł"
        },
        {
          "name": "Stan",
          "type": "Multiple",
          "values": [
            "Używany",
            "Nowy"
          ]
        },
        {
          "name": "produkt bez",
          "type": "Multiple",
          "values": [
            "alkoholu",
            "aluminium",
            "amoniaku",
            "olejów mineralnych",
            "parabenów",
            "parafiny",
            "PEG",
            "silikonów",
            "składników pochodzenia zwierzęcego",
            "SLES",
            "SLS",
            "substancji zapachowych"
          ]
        },
        {
          "name": "opakowanie",
          "type": "Multiple",
          "values": [
            "ampułki",
            "atomizer",
            "butelka",
            "butelka z pipetką",
            "butelka z pompką",
            "kapsułki",
            "kartonik",
            "roll-on",
            "saszetka",
            "słoiczek",
            "spray",
            "tubka",
            "wiaderko",
            "woreczek",
            "tygielek",
            "inne"
          ]
        },
        {
          "name": "pojemność ml",
          "type": "Range"
        }
      ],
      "Utrwalenie i modelowanie": [
        {
          "name": "Cena",
          "type": "Range",
          "unit": "zł"
        },
        {
          "name": "Stan",
          "type": "Multiple",
          "values": [
            "Używany",
            "Nowy"
          ]
        },
        {
          "name": "produkt",
          "type": "Multiple",
          "values": [
            "lakiery",
            "żele",
            "gumy",
            "woski",
            "pianki"
          ]
        },
        {
          "name": "poziom utrwalenia",
          "type": "Multiple",
          "values": [
            "lekki",
            "średni",
            "mocny",
            "bardzo mocny"
          ]
        },
        {
          "name": "produkt bez",
          "type": "Multiple",
          "values": [
            "alkoholu",
            "aluminium",
            "amoniaku",
            "olejów mineralnych",
            "parabenów",
            "parafiny",
            "PEG",
            "silikonów",
            "składników pochodzenia zwierzęcego",
            "SLES",
            "SLS",
            "substancji zapachowych"
          ]
        },
        {
          "name": "pojemność",
          "type": "Range"
        }
      ],
      "Olejki do włosów": [
        {
          "name": "Cena",
          "type": "Range",
          "unit": "zł"
        },
        {
          "name": "Stan",
          "type": "Multiple",
          "values": [
            "Używany",
            "Nowy"
          ]
        },
        {
          "name": "rodzaj włosów",
          "type": "Multiple",
          "values": [
            "cienkie i delikatne",
            "farbowane",
            "kręcone",
            "przetłuszczające się",
            "siwe",
            "suche i zniszczone",
            "do każdego typu włosów",
            "osłabione"
          ]
        },
        {
          "name": "rodzaj olejku",
          "type": "Multiple",
          "values": [
            "arganowy",
            "awokado",
            "czarna porzeczka",
            "czarnuszka",
            "drzewo herbaciane",
            "inny",
            "jojoba",
            "kokosowy",
            "konopny",
            "laurowy",
            "makadamia",
            "marula",
            "mieszanka",
            "migdałowy",
            "monoi",
            "ogórecznik",
            "opuncja figowa",
            "pestki dyni",
            "pestki malin",
            "rokitnikowy",
            "różany",
            "rycynowy",
            "tamanu"
          ]
        },
        {
          "name": "typ olejku",
          "type": "Multiple",
          "values": [
            "bez spłukiwania",
            "do spłukiwania"
          ]
        },
        {
          "name": "działanie",
          "type": "Multiple",
          "values": [
            "dodatkowa objętość",
            "ochorna UV",
            "prostowanie i wygładzanie",
            "przeciw starzeniu się włosów",
            "przeciw wypadaniu włosów",
            "przeciwłupieżowe",
            "regeneracja i nawilżenie",
            "łagodzące",
            "ułatwiające rozczesywanie",
            "ochorna koloru",
            "regulacja sebum",
            "termochorona",
            "oczyszczanie",
            "uniwersalna promocja",
            "stymulacja wzrosu włosów"
          ]
        },
        {
          "name": "pojemność",
          "type": "Range"
        }
      ],
      "Pozostałe": [
        {
          "name": "Cena",
          "type": "Range",
          "unit": "zł"
        },
        {
          "name": "Stan",
          "type": "Multiple",
          "values": [
            "Używany",
            "Nowy"
          ]
        }
      ]
    }
  }
}
