{
  "Zdrowie": {
    "name": "Zdrowie",
    "pos": 11,
    "level": 0,
    "ogDescription": "Sprawdź okazyjne oferty w najlepszych cenach dla kategorii 'zdrowie' na okazja.pl",
    "metaTitle": "Zdrowie",
    "metaDescription": "Sprawdź okazyjne oferty w najlepszych cenach dla kategorii 'zdrowie' na okazja.pl",
    "description": "W zdrowym ciele zdrowy duch - można powiedzieć, że to przysłowie bardzo mocno ugruntowało się w naszych głowach. Zdajemy sobie sprawę, że stan naszego organizmu bezpośrednio wpływa na to jak się czujemy, więc chcemy dbać i pielęgnować nasze zdrowie. Na naszym serwisie zadbaliśmy o to, żebyś mógł znaleźć najodpowiedniejsze produkty, które pozwolą zadbać o twoje zdrowie, jednocześnie wciąż wybierać i kupować jedynie naprawdę w okazyjnych cenach.",
    "subcategories": [
      {
        "name": "Dermokosmetyki",
        "pos": 0,
        "level": 1,
        "ogDescription": "Sprawdź okazyjne oferty w najlepszych cenach dla kategorii 'dermokosmetyki' na okazja.pl",
        "metaTitle": "Dermokosmetyki",
        "metaDescription": "Sprawdź okazyjne oferty w najlepszych cenach dla kategorii 'dermokosmetyki' na okazja.pl",
        "description": "Wymagająca skóra potrzebuje odpowiedniego traktowania. Dermokosmetyki to kosmetyki stworzone przez koncerny farmaceutyczne, by odpowiednio pielęgnować skórę. Nierzadko, dermokosmetyki pomagają w ostrych problemach dermatologicznych, łagodząc zmienione chorobowo miejsca. Na Okazja.pl znajdziesz wiele renomowanych kosmetyków, które zadbają o twoją skórę.",
        "subcategories": [
          {
            "name": "Dermokosmetyki do twarzy",
            "pos": 0,
            "level": 2,
            "ogDescription": "Sprawdź okazyjne oferty w najlepszych cenach dla kategorii 'dermokosmetyki do twarzy - zdrowie' na okazja.pl",
            "metaTitle": "Dermokosmetyki do twarzy",
            "metaDescription": "Sprawdź okazyjne oferty w najlepszych cenach dla kategorii 'dermokosmetyki do twarzy - zdrowie' na okazja.pl",
            "description": "",
            "properties": [
              {
                "name": "Rodzaj",
                "type": "Multiple",
                "values": [
                  "Kremy do twarzy",
                  "Kremy pod oczy",
                  "Makijaż",
                  "Maseczki do twarzy",
                  "Oczyszczanie i demakijaż",
                  "Olejki do twarzy",
                  "Peelingi i scruby do twarzy",
                  "Serum",
                  "Toniki, hydrolaty, wody termalne",
                  "Pozostałe"
                ]
              }
            ]
          },
          {
            "name": "Dermokosmetyki do ciała",
            "pos": 1,
            "level": 2,
            "ogDescription": "Sprawdź okazyjne oferty w najlepszych cenach dla kategorii 'dermokosmetyki do ciała - zdrowie' na okazja.pl",
            "metaTitle": "Dermokosmetyki do ciała",
            "metaDescription": "Sprawdź okazyjne oferty w najlepszych cenach dla kategorii 'dermokosmetyki do ciała - zdrowie' na okazja.pl",
            "description": "",
            "properties": [
              {
                "name": "Rodzaj",
                "type": "Multiple",
                "values": [
                  "Antyperspiranty",
                  "Balsamy, masła, kremy do ciała",
                  "Kremy do rąk",
                  "Kremy do stóp",
                  "Kąpiel i prysznic",
                  "Mgiełki do ciała",
                  "Olejki do ciała",
                  "Peelingi i scruby do ciała",
                  "Pozostałe"
                ]
              }
            ]
          },
          {
            "name": "Dermokosmetyki do opalania",
            "pos": 2,
            "level": 2,
            "ogDescription": "Sprawdź okazyjne oferty w najlepszych cenach dla kategorii 'dermokosmetyki do opalania - zdrowie' na okazja.pl",
            "metaTitle": "Dermokosmetyki do opalania",
            "metaDescription": "Sprawdź okazyjne oferty w najlepszych cenach dla kategorii 'dermokosmetyki do opalania - zdrowie' na okazja.pl",
            "description": "",
            "properties": [
              {
                "name": "Rodzaj",
                "type": "Multiple",
                "values": [
                  "Kosmetyki po opalaniu",
                  "Opalanie na słońcu",
                  "Samoopalacze, preparaty brązujące",
                  "Pozostałe"
                ]
              }
            ]
          },
          {
            "name": "Dermokosmetyki do włosów",
            "pos": 3,
            "level": 2,
            "ogDescription": "Sprawdź okazyjne oferty w najlepszych cenach dla kategorii 'dermokosmetyki do włosów - zdrowie' na okazja.pl",
            "metaTitle": "Dermokosmetyki do włosów",
            "metaDescription": "Sprawdź okazyjne oferty w najlepszych cenach dla kategorii 'dermokosmetyki do włosów - zdrowie' na okazja.pl",
            "description": "",
            "properties": [
              {
                "name": "Rodzaj",
                "type": "Multiple",
                "values": [
                  "Kuracje do włosów",
                  "Odżywki, maski, balsamy do włosów",
                  "Olejki do włosów",
                  "Szampony",
                  "Pozostałe"
                ]
              }
            ]
          },
          {
            "name": "Zestawy dermokosmetyków",
            "pos": 4,
            "level": 2,
            "ogDescription": "Sprawdź okazyjne oferty w najlepszych cenach dla kategorii 'zestawy dermokosmetyków - zdrowie' na okazja.pl",
            "metaTitle": "Zestawy dermokosmetyków",
            "metaDescription": "Sprawdź okazyjne oferty w najlepszych cenach dla kategorii 'zestawy dermokosmetyków - zdrowie' na okazja.pl",
            "description": "",
            "properties": [
              {
                "name": "Przeznaczenie",
                "type": "Multiple",
                "values": [
                  "do ciała",
                  "do twarzy",
                  "do włosów"
                ]
              },
              {
                "name": "Problem skóry",
                "type": "Multiple",
                "values": [
                  "naczynka",
                  "nadwrażliwość",
                  "suchość skóry",
                  "bielactwo",
                  "blizny",
                  "celulit, rozstępy",
                  "egzema",
                  "łupież",
                  "nadmierna potliwość",
                  "przebarwienia",
                  "trądzik",
                  "pozostałe"
                ]
              }
            ]
          },
          {
            "name": "Pozostałe",
            "pos": 5,
            "level": 2,
            "ogDescription": "Sprawdź okazyjne oferty w najlepszych cenach dla kategorii 'pozostałe dermokosmetyki - zdrowie' na okazja.pl",
            "metaTitle": "Pozostałe - Dermokosmetyki",
            "metaDescription": "Sprawdź okazyjne oferty w najlepszych cenach dla kategorii 'pozostałe dermokosmetyki - zdrowie' na okazja.pl",
            "description": ""
          }
        ],
        "properties": [
          {
            "name": "Marka",
            "type": "Multiple",
            "values": [
              "A-Derma",
              "allerco",
              "Auriga",
              "Avene",
              "Bandi",
              "Bielenda Professional",
              "Bioderma",
              "Bioliq",
              "Biovax",
              "Bioxsine",
              "CeraVe",
              "Cerko",
              "Cetaphil",
              "Clochee",
              "Dermedic",
              "dermena",
              "Dexeryl",
              "Dr Irena Eris",
              "Ducray",
              "Elancyl",
              "Embryolisse",
              "emolium",
              "Evree",
              "FlosLek Pharma",
              "Green Pharmacy",
              "Himalaya",
              "Iwostin",
              "Klorane",
              "L'biotica",
              "La Roche-Posay",
              "Lefrosch",
              "Lierac",
              "Mincer Pharma",
              "Mixa",
              "mustela",
              "Nuxe",
              "Oilatum",
              "Oillan",
              "Pharmaceris",
              "Physiogel",
              "Phyto",
              "Regenerum",
              "remescar",
              "Rene Furterer",
              "Seboradin",
              "sesderma",
              "SVR",
              "Sylveco",
              "Synchroline",
              "tołpa",
              "Uriage",
              "Vichy",
              "Vis Plantis",
              "ziaja",
              "bjobj",
              "cosnature",
              "Dermika",
              "Dr.G",
              "Palmer's",
              "inna"
            ]
          },
          {
            "name": "Opakowanie",
            "type": "Multiple",
            "values": [
              "słoiczek",
              "tubka",
              "w paletce",
              "w pędzelku",
              "z aplikatorem",
              "inne"
            ]
          },
          {
            "name": "Wodoodporny",
            "type": "Multiple",
            "values": [
              "tak",
              "nie"
            ]
          }
        ]
      },
      {
        "name": "Higiena jamy ustnej",
        "pos": 1,
        "level": 1,
        "ogDescription": "Sprawdź okazyjne oferty w najlepszych cenach dla kategorii 'higiena jamy ustnej' na okazja.pl",
        "metaTitle": "Higiena jamy ustnej",
        "metaDescription": "Sprawdź okazyjne oferty w najlepszych cenach dla kategorii 'higiena jamy ustnej' na okazja.pl",
        "description": "Dbanie o zęby jest bardzo istotną sprawą - zęby nie tylko służą nam do gryzienia, ale są też ważną częścią naszego układu mowy, oraz utrzymują mięśnie twarzy, dzięki czemu rysy twarzy nie zmieniają się nadmiernie w ciągu naszego życia. Higiena jamy ustnej jest profilaktyką wielu chorób, na Okazji.pl znajdziesz wiele produktów, które pomogą dbać ci o zęby, dzięki czemu będziesz cieszyć się pełnym uśmiechem przez długi czas.",
        "subcategories": [
          {
            "name": "Nici dentystyczne",
            "pos": 0,
            "level": 2,
            "ogDescription": "Sprawdź okazyjne oferty w najlepszych cenach dla kategorii 'nici dentystyczne - higiena jamy ustnej' na okazja.pl",
            "metaTitle": "Nici dentystyczne",
            "metaDescription": "Sprawdź okazyjne oferty w najlepszych cenach dla kategorii 'nici dentystyczne - higiena jamy ustnej' na okazja.pl",
            "description": "",
            "properties": [
              {
                "name": "Rodzaj",
                "type": "Multiple",
                "values": [
                  "nici",
                  "nicio-wykałaczki",
                  "taśmy"
                ]
              },
              {
                "name": "Cechy dodatkowe",
                "type": "Multiple",
                "values": [
                  "bez fluoru",
                  "nylonowe",
                  "ortodontyczne",
                  "pęczniejące",
                  "woskowane",
                  "wybielające",
                  "z węglem",
                  "brak"
                ]
              }
            ]
          },
          {
            "name": "Szczoteczki do zębów",
            "pos": 1,
            "level": 2,
            "ogDescription": "Sprawdź okazyjne oferty w najlepszych cenach dla kategorii 'szczoteczki do zębów - higiena jamy ustnej' na okazja.pl",
            "metaTitle": "Szczoteczki do zębów",
            "metaDescription": "Sprawdź okazyjne oferty w najlepszych cenach dla kategorii 'szczoteczki do zębów - higiena jamy ustnej' na okazja.pl",
            "description": "",
            "properties": [
              {
                "name": "Rodzaj",
                "type": "Multiple",
                "values": [
                  "Elektryczne",
                  "Manualne"
                ]
              }
            ]
          },
          {
            "name": "Czyściki i wykałaczki",
            "pos": 2,
            "level": 2,
            "ogDescription": "Sprawdź okazyjne oferty w najlepszych cenach dla kategorii 'czyściki i wykałaczki - higiena jamy ustnej' na okazja.pl",
            "metaTitle": "Czyściki i wykałaczki - Higiena jamy ustnej",
            "metaDescription": "Sprawdź okazyjne oferty w najlepszych cenach dla kategorii 'czyściki i wykałaczki - higiena jamy ustnej' na okazja.pl",
            "description": ""
          },
          {
            "name": "Pielęgnacja protez i aparatów ortodontycznych",
            "pos": 3,
            "level": 2,
            "ogDescription": "Sprawdź okazyjne oferty w najlepszych cenach dla kategorii 'pielęgnacja protez i aparatów ortodontycznych - higiena jamy ustnej' na okazja.pl",
            "metaTitle": "Pielęgnacja protez i aparatów ortodontycznych",
            "metaDescription": "Sprawdź okazyjne oferty w najlepszych cenach dla kategorii 'pielęgnacja protez i aparatów ortodontycznych - higiena jamy ustnej' na okazja.pl",
            "description": "",
            "properties": [
              {
                "name": "Rodzaj",
                "type": "Multiple",
                "values": [
                  "ligaturki",
                  "pojemniki",
                  "preparaty czyszczące",
                  "preparaty mocujące",
                  "szyny",
                  "woski i silikony",
                  "pozostałe"
                ]
              }
            ]
          },
          {
            "name": "Końcówki do irygatorów",
            "pos": 4,
            "level": 2,
            "ogDescription": "Sprawdź okazyjne oferty w najlepszych cenach dla kategorii 'końcówki do irygatorów - higiena jamy ustnej' na okazja.pl",
            "metaTitle": "Końcówki do irygatorów - Higiena jamy ustnej",
            "metaDescription": "Sprawdź okazyjne oferty w najlepszych cenach dla kategorii 'końcówki do irygatorów - higiena jamy ustnej' na okazja.pl",
            "description": "",
            "properties": [
              {
                "name": "Rodzaj",
                "type": "Multiple",
                "values": [
                  "Oryginał",
                  "Zamiennik"
                ]
              },
              {
                "name": "Przeznaczenie",
                "type": "Multiple",
                "values": [
                  "Aquapick",
                  "Oral-B",
                  "Panasonic",
                  "Philips",
                  "Waterpik",
                  "Pozostałe"
                ]
              },
              {
                "name": "Liczba końcówek",
                "type": "Multiple",
                "values": [
                  "1",
                  "2",
                  "3",
                  "4",
                  "Pozostałe"
                ]
              }
            ]
          },
          {
            "name": "Pasty",
            "pos": 5,
            "level": 2,
            "ogDescription": "Sprawdź okazyjne oferty w najlepszych cenach dla kategorii 'pasty do zębów - higiena jamy ustnej' na okazja.pl",
            "metaTitle": "Pasty do zębów",
            "metaDescription": "Sprawdź okazyjne oferty w najlepszych cenach dla kategorii 'pasty do zębów - higiena jamy ustnej' na okazja.pl",
            "description": "",
            "properties": [
              {
                "name": "Przeznaczenie",
                "type": "Multiple",
                "values": [
                  "kamień nazębny",
                  "nadwrażliwość",
                  "nawilżanie",
                  "ochrona dziąseł",
                  "ochrona szkliwa",
                  "oczyszczanie",
                  "osad nazębny",
                  "paradontoza",
                  "pielęgnacja aparatów ortodontycznych",
                  "pielęgnacja protez",
                  "próchnica",
                  "przebarwienia",
                  "świeży oddech",
                  "wybielanie",
                  "wzmacnianie"
                ]
              },
              {
                "name": "Cechy dodatkowe",
                "type": "Multiple",
                "values": [
                  "bez aluminium",
                  "bez barwników",
                  "bez cukru",
                  "bez fluoru",
                  "bez glutenu",
                  "bez mentolu",
                  "bez SLS",
                  "na stojącej tubie",
                  "produkt wegański",
                  "z drobinkami",
                  "z węglem",
                  "ziołowa",
                  "żelowa",
                  "brak"
                ]
              }
            ]
          },
          {
            "name": "Akcesoria",
            "pos": 6,
            "level": 2,
            "ogDescription": "Sprawdź okazyjne oferty w najlepszych cenach dla kategorii 'akcesoria - higiena jamy ustnej' na okazja.pl",
            "metaTitle": "Akcesoria do higieny jamy ustnej",
            "metaDescription": "Sprawdź okazyjne oferty w najlepszych cenach dla kategorii 'akcesoria - higiena jamy ustnej' na okazja.pl",
            "description": ""
          },
          {
            "name": "Pozostałe",
            "pos": 7,
            "level": 2,
            "ogDescription": "Sprawdź okazyjne oferty w najlepszych cenach dla kategorii 'pozostałe - higiena jamy ustnej' na okazja.pl",
            "metaTitle": "Pozostałe - Higiena jamy ustnej",
            "metaDescription": "Sprawdź okazyjne oferty w najlepszych cenach dla kategorii 'pozostałe - higiena jamy ustnej' na okazja.pl",
            "description": ""
          }
        ],
        "properties": [
          {
            "name": "Marka",
            "type": "Multiple",
            "values": [
              "Active",
              "AEG",
              "Air-Lift",
              "Alfa",
              "Aquafresh",
              "AQUAJET",
              "Aquapick",
              "Argital",
              "biała perła",
              "Biodent",
              "Biomika",
              "BioRepair",
              "BlanX",
              "blend-a-med",
              "Cleanpik",
              "Clinomyn",
              "Colgate",
              "Colodent",
              "Crest",
              "CURAPROX",
              "Dabur",
              "Denivit",
              "Dentaid",
              "Dentosept",
              "Desensin",
              "Dontodent",
              "Dr. Fresh",
              "Dr. Mayer",
              "ecobamboo",
              "Ecodenta",
              "Elgydium",
              "Elmex",
              "Eludril",
              "Email Diamant",
              "FOREO",
              "GUM",
              "Halita",
              "Himalaya",
              "Humble Brush",
              "Hydrophil",
              "Iney",
              "Jordan",
              "Lacalut",
              "Lavera",
              "Listerine",
              "Łucznik",
              "Megasonex",
              "Meriden",
              "Meridol",
              "Miradent",
              "Mohani",
              "Oral-B",
              "Oral-B Braun",
              "Ortho Salvia Dental",
              "ORTODENT",
              "Panasonic",
              "Parodontax",
              "Pearl Drops",
              "Perio-Aid",
              "Philips",
              "Philips Sonicare",
              "Piksters",
              "Prokudent",
              "R.O.C.S.",
              "Remington",
              "Rio",
              "Sensodyne",
              "SEYSSO",
              "Signal",
              "SPLAT",
              "Supersmile",
              "Sylveco",
              "Tandex",
              "Teesa",
              "TePe",
              "tołpa",
              "Vademecum",
              "Vicco",
              "VITAMMY",
              "Vitis",
              "Waterpik",
              "White Glo",
              "Whitewash",
              "Xerostom",
              "Yaweco",
              "YOTUEL",
              "ziaja",
              "inna"
            ]
          }
        ]
      },
      {
        "name": "Korekcja wzroku",
        "pos": 2,
        "level": 1,
        "ogDescription": "Sprawdź okazyjne oferty w najlepszych cenach dla kategorii 'korekcja wzroku' na okazja.pl",
        "metaTitle": "Korekcja wzroku",
        "metaDescription": "Sprawdź okazyjne oferty w najlepszych cenach dla kategorii 'korekcja wzroku' na okazja.pl",
        "description": "Często ludzie po wyjściu z gabinetu okulistycznego, traktują okulary jak wyrok. Odmawiają noszenia szkieł korekcyjnych, nie wiedząc o konsekwencjach takiego postępowania. Na Okazji.pl znajdziesz szeroki wybór akcesoriów do okularów, ale jeżeli jesteś osobą, która zdecydowała się na szkła kontaktowe możesz przebierać w odpowiednich pojemnikach, płynach i dobrej jakości soczewkach.",
        "subcategories": [
          {
            "name": "Pojemniki na soczewki",
            "pos": 0,
            "level": 2,
            "ogDescription": "Sprawdź okazyjne oferty w najlepszych cenach dla kategorii 'pojemniki na soczewki - korekcja wzroku' na okazja.pl",
            "metaTitle": "Pojemniki na soczewki",
            "metaDescription": "Sprawdź okazyjne oferty w najlepszych cenach dla kategorii 'pojemniki na soczewki - korekcja wzroku' na okazja.pl",
            "description": ""
          },
          {
            "name": "Płyny do soczewek",
            "pos": 1,
            "level": 2,
            "ogDescription": "Sprawdź okazyjne oferty w najlepszych cenach dla kategorii 'pojemniki na soczewki - korekcja wzroku' na okazja.pl",
            "metaTitle": "Płyny do soczewek",
            "metaDescription": "Sprawdź okazyjne oferty w najlepszych cenach dla kategorii 'pojemniki na soczewki - korekcja wzroku' na okazja.pl",
            "description": ""
          },
          {
            "name": "Oprawki",
            "pos": 2,
            "level": 2,
            "ogDescription": "Sprawdź okazyjne oferty w najlepszych cenach dla kategorii 'oprawki - korekcja wzroku' na okazja.pl",
            "metaTitle": "Oprawki okularowe",
            "metaDescription": "Sprawdź okazyjne oferty w najlepszych cenach dla kategorii 'oprawki - korekcja wzroku' na okazja.pl",
            "description": "",
            "properties": [
              {
                "name": "Rodzaj",
                "type": "Multiple",
                "values": [
                  "damskie",
                  "męskie",
                  "dziecięce",
                  "unisex"
                ]
              },
              {
                "name": "Kształt",
                "type": "Multiple",
                "values": [
                  "okrągłe",
                  "prostokątne",
                  "owalne",
                  "kocie oczy",
                  "inny"
                ]
              }
            ]
          },
          {
            "name": "Gotowe okulary",
            "pos": 3,
            "level": 2,
            "ogDescription": "Sprawdź okazyjne oferty w najlepszych cenach dla kategorii 'gotowe okulary - korekcja wzroku' na okazja.pl",
            "metaTitle": "Gotowe okulary",
            "metaDescription": "Sprawdź okazyjne oferty w najlepszych cenach dla kategorii 'gotowe okulary - korekcja wzroku' na okazja.pl",
            "description": "",
            "properties": [
              {
                "name": "Rodzaj",
                "type": "Multiple",
                "values": [
                  "damskie",
                  "męskie",
                  "dziecięce",
                  "unisex"
                ]
              },
              {
                "name": "Kształt",
                "type": "Multiple",
                "values": [
                  "okrągłe",
                  "prostokątne",
                  "owalne",
                  "kocie oczy",
                  "inny"
                ]
              }
            ]
          },
          {
            "name": "Soczewki i szkła do okularów",
            "pos": 4,
            "level": 2,
            "ogDescription": "Sprawdź okazyjne oferty w najlepszych cenach dla kategorii 'soczewki i szkła do okularów - korekcja wzroku' na okazja.pl",
            "metaTitle": "Soczewki i szkła do okularów",
            "metaDescription": "Sprawdź okazyjne oferty w najlepszych cenach dla kategorii 'soczewki i szkła do okularów - korekcja wzroku' na okazja.pl",
            "description": ""
          },
          {
            "name": "Akcesoria i dodatki",
            "pos": 5,
            "level": 2,
            "ogDescription": "Sprawdź okazyjne oferty w najlepszych cenach dla kategorii 'akcesoria i dodatki - korekcja wzroku' na okazja.pl",
            "metaTitle": "Akcesoria i dodatki",
            "metaDescription": "Sprawdź okazyjne oferty w najlepszych cenach dla kategorii 'akcesoria i dodatki - korekcja wzroku' na okazja.pl",
            "description": ""
          }
        ]
      },
      {
        "name": "Medycyna naturalna",
        "pos": 3,
        "level": 1,
        "ogDescription": "Sprawdź okazyjne oferty w najlepszych cenach dla kategorii 'medycyna naturalna' na okazja.pl",
        "metaTitle": "Medycyna naturalna",
        "metaDescription": "Sprawdź okazyjne oferty w najlepszych cenach dla kategorii 'medycyna naturalna' na okazja.pl",
        "description": "Kiedy jesteśmy męczeni przez lekkie przeziębienie, chcemy polepszyć naszą odporność lub poprawić stan układu pokarmowego, nie od razu musimy używać dobrodziejstw klasycznej medycyny. Na wiele drobnych chorób pomagają odpowiednio wplecione do diety i codziennych nawyków elementy medycyny naturalnej. Na Okazja.pl znajdziesz wiele ofert z zakresu medycyny naturalnej, wszystkie w przystępnej cenie.",
        "subcategories": [
          {
            "name": "Akcesoria naturalne",
            "pos": 0,
            "level": 2,
            "ogDescription": "Sprawdź okazyjne oferty w najlepszych cenach dla kategorii 'akcesoria - medycyna naturalna' na okazja.pl",
            "metaTitle": "Akcesoria - Medycyna naturalne",
            "metaDescription": "Sprawdź okazyjne oferty w najlepszych cenach dla kategorii 'akcesoria - medycyna naturalna' na okazja.pl",
            "description": "",
            "properties": [
              {
                "name": "Rodzaj",
                "type": "Multiple",
                "values": [
                  "bańki",
                  "bransoletka magnetyczna",
                  "igły do akupunktury",
                  "klipsy/antychrapacz",
                  "masażer",
                  "odpromiennik",
                  "plastry oczyszczające",
                  "rękawice kompresyjne",
                  "puste kapsułki",
                  "skarpety kompresyjne",
                  "świece do uszu",
                  "wahadełko"
                ]
              }
            ]
          },
          {
            "name": "Soki naturalne",
            "pos": 1,
            "level": 2,
            "ogDescription": "Sprawdź okazyjne oferty w najlepszych cenach dla kategorii 'soki naturalne - medycyna naturalna' na okazja.pl",
            "metaTitle": "Soki naturalne",
            "metaDescription": "Sprawdź okazyjne oferty w najlepszych cenach dla kategorii 'soki naturalne - medycyna naturalna' na okazja.pl",
            "description": "",
            "properties": [
              {
                "name": "Rodzaj",
                "type": "Multiple",
                "values": [
                  "z aloesu",
                  "z aronii",
                  "z brzozy",
                  "z buraka",
                  "z cytryny",
                  "z czarnego bzu",
                  "z czarnej rzepy",
                  "z czystka",
                  "z derenia",
                  "z dyni",
                  "z dzikiej róży",
                  "z głogu",
                  "z granatu",
                  "z gravioli",
                  "z jagód acai",
                  "z jagód camu camu",
                  "z jagód goji",
                  "z jarmużu",
                  "z jarzębiny",
                  "z jeżyn",
                  "z karczocha",
                  "z koniczyny czerwonej",
                  "z kurkumy",
                  "z lucerny",
                  "z malin",
                  "z mango",
                  "z mangostanu",
                  "z młodego jęczmienia",
                  "z morwy białej",
                  "z ostropestu",
                  "z owoców noni",
                  "z pigwy",
                  "z pokrzywy",
                  "z rokitnika",
                  "z wiśni",
                  "z żurawiny",
                  "ze skrzypu polnego",
                  "ze szpinaku",
                  "ze śliwek",
                  "inny"
                ]
              }
            ]
          },
          {
            "name": "Inne produkty naturalne",
            "pos": 2,
            "level": 2,
            "ogDescription": "Sprawdź okazyjne oferty w najlepszych cenach dla kategorii 'inne produkty naturalne - medycyna naturalna' na okazja.pl",
            "metaTitle": "Inne produkty naturalne",
            "metaDescription": "Sprawdź okazyjne oferty w najlepszych cenach dla kategorii 'inne produkty naturalne - medycyna naturalna' na okazja.pl",
            "description": ""
          },
          {
            "name": "Spirulina",
            "pos": 3,
            "level": 2,
            "ogDescription": "Sprawdź okazyjne oferty w najlepszych cenach dla kategorii 'spirulina - medycyna naturalna' na okazja.pl",
            "metaTitle": "Spirulina",
            "metaDescription": "Sprawdź okazyjne oferty w najlepszych cenach dla kategorii 'spirulina - medycyna naturalna' na okazja.pl",
            "description": ""
          },
          {
            "name": "Chlorella",
            "pos": 4,
            "level": 2,
            "ogDescription": "Sprawdź okazyjne oferty w najlepszych cenach dla kategorii 'chlorella - medycyna naturalna' na okazja.pl",
            "metaTitle": "Chlorella",
            "metaDescription": "Sprawdź okazyjne oferty w najlepszych cenach dla kategorii 'chlorella - medycyna naturalna' na okazja.pl",
            "description": ""
          },
          {
            "name": "Bańki chińskie",
            "pos": 5,
            "level": 2,
            "ogDescription": "Sprawdź okazyjne oferty w najlepszych cenach dla kategorii 'bańki chińskie - medycyna naturalna' na okazja.pl",
            "metaTitle": "Bańki chińskie",
            "metaDescription": "Sprawdź okazyjne oferty w najlepszych cenach dla kategorii 'bańki chińskie - medycyna naturalna' na okazja.pl",
            "description": ""
          },
          {
            "name": "Świece do uszu",
            "pos": 6,
            "level": 2,
            "ogDescription": "Sprawdź okazyjne oferty w najlepszych cenach dla kategorii 'świece do uszu - medycyna naturalna' na okazja.pl",
            "metaTitle": "Świece do uszu",
            "metaDescription": "Sprawdź okazyjne oferty w najlepszych cenach dla kategorii 'świece do uszu - medycyna naturalna' na okazja.pl",
            "description": ""
          },
          {
            "name": "Pozostałe",
            "pos": 7,
            "level": 2,
            "ogDescription": "Sprawdź okazyjne oferty w najlepszych cenach dla kategorii 'pozostałe - medycyna naturalna' na okazja.pl",
            "metaTitle": "Pozostałe - Medycyna naturalna",
            "metaDescription": "Sprawdź okazyjne oferty w najlepszych cenach dla kategorii 'pozostałe - medycyna naturalna' na okazja.pl",
            "description": ""
          }
        ]
      },
      {
        "name": "Sprzęt medyczny",
        "pos": 4,
        "level": 1,
        "ogDescription": "Sprawdź okazyjne oferty w najlepszych cenach dla kategorii 'sprzęt medyczny' na okazja.pl",
        "metaTitle": "Sprzęt medyczny",
        "metaDescription": "Sprawdź okazyjne oferty w najlepszych cenach dla kategorii 'sprzęt medyczny' na okazja.pl",
        "description": "Specjalistyczny sprzęt medyczny jest wytchnieniem i pomocą w przypadku wielu chorób. Na Okazja.pl znajdziesz mnóstwo ofert certyfikowanego sprzętu medycznego, który będzie bezpiecznym i porządnym wyborem, żeby wesprzeć cię w chorobie i ciężkich momentach. Dodatkowo, ceny na naszym serwisie są okazyjne, więc nie musisz bać się znacznej utraty pieniędzy.",
        "subcategories": [
          {
            "name": "Balkoniki i podpórki",
            "pos": 0,
            "level": 2,
            "ogDescription": "Sprawdź okazyjne oferty w najlepszych cenach dla kategorii 'balkoniki i podpórki - sprzęt medyczny' na okazja.pl",
            "metaTitle": "Balkoniki i podpórki",
            "metaDescription": "Sprawdź okazyjne oferty w najlepszych cenach dla kategorii 'balkoniki i podpórki - sprzęt medyczny' na okazja.pl",
            "description": "",
            "properties": [
              {
                "name": "Siedzisko",
                "type": "Multiple",
                "values": [
                  "tak",
                  "nie"
                ]
              },
              {
                "name": "Materiał wykoniania",
                "type": "Multiple",
                "values": [
                  "aluminium",
                  "stal"
                ]
              },
              {
                "name": "Typ balkonika",
                "type": "Multiple",
                "values": [
                  "koła",
                  "kroczący",
                  "nóżki"
                ]
              },
              {
                "name": "Koszyk/torba",
                "type": "Multiple",
                "values": [
                  "tak",
                  "nie"
                ]
              },
              {
                "name": "Hamulce",
                "type": "Multiple",
                "values": [
                  "tak",
                  "nie"
                ]
              }
            ]
          },
          {
            "name": "Masażery",
            "pos": 1,
            "level": 2,
            "ogDescription": "Sprawdź okazyjne oferty w najlepszych cenach dla kategorii 'masażery - sprzęt medyczny' na okazja.pl",
            "metaTitle": "Masażery",
            "metaDescription": "Sprawdź okazyjne oferty w najlepszych cenach dla kategorii 'masażery - sprzęt medyczny' na okazja.pl",
            "description": "",
            "properties": [
              {
                "name": "Przeznaczenie",
                "type": "Multiple",
                "values": [
                  "do głowy i karku",
                  "do stóp",
                  "wyszczuplające, ujędrniające",
                  "pozostałe"
                ]
              }
            ]
          },
          {
            "name": "Obuwie ortopedyczne",
            "pos": 2,
            "level": 2,
            "ogDescription": "Sprawdź okazyjne oferty w najlepszych cenach dla kategorii 'obuwie ortopedyczne - sprzęt medyczny' na okazja.pl",
            "metaTitle": "Obuwie ortopedyczne",
            "metaDescription": "Sprawdź okazyjne oferty w najlepszych cenach dla kategorii 'obuwie ortopedyczne - sprzęt medyczny' na okazja.pl",
            "description": "",
            "properties": [
              {
                "name": "Przeznaczenie",
                "type": "Multiple",
                "values": [
                  "męskie",
                  "damskie",
                  "dziecięce"
                ]
              },
              {
                "name": "Rodzaj usztywnienia",
                "type": "Multiple",
                "values": [
                  "elastyczne",
                  "tworzywo",
                  "metalowe wzmocnienie"
                ]
              },
              {
                "name": "Rodzaj zapięcia",
                "type": "Multiple",
                "values": [
                  "wiązana",
                  "na rzep ",
                  "wkładane",
                  "pozostałe"
                ]
              }
            ]
          },
          {
            "name": "Ochraniacze na buty",
            "pos": 3,
            "level": 2,
            "ogDescription": "Sprawdź okazyjne oferty w najlepszych cenach dla kategorii 'ochraniacze na buty - sprzęt medyczny' na okazja.pl",
            "metaTitle": "Ochraniacze na buty",
            "metaDescription": "Sprawdź okazyjne oferty w najlepszych cenach dla kategorii 'ochraniacze na buty - sprzęt medyczny' na okazja.pl",
            "description": ""
          },
          {
            "name": "Ortezy",
            "pos": 4,
            "level": 2,
            "ogDescription": "Sprawdź okazyjne oferty w najlepszych cenach dla kategorii 'ortezy - sprzęt medyczny' na okazja.pl",
            "metaTitle": "Ortezy",
            "metaDescription": "Sprawdź okazyjne oferty w najlepszych cenach dla kategorii 'ortezy - sprzęt medyczny' na okazja.pl",
            "description": "",
            "properties": [
              {
                "name": "Przeznaczenie",
                "type": "Multiple",
                "values": [
                  "kolano",
                  "kostki i stopy",
                  "tułów",
                  "ręka i bark",
                  "dla dzieci"
                ]
              }
            ]
          },
          {
            "name": "Sprzęt do ćwiczeń",
            "pos": 5,
            "level": 2,
            "ogDescription": "Sprawdź okazyjne oferty w najlepszych cenach dla kategorii 'sprzęt do ćwiczeń - sprzęt medyczny' na okazja.pl",
            "metaTitle": "Medyczny sprzęt do ćwiczeń",
            "metaDescription": "Sprawdź okazyjne oferty w najlepszych cenach dla kategorii 'sprzęt do ćwiczeń - sprzęt medyczny' na okazja.pl",
            "description": "",
            "properties": [
              {
                "name": "Rodzaj",
                "type": "Multiple",
                "values": [
                  "Kinesiotaping",
                  "Korektory postawy",
                  "Kształtki rehabilitacyjne",
                  "Piłki rehabilitacyjne",
                  "Poduszki sensomotoryczne",
                  "Przyrządy do rehabilitacji i ćwiczeń dłoni",
                  "Rotory rehabilitacyjne",
                  "Taśmy i gumy rehabilitacyjne do ćwiczeń",
                  "Terapia zimnem i ciepłem",
                  "Pozostałe"
                ]
              }
            ]
          },
          {
            "name": "Sprzęt ortopedyczny",
            "pos": 6,
            "level": 2,
            "ogDescription": "Sprawdź okazyjne oferty w najlepszych cenach dla kategorii 'sprzęt ortopedyczny - sprzęt medyczny' na okazja.pl",
            "metaTitle": "Sprzęt ortopedyczny",
            "metaDescription": "Sprawdź okazyjne oferty w najlepszych cenach dla kategorii 'sprzęt ortopedyczny - sprzęt medyczny' na okazja.pl",
            "description": ""
          },
          {
            "name": "Pozostały sprzęt medyczny",
            "pos": 7,
            "level": 2,
            "ogDescription": "Sprawdź okazyjne oferty w najlepszych cenach dla kategorii 'pozostały sprzęt medyczny' na okazja.pl",
            "metaTitle": "Pozostały sprzęt medyczny",
            "metaDescription": "Sprawdź okazyjne oferty w najlepszych cenach dla kategorii 'pozostały sprzęt medyczny' na okazja.pl",
            "description": ""
          }
        ]
      },
      {
        "name": "Suplementy diety",
        "pos": 5,
        "level": 1,
        "ogDescription": "Sprawdź okazyjne oferty w najlepszych cenach dla kategorii 'suplementy diety' na okazja.pl",
        "metaTitle": "Suplementy diety",
        "metaDescription": "Sprawdź okazyjne oferty w najlepszych cenach dla kategorii 'suplementy diety' na okazja.pl",
        "description": "Dieta może zdziałać cuda, wie to większość osób. Ale jest wiele witamin oraz makro i mikroelementów, które produkty tracą podczas obróbki termicznej. W momencie, kiedy dostrzegamy u siebie wyniki niedoborów w diecie możemy posiłkować się bardzo dobrej jakości suplementami diety, które znajdziesz na Okazja.pl. Odpowiednio przyjmowana suplementacja pomoże ci przywrócić równowagę w ciele.",
        "subcategories": [
          {
            "name": "Pamięć i układ nerwowy",
            "pos": 0,
            "level": 2,
            "ogDescription": "Sprawdź okazyjne oferty w najlepszych cenach dla kategorii 'pamięć i układ nerwowy - suplementy diety' na okazja.pl",
            "metaTitle": "Pamięć i układ nerwowy - Suplementy diety",
            "metaDescription": "Sprawdź okazyjne oferty w najlepszych cenach dla kategorii 'pamięć i układ nerwowy - suplementy diety' na okazja.pl",
            "description": "",
            "properties": [
              {
                "name": "Wskazanie",
                "type": "Multiple",
                "values": [
                  "Bezsenność",
                  "Chrapanie",
                  "Depresja",
                  "Poprawa samopoczucia",
                  "Stres",
                  "Uspakajające",
                  "Zmęczenie"
                ]
              }
            ]
          },
          {
            "name": "Układ moczowy, potencja i libido",
            "pos": 1,
            "level": 2,
            "ogDescription": "Sprawdź okazyjne oferty w najlepszych cenach dla kategorii 'układ moczowy, potencja i libido - suplementy diety' na okazja.pl",
            "metaTitle": "Układ moczowy, potencja i libido - Suplementy diety",
            "metaDescription": "Sprawdź okazyjne oferty w najlepszych cenach dla kategorii 'układ moczowy, potencja i libido - suplementy diety' na okazja.pl",
            "description": "",
            "properties": [
              {
                "name": "Przeznaczenie",
                "type": "Multiple",
                "values": [
                  "dla kobiet",
                  "dla mężczyzn",
                  "uniwersalne"
                ]
              }
            ]
          },
          {
            "name": "Stawy, kości i mięśnie",
            "pos": 2,
            "level": 2,
            "ogDescription": "Sprawdź okazyjne oferty w najlepszych cenach dla kategorii 'stawy, kości i mięśnie - suplementy diety' na okazja.pl",
            "metaTitle": "Stawy, kości i mięśnie - Suplementy diety",
            "metaDescription": "Sprawdź okazyjne oferty w najlepszych cenach dla kategorii 'stawy, kości i mięśnie - suplementy diety' na okazja.pl",
            "description": "",
            "properties": [
              {
                "name": "Wskazanie",
                "type": "Multiple",
                "values": [
                  "Reumatyzm",
                  "Skurcze",
                  "Stłuczenia i siniaki"
                ]
              }
            ]
          },
          {
            "name": "Serce i układ krążenia",
            "pos": 3,
            "level": 2,
            "ogDescription": "Sprawdź okazyjne oferty w najlepszych cenach dla kategorii 'serce i układ krążenia - suplementy diety' na okazja.pl",
            "metaTitle": "Serce i układ krążenia - Suplementy diety",
            "metaDescription": "Sprawdź okazyjne oferty w najlepszych cenach dla kategorii 'serce i układ krążenia - suplementy diety' na okazja.pl",
            "description": "",
            "properties": [
              {
                "name": "Wskazanie",
                "type": "Multiple",
                "values": [
                  "Żylaki i obrzęki",
                  "Hemoroidy",
                  "Przeciwzakrzepowe",
                  "Choroba wieńcowa",
                  "Zawał serca",
                  "Cholersterol",
                  "Nadciśnienie",
                  "Niedobory żelaza",
                  "Wzmacniające serce"
                ]
              }
            ]
          },
          {
            "name": "Układ pokarmowy",
            "pos": 4,
            "level": 2,
            "ogDescription": "Sprawdź okazyjne oferty w najlepszych cenach dla kategorii 'układ pokarmowy - suplementy diety' na okazja.pl",
            "metaTitle": "Układ pokarmowy - Suplementy diety",
            "metaDescription": "Sprawdź okazyjne oferty w najlepszych cenach dla kategorii 'układ pokarmowy - suplementy diety' na okazja.pl",
            "description": "",
            "properties": [
              {
                "name": "Wskazanie",
                "type": "Multiple",
                "values": [
                  "Zaparcia",
                  "Wzdęcia",
                  "Biegunka",
                  "Nadkwaśność",
                  "Niestrawność",
                  "Rozkurczowe",
                  "Trawienie",
                  "Wrzody",
                  "Zdrowa wątroba",
                  "Zgaga"
                ]
              }
            ]
          },
          {
            "name": "Wzrok i słuch",
            "pos": 5,
            "level": 2,
            "ogDescription": "Sprawdź okazyjne oferty w najlepszych cenach dla kategorii 'wzrok i słuch - suplementy diety' na okazja.pl",
            "metaTitle": "Wzrok i słuch - Suplementy diety",
            "metaDescription": "Sprawdź okazyjne oferty w najlepszych cenach dla kategorii 'wzrok i słuch - suplementy diety' na okazja.pl",
            "description": "",
            "properties": [
              {
                "name": "Wskazanie",
                "type": "Multiple",
                "values": [
                  "Jaskra",
                  "Woskowina uszna",
                  "Zmęczenie oczu",
                  "Zespół suchego oka",
                  "Zapalenie ucha"
                ]
              }
            ]
          },
          {
            "name": "Pozostałe",
            "pos": 6,
            "level": 2,
            "ogDescription": "Sprawdź okazyjne oferty w najlepszych cenach dla kategorii 'pozostałe - suplementy diety' na okazja.pl",
            "metaTitle": "Pozostałe - Suplementy diety",
            "metaDescription": "Sprawdź okazyjne oferty w najlepszych cenach dla kategorii 'pozostałe - suplementy diety' na okazja.pl",
            "description": ""
          }
        ],
        "properties": [
          {
            "name": "Producent",
            "type": "Multiple",
            "values": [
              "Activlab",
              "Aflofarm",
              "Alri",
              "Alter Medica",
              "Amix Advanced Nutrition",
              "AMS Pharma",
              "APIPOL-FARMA",
              "Apollo's Hegemony",
              "Apotex Polska",
              "AVET PHARMA",
              "Axellus A/S",
              "BAYER",
              "Biofarm",
              "Biogenix",
              "BioTechUSA",
              "Bioton",
              "Biovena Health",
              "Body Attack",
              "BONIMED",
              "Cardiovascular Research Ltd.",
              "Colfarm",
              "Controlled Labs",
              "Diet-Food",
              "Doctor's Best",
              "Domowa Apteczka",
              "Dr.Jacob's Medical",
              "Dr. Mercola",
              "Farmapia",
              "Farmapol",
              "Finaflex",
              "FitMax",
              "Forever Living Products",
              "GAL",
              "GardenPharm",
              "Genactiv Trade",
              "Genexo",
              "Genoscope",
              "Glenmark Distributors",
              "Gorvita",
              "Hepatica",
              "Herbalmed",
              "Herbapol Kraków",
              "Herbapol Lublin",
              "Herbapol Poznań",
              "Herbapol Warszawa",
              "Herbapol Wrocław",
              "Hi Tec Nutrition",
              "Himalaya",
              "Holland & Barrett",
              "Intenson Europe",
              "Invent Farm",
              "Invex Remedies",
              "Jarrow Formulas",
              "Jelfa",
              "KFD",
              "KOMFAR",
              "Krotex",
              "Lab One",
              "LEK-AM",
              "Life Extension",
              "LYSI HF",
              "Medicaline",
              "MERIDIAN",
              "Merz Pharmaceuticals",
              "Młyn Oliwski",
              "MSE dr Enzmann",
              "MYPROTEIN",
              "Natrol",
              "Naturell",
              "Noble Health",
              "Nord Farm",
              "Novascon Pharmaceuticals",
              "Now Foods",
              "NUTREND",
              "NutroPharma",
              "Oleofarm",
              "Olimp Laboratories",
              "Orkla Care",
              "OstroVit",
              "Pharmabest",
              "Pharmacy Laboratories",
              "Pharmovit",
              "Phytopharm",
              "Planetary Herbals",
              "Polpharma",
              "Progress Labs",
              "Puritan's Pride",
              "Queisser Pharma",
              "Robert Schindele",
              "Salus Haus",
              "Salvum Laboratories",
              "Sanprobi",
              "Seeking Health",
              "Sexual Health Series",
              "Słodkie Zdrowie",
              "Solgar",
              "Source Naturals",
              "Super Diet",
              "Swanson Health Products",
              "TEVA",
              "Thorne Research",
              "Uniphar",
              "Varia",
              "Verco",
              "Visanto",
              "Walmark",
              "Wish Pharmaceutical",
              "YANGO",
              "Bio-Kult",
              "Competitive Edge Labs",
              "inny producent"
            ]
          },
          {
            "name": "Cechy dodatkowe",
            "type": "Multiple",
            "values": [
              "bez cukru",
              "bez jodu",
              "bez kazeiny",
              "bez laktozy",
              "bezalkoholowy",
              "bezglutenowy",
              "bezpieczny dla kobiet w ciąży",
              "bezpieczny dla kobiet karmiących",
              "bezzapachowy",
              "chronić przed światłem",
              "przechowywać w lodówce"
            ]
          },
          {
            "name": "Postać",
            "type": "Multiple",
            "values": [
              "aerozol",
              "ampułki",
              "kapsułki",
              "krople",
              "pastylki",
              "płyn",
              "proszek",
              "saszetki",
              "sok",
              "syrop",
              "tabletki",
              "tabletki do ssania",
              "tabletki musujące",
              "Pozostałe",
              "fluidy",
              "spraye"
            ]
          },
          {
            "name": "Podstawowy składnik",
            "type": "Multiple",
            "values": [
              "acai",
              "acerola",
              "aloes",
              "aminokwasy",
              "ashwaganda",
              "bazylia",
              "biotyna",
              "błonnik",
              "buzdyganek",
              "cholina",
              "chondroityna",
              "CLA",
              "fosfolipidy",
              "garcinia cambogia",
              "glicyna",
              "glutamina",
              "Gotu Kola",
              "guarana",
              "jod",
              "koenzym Q10",
              "kofeina",
              "kolagen",
              "kozłek",
              "kreatyna",
              "krzem",
              "kurkuma",
              "kwas alfa-liponowy",
              "kwas foliowy",
              "kwasy omega-3",
              "L-glutamina",
              "L-karnityna",
              "lecytyna",
              "luteina",
              "maca",
              "magnez",
              "mangan",
              "mango",
              "melatonina",
              "melisa",
              "miedź",
              "mięta",
              "miłorząb japoński",
              "mleczko pszczele",
              "moringa",
              "multiwitamina",
              "niacyna",
              "olej arganowy",
              "olej kokosowy",
              "olej lniany",
              "olej rybi (tran)",
              "olej z ogórecznika",
              "olej z wiesiołka",
              "oregano",
              "owies",
              "palma sabaůowa",
              "piperyna",
              "pokrzywa",
              "potas",
              "probiotyki",
              "resweratrol",
              "rumianek",
              "selen",
              "tauryna",
              "tymianek",
              "tyrozyna",
              "wapń (calcium)",
              "wiesiołek",
              "winogrono",
              "witamina B complex",
              "witamina B1",
              "witamina B12",
              "witamina B2",
              "witamina B3",
              "witamina B5",
              "witamina B6",
              "witamina B9",
              "witamina C",
              "witamina D",
              "witamina D3",
              "witamina E",
              "witamina K2",
              "zielona herbata",
              "żelazo",
              "żeń-szeń",
              "inny",
              "algi",
              "arginina",
              "aronia",
              "babka jajowata",
              "babka płesznik",
              "bambus",
              "beta-glukan",
              "beta-karoten",
              "borówka",
              "bromelina",
              "brzoza",
              "burak",
              "chlorella",
              "chlorofil",
              "chrom",
              "colostrum",
              "cynamon",
              "cynk",
              "cytryna",
              "czarci pazur",
              "czarna jagoda",
              "czarna porzeczka",
              "czarna rzepa",
              "czarny bez",
              "czerwona herbata",
              "czosnek",
              "DHEA",
              "diosmina",
              "dynia",
              "dzika róża",
              "echinacea",
              "enzymy trawienne",
              "etanol",
              "eukaliptus",
              "flawonoidy",
              "fruktooligosacharydy",
              "gliceryna",
              "glukozamina",
              "głóg",
              "goji",
              "granat",
              "grejpfrut",
              "HCA",
              "hesperydyna",
              "imbir",
              "inulina",
              "jabłko",
              "jęczmień",
              "karczoch",
              "kasztanowiec",
              "keratyna",
              "keton malinowy",
              "kiełki pszenicy",
              "koci pazur",
              "koper włoski",
              "kozieradka",
              "ksylitol",
              "kwas cytrynowy",
              "kwas hialuronowy",
              "kwas mlekowy",
              "kwasy omega-6",
              "kwasy omega-9",
              "lanolina",
              "len",
              "lipa",
              "lucerna",
              "lukrecja",
              "malina",
              "mentol",
              "miód",
              "mniszek",
              "morela",
              "morwa",
              "nagietek",
              "olej z rokitnika",
              "opuncja",
              "orzech włoski",
              "ostropest",
              "prawoślaz",
              "prebiotyki",
              "propolis",
              "rokitnik",
              "rutyna",
              "skrzyp polny",
              "słonecznik",
              "sorbitol",
              "sód",
              "spirulina",
              "szałwia",
              "szałwia hiszpańska (chia)",
              "węgiel",
              "witamina A",
              "witamina F",
              "witamina H",
              "witamina PP",
              "wosk pszczeli",
              "zeaksantyna",
              "zielona kawa",
              "żurawina"
            ]
          }
        ]
      },
      {
        "name": "Urządzenia medyczne",
        "pos": 7,
        "level": 1,
        "ogDescription": "Sprawdź okazyjne oferty w najlepszych cenach dla kategorii 'urządzenia medyczne' na okazja.pl",
        "metaTitle": "Urządzenia medyczne",
        "metaDescription": "Sprawdź okazyjne oferty w najlepszych cenach dla kategorii 'urządzenia medyczne' na okazja.pl",
        "description": "Odpowiednie urządzenia medyczne pozwalają na monitorowanie i kontrolowanie naszego zdrowia. Jakie są plusy z takich zachowań? Przede wszystkim jest to profilaktyka chorób, które mogą pojawić się w każdym momencie życia. Często takie bezpieczne zachowania sprawiają, że wcześnie wykryte choroby nie są groźne i nie powodują zagrożenia. Zajmij się swoim zdrowiem razem z Okazja.pl.",
        "subcategories": [
          {
            "name": "Aparaty słuchowe i akcesoria",
            "pos": 0,
            "level": 2,
            "ogDescription": "Sprawdź okazyjne oferty w najlepszych cenach dla kategorii 'aparaty słuchowe i akcesoria - urządzenia medyczne' na okazja.pl",
            "metaTitle": "Aparaty słuchowe i akcesoria",
            "metaDescription": "Sprawdź okazyjne oferty w najlepszych cenach dla kategorii 'aparaty słuchowe i akcesoria - urządzenia medyczne' na okazja.pl",
            "description": "",
            "subcategories": [
              {
                "name": "Baterie do aparatów słuchowych",
                "pos": 0,
                "level": 3,
                "ogDescription": "Sprawdź okazyjne oferty w najlepszych cenach dla kategorii 'baterie do aparatów słuchowych - urządzenia medyczne' na okazja.pl",
                "metaTitle": "Baterie do aparatów słuchowych",
                "metaDescription": "Sprawdź okazyjne oferty w najlepszych cenach dla kategorii 'baterie do aparatów słuchowych - urządzenia medyczne' na okazja.pl",
                "description": ""
              }
            ],
            "properties": [
              {
                "name": "Rodzaj",
                "type": "Multiple",
                "values": [
                  "wewnętrzne",
                  "zauszne"
                ]
              },
              {
                "name": "Ucho",
                "type": "Multiple",
                "values": [
                  "lewe",
                  "prawe",
                  "lewi i prawe"
                ]
              },
              {
                "name": "Zasilanie",
                "type": "Multiple",
                "values": [
                  "akumulatorowe",
                  "bateryjne",
                  "sieciowe",
                  "USB",
                  "inne",
                  "brak"
                ]
              }
            ]
          },
          {
            "name": "Ciśnieniomierze i akcesoria",
            "pos": 1,
            "level": 2,
            "ogDescription": "Sprawdź okazyjne oferty w najlepszych cenach dla kategorii 'ciśnieniomierze i akcesoria - urządzenia medyczne' na okazja.pl",
            "metaTitle": "Ciśnieniomierze i akcesoria",
            "metaDescription": "Sprawdź okazyjne oferty w najlepszych cenach dla kategorii 'ciśnieniomierze i akcesoria - urządzenia medyczne' na okazja.pl",
            "description": "",
            "properties": [
              {
                "name": "Rodzaj",
                "type": "Multiple",
                "values": [
                  "elektroniczne",
                  "zegarowe"
                ]
              },
              {
                "name": "Miejsce pomiaru",
                "type": "Multiple",
                "values": [
                  "nadgarstek",
                  "ramię"
                ]
              },
              {
                "name": "Marka",
                "type": "Multiple",
                "values": [
                  "ABRA",
                  "AEG",
                  "beurer",
                  "Boso Bosch+Sohn",
                  "Braun",
                  "Diagnostic",
                  "Esperanza",
                  "Geratherm",
                  "GESS",
                  "HB",
                  "Hyundai",
                  "iHealth",
                  "INTEC",
                  "KARDIO-TEST MEDICAL",
                  "Medel",
                  "Microlife",
                  "OMNIBUS",
                  "Omron",
                  "ORO-MED",
                  "Panasonic",
                  "Philips",
                  "PiC Solution",
                  "ProMedix",
                  "Rossmax",
                  "Sanitas",
                  "Sencor",
                  "SilverCrest",
                  "TECH-MED",
                  "Visiomed",
                  "Inna marka",
                  "Hartmann",
                  "HAXE",
                  "Hi-Tech Medical",
                  "Little Doctor",
                  "Media-Tech",
                  "Medisana",
                  "MesMed",
                  "Novama",
                  "Qardio",
                  "Sanity",
                  "Yuwell"
                ]
              },
              {
                "name": "Dodatkowe funkcje",
                "type": "Multiple",
                "values": [
                  "automatyczne pompowanie",
                  "klasyfikacja pomiarów",
                  "komunikaty głosowe",
                  "podświetlany wyświetlacz",
                  "wskaźnik wysokiego poziomu ciśnienia krwi",
                  "wykrywanie arytmii"
                ]
              }
            ]
          },
          {
            "name": "Glukometry i akcesoria",
            "pos": 2,
            "level": 2,
            "ogDescription": "Sprawdź okazyjne oferty w najlepszych cenach dla kategorii 'glukometry i akcesoria - urządzenia medyczne' na okazja.pl",
            "metaTitle": "Glukometry i akcesoria",
            "metaDescription": "Sprawdź okazyjne oferty w najlepszych cenach dla kategorii 'glukometry i akcesoria - urządzenia medyczne' na okazja.pl",
            "description": "",
            "subcategories": [
              {
                "name": "Glukometry",
                "pos": 0,
                "level": 3,
                "ogDescription": "Sprawdź okazyjne oferty w najlepszych cenach dla kategorii 'glukometry - urządzenia medyczne' na okazja.pl",
                "metaTitle": "Glukometry",
                "metaDescription": "Sprawdź okazyjne oferty w najlepszych cenach dla kategorii 'glukometry - urządzenia medyczne' na okazja.pl",
                "description": "",
                "properties": [
                  {
                    "name": "Marka",
                    "type": "Multiple",
                    "values": [
                      "ABRA",
                      "Accu-Chek",
                      "BeneCheck",
                      "Contour",
                      "Diagnostic",
                      "iHealth",
                      "iXell",
                      "OneTouch",
                      "Inne"
                    ]
                  },
                  {
                    "name": "Pomiar",
                    "type": "Multiple",
                    "values": [
                      "glukozy",
                      "cholesterolu",
                      "kwasu moczowego",
                      "trójglicerydów"
                    ]
                  },
                  {
                    "name": "Średnia z pomiarów",
                    "type": "Multiple",
                    "values": [
                      "z 7 dni",
                      "z 14 dni",
                      "z 21 dni",
                      "z 28 dni",
                      "z 30 dni"
                    ]
                  },
                  {
                    "name": "Zasilanie",
                    "type": "Multiple",
                    "values": [
                      "akumulatorowe",
                      "bateryjne",
                      "sieciowe",
                      "USB",
                      "inne",
                      "brak"
                    ]
                  }
                ]
              },
              {
                "name": "Akcesoria dla diabetyków",
                "pos": 1,
                "level": 3,
                "ogDescription": "Sprawdź okazyjne oferty w najlepszych cenach dla kategorii 'akcesoria dla diabetyków - urządzenia medyczne' na okazja.pl",
                "metaTitle": "Akcesoria dla diabetyków",
                "metaDescription": "Sprawdź okazyjne oferty w najlepszych cenach dla kategorii 'akcesoria dla diabetyków - urządzenia medyczne' na okazja.pl",
                "description": "",
                "properties": [
                  {
                    "name": "Rodzaj",
                    "type": "Multiple",
                    "values": [
                      "igły do penów",
                      "lancety",
                      "nakłuwacze",
                      "opaski",
                      "paski",
                      "peny",
                      "płyny kontrolne",
                      "strzykawki insulinowe",
                      "pozostałe"
                    ]
                  }
                ]
              }
            ]
          },
          {
            "name": "Grzebienie na wszy i gnidy",
            "pos": 3,
            "level": 2,
            "ogDescription": "Sprawdź okazyjne oferty w najlepszych cenach dla kategorii 'grzebienie na wszy i gnidy - urządzenia medyczne' na okazja.pl",
            "metaTitle": "Grzebienie na wszy i gnidy",
            "metaDescription": "Sprawdź okazyjne oferty w najlepszych cenach dla kategorii 'grzebienie na wszy i gnidy - urządzenia medyczne' na okazja.pl",
            "description": ""
          },
          {
            "name": "Inhalatory i akcesoria",
            "pos": 4,
            "level": 2,
            "ogDescription": "Sprawdź okazyjne oferty w najlepszych cenach dla kategorii 'inhalatory i akcesoria - urządzenia medyczne' na okazja.pl",
            "metaTitle": "Inhalatory i akcesoria",
            "metaDescription": "Sprawdź okazyjne oferty w najlepszych cenach dla kategorii 'inhalatory i akcesoria - urządzenia medyczne' na okazja.pl",
            "description": "",
            "properties": [
              {
                "name": "Marka",
                "type": "Multiple",
                "values": [
                  "Accu-Chek",
                  "BeneCheck",
                  "Beper",
                  "beurer",
                  "Diagnostic",
                  "Esperanza",
                  "GESS",
                  "INTEC",
                  "KARDIO-TEST MEDICAL",
                  "Medel",
                  "Microlife",
                  "OMNIBUS",
                  "Omron",
                  "ORO-MED",
                  "PARI",
                  "Philips",
                  "PiC Solution",
                  "ProMedix",
                  "Rossmax",
                  "Sanitas",
                  "SilverCrest",
                  "TECH-MED",
                  "Visiomed",
                  "Inna marka",
                  "Accumed",
                  "Hi-Tech Medical",
                  "Medisana",
                  "Novama",
                  "Sanity"
                ]
              },
              {
                "name": "Tryb pracy",
                "type": "Multiple",
                "values": [
                  "ciągła",
                  "przerywana"
                ]
              }
            ]
          },
          {
            "name": "Jonizatory wody",
            "pos": 5,
            "level": 2,
            "ogDescription": "Sprawdź okazyjne oferty w najlepszych cenach dla kategorii 'jonizatory wody - urządzenia medyczne' na okazja.pl",
            "metaTitle": "Jonizatory wody",
            "metaDescription": "Sprawdź okazyjne oferty w najlepszych cenach dla kategorii 'jonizatory wody - urządzenia medyczne' na okazja.pl",
            "description": "",
            "properties": [
              {
                "name": "Rodzaj",
                "type": "Multiple",
                "values": [
                  "naczyniowe",
                  "przepływowe",
                  "termosy"
                ]
              },
              {
                "name": "Zasilanie",
                "type": "Multiple",
                "values": [
                  "akumulatorowe",
                  "bateryjne",
                  "sieciowe",
                  "USB",
                  "inne",
                  "brak"
                ]
              },
              {
                "name": "Cechy dodatkowe",
                "type": "Multiple",
                "values": [
                  "automatyczne wyłączanie",
                  "panel dotykowy",
                  "samoczyszczenie",
                  "wskaźnik wymiany filtra",
                  "wytwarzanie srebrnej wody",
                  "brak"
                ]
              }
            ]
          },
          {
            "name": "Koce, poduszki elektryczne",
            "pos": 6,
            "level": 2,
            "ogDescription": "Sprawdź okazyjne oferty w najlepszych cenach dla kategorii 'koce i poduszki elektryczne - urządzenia medyczne' na okazja.pl",
            "metaTitle": "Koce i poduszki elektryczne - urządzenia medyczne",
            "metaDescription": "Sprawdź okazyjne oferty w najlepszych cenach dla kategorii 'koce i poduszki elektryczne - urządzenia medyczne' na okazja.pl",
            "description": "",
            "properties": [
              {
                "name": "Rodzaj",
                "type": "Multiple",
                "values": [
                  "but",
                  "koc",
                  "mata",
                  "pas",
                  "poduszka"
                ]
              },
              {
                "name": "Zasilanie",
                "type": "Multiple",
                "values": [
                  "akumulatorowe",
                  "bateryjne",
                  "sieciowe",
                  "USB",
                  "inne",
                  "brak"
                ]
              },
              {
                "name": "Cechy dodatkowe",
                "type": "Multiple",
                "values": [
                  "automatyczne wyłączanie",
                  "pilot",
                  "regulacja temperatury",
                  "timer",
                  "zabezpieczenie przed przegrzaniem",
                  "brak"
                ]
              },
              {
                "name": "Materiał",
                "type": "Multiple",
                "values": [
                  "bawełna",
                  "polar",
                  "poliester",
                  "inny"
                ]
              },
              {
                "name": "Kolor dominujący",
                "type": "Multiple",
                "values": [
                  "bezbarwny",
                  "beżowy",
                  "biały",
                  "brązowy",
                  "czarny",
                  "czerwony",
                  "ecru",
                  "fioletowy",
                  "granatowy",
                  "khaki",
                  "niebieski",
                  "pomarańczowy",
                  "różowy",
                  "srebrny",
                  "szary",
                  "zielony",
                  "złoty",
                  "żółty",
                  "wielokolorowy"
                ]
              }
            ]
          },
          {
            "name": "Lampy lecznicze i relaksacyjne",
            "pos": 7,
            "level": 2,
            "ogDescription": "Sprawdź okazyjne oferty w najlepszych cenach dla kategorii 'lampy lecznicze i relaksacyjne - urządzenia medyczne' na okazja.pl",
            "metaTitle": "Lampy lecznicze i relaksacyjne",
            "metaDescription": "Sprawdź okazyjne oferty w najlepszych cenach dla kategorii 'lampy lecznicze i relaksacyjne - urządzenia medyczne' na okazja.pl",
            "description": "",
            "properties": [
              {
                "name": "Rodzaj",
                "type": "Multiple",
                "values": [
                  "antydepresyjne",
                  "Bioptron",
                  "lecznicze",
                  "Sollux"
                ]
              },
              {
                "name": "Marka",
                "type": "Multiple",
                "values": [
                  "beurer",
                  "Bioptron",
                  "Camry",
                  "Cronos",
                  "Medisana",
                  "Momert",
                  "Inna"
                ]
              },
              {
                "name": "Cechy dodatkowe",
                "type": "Multiple",
                "values": [
                  "regulacja nachylenia",
                  "statyw",
                  "timer",
                  "brak"
                ]
              }
            ]
          },
          {
            "name": "Nawilżacze, oczyszczacze powietrza",
            "pos": 8,
            "level": 2,
            "ogDescription": "Sprawdź okazyjne oferty w najlepszych cenach dla kategorii 'nawilżacze i oczyszczacze powietrza - urządzenia medyczne' na okazja.pl",
            "metaTitle": "Nawilżacze, oczyszczacze powietrza - Urządzenia medyczne",
            "metaDescription": "Sprawdź okazyjne oferty w najlepszych cenach dla kategorii 'nawilżacze i oczyszczacze powietrza - urządzenia medyczne' na okazja.pl",
            "description": "",
            "properties": [
              {
                "name": "Marka",
                "type": "Multiple",
                "values": [
                  "Accu-Chek",
                  "AIR-O-SWISS",
                  "Beper",
                  "beurer",
                  "Bionaire",
                  "Bo Jungle",
                  "Boneco",
                  "Botti",
                  "Diagnostic",
                  "Duux",
                  "ELDOM",
                  "Esperanza",
                  "GOTIE",
                  "HB",
                  "Hyundai",
                  "INTEC",
                  "KARDIO-TEST MEDICAL",
                  "Microlife",
                  "OMNIBUS",
                  "Omron",
                  "ORO-MED",
                  "Overmax",
                  "Philips",
                  "PiC Solution",
                  "TECH-MED",
                  "TRIADA",
                  "Venta",
                  "Inna marka",
                  "Airkomfort",
                  "Baseus",
                  "Blaupunkt",
                  "Cronos",
                  "Hi-Tech Medical",
                  "Medisana",
                  "N'oveen",
                  "Sharp",
                  "Vitammy",
                  "Vordon",
                  "Webber",
                  "Xiaomi"
                ]
              },
              {
                "name": "Rodzaj",
                "type": "Multiple",
                "values": [
                  "nawilżacze ceramiczne",
                  "nawilżacze ewaporacyjne",
                  "nawilżacze parowe",
                  "nawilżacze ultradźwiękowe",
                  "oczyszczacze",
                  "inny"
                ]
              },
              {
                "name": "Funkcje",
                "type": "Multiple",
                "values": [
                  "aromaterapia",
                  "inhalacja",
                  "jonizacja",
                  "nawilżanie",
                  "oczyszczanie",
                  "osuszanie"
                ]
              },
              {
                "name": "Filtry",
                "type": "Multiple",
                "values": [
                  "ceramiczny",
                  "dyszowy",
                  "elektrostatyczny",
                  "gąbkowy",
                  "HEPA",
                  "jonizacyjny",
                  "lampa UV",
                  "nawilżający",
                  "węglowy",
                  "wodny",
                  "wstępny",
                  "z jonami srebra"
                ]
              },
              {
                "name": "Zasilanie",
                "type": "Multiple",
                "values": [
                  "akumulatorowe",
                  "bateryjne",
                  "sieciowe",
                  "USB",
                  "inne",
                  "brak"
                ]
              }
            ]
          },
          {
            "name": "Przyrządy do usuwania kleszczy i jadu",
            "pos": 9,
            "level": 2,
            "ogDescription": "Sprawdź okazyjne oferty w najlepszych cenach dla kategorii 'przyrządy do usuwania kleszczy i jadu - urządzenia medyczne' na okazja.pl",
            "metaTitle": "Przyrządy do usuwania kleszczy i jadu",
            "metaDescription": "Sprawdź okazyjne oferty w najlepszych cenach dla kategorii 'przyrządy do usuwania kleszczy i jadu - urządzenia medyczne' na okazja.pl",
            "description": ""
          },
          {
            "name": "Pulsoksymetry",
            "pos": 10,
            "level": 2,
            "ogDescription": "Sprawdź okazyjne oferty w najlepszych cenach dla kategorii 'pulsoksymetry - urządzenia medyczne' na okazja.pl",
            "metaTitle": "Pulsoksymetry",
            "metaDescription": "Sprawdź okazyjne oferty w najlepszych cenach dla kategorii 'pulsoksymetry - urządzenia medyczne' na okazja.pl",
            "description": "",
            "properties": [
              {
                "name": "Marka",
                "type": "Multiple",
                "values": [
                  "beurer",
                  "Esperanza",
                  "iHelath",
                  "Sanitas",
                  "TECH-MED",
                  "Contec",
                  "Inna"
                ]
              },
              {
                "name": "Funkcje",
                "type": "Multiple",
                "values": [
                  "alarm dźwiękowy",
                  "alarm wizualny",
                  "automatyczne wyłączanie",
                  "wykres tętna",
                  "brak"
                ]
              },
              {
                "name": "Zasilanie",
                "type": "Multiple",
                "values": [
                  "akumulatorowe",
                  "bateryjne",
                  "sieciowe",
                  "USB",
                  "inne",
                  "brak"
                ]
              }
            ]
          },
          {
            "name": "Termofory",
            "pos": 11,
            "level": 2,
            "ogDescription": "Sprawdź okazyjne oferty w najlepszych cenach dla kategorii 'termofory - urządzenia medyczne' na okazja.pl",
            "metaTitle": "Termofory - Urządzenia medyczne",
            "metaDescription": "Sprawdź okazyjne oferty w najlepszych cenach dla kategorii 'termofory - urządzenia medyczne' na okazja.pl",
            "description": "",
            "properties": [
              {
                "name": "Rodzaj ",
                "type": "Multiple",
                "values": [
                  "elektryczny",
                  "gumowy",
                  "z pestek wiśni",
                  "żelowy"
                ]
              },
              {
                "name": "Kolor",
                "type": "Multiple",
                "values": [
                  "bezbarwny",
                  "beżowy",
                  "biały",
                  "brązowy",
                  "czarny",
                  "czerwony",
                  "ecru",
                  "fioletowy",
                  "granatowy",
                  "miedziany",
                  "niebieski",
                  "pomarańczowy",
                  "różowy",
                  "srebrny ",
                  "szary",
                  "turkusowy",
                  "wielokolorowy",
                  "khaki"
                ]
              },
              {
                "name": "Materiał",
                "type": "Multiple",
                "values": [
                  "bawełna",
                  "guma",
                  "poliester",
                  "silikon",
                  "tkanina",
                  "inny"
                ]
              },
              {
                "name": "Cechy dodatkowe",
                "type": "Multiple",
                "values": [
                  "kieszonka",
                  "pokrowiec pluszowy",
                  "pokrowiec sweterek ",
                  "pokrowiec z polaru",
                  "zabezpieczenie przed przegrzaniem",
                  "zapinany na rzepy",
                  "zdejmowany pokrowiec",
                  "brak"
                ]
              },
              {
                "name": "Marka",
                "type": "Multiple",
                "values": [
                  "Fashy",
                  "Florina",
                  "Sanity",
                  "Soxo",
                  "Elephant",
                  "InnovaGoods",
                  "KooZzzi",
                  "Leschi",
                  "Macom",
                  "Mom's Care",
                  "inna marka"
                ]
              }
            ]
          },
          {
            "name": "Termometry",
            "pos": 12,
            "level": 2,
            "ogDescription": "Sprawdź okazyjne oferty w najlepszych cenach dla kategorii 'termometry - urządzenia medyczne' na okazja.pl",
            "metaTitle": "Termometry - Urządzenie medyczne",
            "metaDescription": "Sprawdź okazyjne oferty w najlepszych cenach dla kategorii 'termometry - urządzenia medyczne' na okazja.pl",
            "description": "",
            "properties": [
              {
                "name": "Rodzaj",
                "type": "Multiple",
                "values": [
                  "bezdotykowe",
                  "elektroniczne",
                  "owulacyjne",
                  "szklane",
                  "smoczki",
                  "inne"
                ]
              },
              {
                "name": "Miejsce pomiaru",
                "type": "Multiple",
                "values": [
                  "czoło",
                  "odbyt",
                  "pochwa",
                  "pod pachą",
                  "ucho",
                  "usta"
                ]
              },
              {
                "name": "Cechy dodatkowe",
                "type": "Multiple",
                "values": [
                  "alarm gorączki",
                  "automatyczne wyłączanie",
                  "bateria w zestawie",
                  "elastyczna końcówka",
                  "etui",
                  "hipoalergiczna końcówka",
                  "informacje głosowe",
                  "laserowy wskaźnik",
                  "latarka",
                  "podstawka",
                  "podświetlany wyświetlacz",
                  "pomiar temperatury otoczenia",
                  "sygnały dźwiękowe",
                  "wodoodporny ",
                  "wskazuje dni płodne",
                  "wskaźnik baterii ",
                  "wybór jednostki pomiaru",
                  "zegar czasu rzeczywistego",
                  "inne"
                ]
              },
              {
                "name": "Zasilanie",
                "type": "Multiple",
                "values": [
                  "akumulatorowe",
                  "bateryjne",
                  "sieciowe",
                  "sieciowo-bateryjne",
                  "USB",
                  "sieciowo-akumulatorowe",
                  "brak"
                ]
              },
              {
                "name": "Marka",
                "type": "Multiple",
                "values": [
                  "ABRA",
                  "Accu-Chek",
                  "AEG",
                  "beurer",
                  "Braun",
                  "Diagnostic",
                  "Esperanza",
                  "Geratherm",
                  "GESS",
                  "INTEC",
                  "KARDIO-TEST MEDICAL",
                  "Medel",
                  "Microlife",
                  "OMNIBUS",
                  "Omron",
                  "ORO-MED",
                  "PiC Solution",
                  "ProMedix",
                  "Rossmax",
                  "Sanitas",
                  "Sencor",
                  "SilverCrest",
                  "TECH-MED",
                  "Visiomed",
                  "Inna marka",
                  "Hartmann",
                  "Hi-Tech Medical",
                  "Medisana",
                  "Medivon",
                  "MesMed",
                  "Novama",
                  "Sanity",
                  "Tecnimed",
                  "Vitammy",
                  "Yuwell",
                  "Accumed",
                  "Camry",
                  "HAXE",
                  "Jumper",
                  "Kardioline",
                  "Little Doctor"
                ]
              }
            ]
          },
          {
            "name": "Tlenoterapia",
            "pos": 13,
            "level": 2,
            "ogDescription": "Sprawdź okazyjne oferty w najlepszych cenach dla kategorii 'tlenoterapia - urządzenia medyczne' na okazja.pl",
            "metaTitle": "Tlenoterapia",
            "metaDescription": "Sprawdź okazyjne oferty w najlepszych cenach dla kategorii 'tlenoterapia - urządzenia medyczne' na okazja.pl",
            "description": "",
            "properties": [
              {
                "name": "Typ",
                "type": "Multiple",
                "values": [
                  "koncentratory tlenu",
                  "tlen inhalacyjny",
                  "inne"
                ]
              },
              {
                "name": "Rodzaj",
                "type": "Multiple",
                "values": [
                  "przenośne",
                  "stacjonarne"
                ]
              },
              {
                "name": "Zasilanie",
                "type": "Multiple",
                "values": [
                  "akumulatorowe",
                  "bateryjne",
                  "sieciowe",
                  "sieciowo-akumulatorowe",
                  "sieciowe-bateryjne",
                  "USB",
                  "brak"
                ]
              },
              {
                "name": "Marka",
                "type": "Multiple",
                "values": [
                  "Philips",
                  "Cronos",
                  "DeVilbiss",
                  "Invacare",
                  "Yuwell",
                  "inne"
                ]
              }
            ]
          },
          {
            "name": "Urządzenia do czyszczenia uszu",
            "pos": 14,
            "level": 2,
            "ogDescription": "Sprawdź okazyjne oferty w najlepszych cenach dla kategorii 'urządzenia do czyszczenia uszu - urządzenia medyczne' na okazja.pl",
            "metaTitle": "Urządzenia do czyszczenia uszu",
            "metaDescription": "Sprawdź okazyjne oferty w najlepszych cenach dla kategorii 'urządzenia do czyszczenia uszu - urządzenia medyczne' na okazja.pl",
            "description": ""
          },
          {
            "name": "Pozostałe",
            "pos": 15,
            "level": 2,
            "ogDescription": "Sprawdź okazyjne oferty w najlepszych cenach dla kategorii 'pozostałe - urządzenia medyczne' na okazja.pl",
            "metaTitle": "Pozostałe - Urządzenia medyczne",
            "metaDescription": "Sprawdź okazyjne oferty w najlepszych cenach dla kategorii 'pozostałe - urządzenia medyczne' na okazja.pl",
            "description": ""
          }
        ]
      },
      {
        "name": "Vouchery",
        "pos": 8,
        "level": 1,
        "ogDescription": "Sprawdź okazyjne oferty w najlepszych cenach dla kategorii 'zdrowie - vouchery' na okazja.pl",
        "metaTitle": "Vouchery - Zdrowie",
        "metaDescription": "Sprawdź okazyjne oferty w najlepszych cenach dla kategorii 'zdrowie - vouchery' na okazja.pl",
        "description": "Podaruj komuś zdrowie! Na serwisie Okazja.pl możesz wykupić wygodny voucher, który będzie idealnym prezentem i zaproszeniem do zadbania o swoje zdrowie. Obdarowany będzie mógł wybrać niezbędne dla siebie produkty idealne do dbania o zdrowie. Okaż troskę o swoich bliskich i podaruj mu voucher na Okazja.pl."
      }
    ]
  }
}