{
  "Zwierzęta": {
    "name": "Zwierzęta",
    "pos": 13,
    "level": 0,
    "ogDescription": "Sprawdź okazyjne oferty w najlepszych cenach dla kategorii 'zwierzęta - artykuły zoologiczne' na okazja.pl",
    "metaTitle": "Zwierzęta",
    "metaDescription": "Sprawdź okazyjne oferty w najlepszych cenach dla kategorii 'zwierzęta - artykuły zoologiczne' na okazja.pl",
    "description": "Tutaj znajdziesz wszystko, co jest niezbędne dla twojego pupila. Akcesoria dla zwierząt często uważa się za zbędne dodatki, a często jest wręcz przeciwnie; odpowiednio i odpowiedzialnie dobrane przybory mogą zmienić wasze wspólne życie na lepsze. Jeżeli twój pies jest głodomorem i pochłania swoje porcje w zawrotnym tempie, przeszukaj oferty kong, które spowalniają jedzenie, odpowiednie szelki zadbają o kręgosłup pupila, a zabawki zainteresują każde zwierze. Jednak w ofertach na naszym serwisie znajdziesz n",
    "subcategories": [
      {
        "name": "Odzież i dodatki",
        "pos": 0,
        "level": 1,
        "ogDescription": "Sprawdź okazyjne oferty w najlepszych cenach dla kategorii 'odzież i dodatki w zwierzęta' na okazja.pl",
        "metaTitle": "Odzież i dodatki",
        "metaDescription": "Sprawdź okazyjne oferty w najlepszych cenach dla kategorii 'odzież i dodatki w zwierzęta' na okazja.pl",
        "description": "Jeżeli jesteś właścicielem krótkowłosej rasy psa, to z pewnością wiesz, że te psy, oraz małe rasy bardzo szybko tracą temperaturę ciała. By uniknąć chorób i przemarznięcia zwierzęcia podczas spacerów, warto jest zaopatrzyć się w specjalistyczne ubranko, które zapewni naszemu zwierzęciu ciepło i ochronę przed niesprzyjającymi warunkami atmosferycznymi. Zabezpiecz swojego pupila przed chłodem na Okazja.pl.",
        "properties": [
          {
            "name": "Dla kogo",
            "type": "Multiple",
            "values": [
              "dla psów",
              "dla kotów",
              "dla ptaków",
              "dla gryzoni",
              "dla królików"
            ]
          },
          {
            "name": "Kolor",
            "type": "Multiple",
            "values": [
              "wielokolorowy",
              "biały",
              "beżowy",
              "brązowy",
              "czarny",
              "czerwony",
              "fioletowy ",
              "niebieski",
              "pomarańczowy",
              "różowy ",
              "szary",
              "zielony",
              "srebrny",
              "złoty",
              "inny"
            ]
          },
          {
            "name": "Marka",
            "type": "Multiple",
            "values": [
              "Zolux",
              "Furminator",
              "Catit",
              "Riga",
              "Trixie",
              "Flexi",
              "Happy House",
              "Comfy",
              "Acana",
              "Allermyl",
              "Alpha Spirit",
              "Amiplay",
              "Illume Nite None",
              "Softshell"
            ]
          },
          {
            "name": "Materiał",
            "type": "Multiple",
            "values": [
              "polar",
              "wodoodporny",
              "wełna",
              "bawełna",
              "syntetyczny"
            ]
          },
          {
            "name": "Przeznaczenie",
            "type": "Multiple",
            "values": [
              "przeciwdeszczowe",
              "zimowe",
              "ochrona łap",
              "ozdobne",
              "odblaskowe ",
              "inne"
            ]
          },
          {
            "name": "Rodzaj",
            "type": "Multiple",
            "values": [
              "bandama/apaszka",
              "bluza",
              "buty",
              "czapeczka",
              "kamizelka",
              "kombinezon",
              "koszulka ",
              "krawat",
              "kurteczka",
              "majteczki",
              "muszka",
              "spodnie ",
              "stroje kąpielowe",
              "sukienka",
              "sweterek",
              "ubranka pooperacyjne",
              "gumka",
              "kokarda",
              "spinka",
              "inny"
            ]
          },
          {
            "name": "Wzór",
            "type": "Multiple",
            "values": [
              "napisy",
              "paski",
              "zwierzęcy",
              "bez wzoru",
              "aztecki",
              "geometryczny",
              "groszki",
              "jodełka",
              "kratka ",
              "kwiaty",
              "logo",
              "marmurkowy",
              "melanż",
              "moro",
              "napisy",
              "norweski ",
              "ombre",
              "ornament",
              "pepitka",
              "nadruka"
            ]
          }
        ]
      },
      {
        "name": "Karma, przysmaki, witaminy",
        "pos": 1,
        "level": 1,
        "ogDescription": "Sprawdź okazyjne oferty w najlepszych cenach dla kategorii 'karma, przysmaki, witaminy dla zwierząt' na okazja.pl",
        "metaTitle": "Karma, przysmaki, witaminy dla zwierząt",
        "metaDescription": "Sprawdź okazyjne oferty w najlepszych cenach dla kategorii 'karma, przysmaki, witaminy dla zwierząt' na okazja.pl",
        "description": "W zdrowym ciele zdrowy duch to nie tylko powiedzenie, które pasuje do ludzi. Zdrowe zwierzęta mają znacznie mniej problemów behawioralnych, a jak wiadomo najlepszą receptą na zdrowe ciało jest zdrowe odżywianie. Na serwisie Okazja.pl znajdziesz szeroką ofertę karmy, przysmaków oraz witamin, dzięki którym twoje zwierze będzie cieszyło się zdrowiem i witalnością, a ty spokojem ducha.",
        "properties": [
          {
            "name": "Dla kogo ",
            "type": "Multiple",
            "values": [
              "Dla kotów",
              "Dla psów",
              "Dla ptaków",
              "Dla gryzoni",
              "Dla królików",
              "Dla koni"
            ]
          },
          {
            "name": "Kolor",
            "type": "Multiple",
            "values": [
              "wielokolorowy",
              "biały",
              "beżowy",
              "brązowy",
              "czarny",
              "czerwony",
              "fioletowy ",
              "niebieski",
              "pomarańczowy",
              "różowy ",
              "szary",
              "zielony",
              "srebrny",
              "złoty",
              "inny"
            ]
          },
          {
            "name": "Specjalne wymagania",
            "type": "Multiple",
            "values": [
              "Dla aktywnych ",
              "Alergia i problemy skórne",
              "Z nadwagą",
              "Z nadwrażliwością pokarmową",
              "Z cukrzycą",
              "Z niewydolnością nerek",
              "Z niewydolnością serca",
              "Ze schorzeniem dróg moczowych",
              "Ze schorzeniem stawów",
              "Ze schorzeniami wątroby",
              "W okresie ciąży i laktacji",
              "Po kastracji",
              "Po sterylizacji",
              "Dla wybrednych",
              "Ze schorzeniami dentystycznymi",
              "Odkłaczające",
              "Dla przebywających w domu",
              "Z niską aktywnością fizyczną",
              "Dla wychodzących na zewnątrz",
              "Ze wzmożoną aktywnością fizyczną",
              "Wrażliwe stawy",
              "Wzmacnianie odporności",
              "Atopia",
              "Biegunka",
              "Dieta eliminacyjna",
              "Encefalopatia wątrobowa",
              "Enteropatia glutenozależna",
              "Hiperglikemia",
              "Idiopatyczne zapalenie pęcherza moczowego",
              "Kacheksja",
              "Kamienie moczanowe",
              "Kamienie oksalatowe",
              "Kamienie struwitowe",
              "Limfo-plazmocytarne zapalenie okrężnicy",
              "Nadciśnienie",
              "Nadczynność tarczycy",
              "Niedożywienie",
              "Niepokój",
              "Nietolerancja pokarmowa",
              "Obrzęk",
              "Okres przed/pooperacyjny",
              "Okrężnica olbrzymia",
              "Osłabiony apetyt",
              "Przerost flory bakteryjnej jelit",
              "Przewlekła choroba zapalna jelit",
              "Przewlekłe idiopatyczne zapalenie okrężnicy ",
              "Przewlekłe zapalenie żołądka",
              "Przełyk olbrzymi",
              "Rekonwalescencja",
              "Stres",
              "Wodobrzusze",
              "Wrzody żołądka lub dwunastnicy",
              "Wymioty",
              "Zapalenie pęcherza",
              "Zapalenie okrężnicy",
              "Zapalenie trzustki",
              "Zaparcia",
              "Zespolenie wrotno-oboczne",
              "Zespół jelita drażliwego",
              "Ziarniniak kwasochłonny",
              "Żołądek i trawienie",
              "Tauryna",
              "Mleko"
            ]
          },
          {
            "name": "Smak",
            "type": "Multiple",
            "values": [
              "Cielęcina",
              "Dorsz",
              "Dziczyzna",
              "Gęś ",
              "Indyk",
              "Jagnięcina",
              "Kaczka",
              "Krewetka",
              "Królik",
              "Kurczak",
              "Łosoś ",
              "Pstrąg",
              "Śledź",
              "Tuńczyk",
              "Wątróbka",
              "Wołowina",
              "Warzywa",
              "Mix smaków"
            ]
          },
          {
            "name": "Rodzaj opakowania",
            "type": "Multiple",
            "values": [
              "Puszka ",
              "Saszetka ",
              "Tacka"
            ]
          },
          {
            "name": "Marka",
            "type": "Multiple",
            "values": [
              "Almo Nature",
              "Animonda",
              "Applaws",
              "Bozita",
              "Brit",
              "Butcher's",
              "Catz Finefood",
              "Dolina Noteci",
              "Felix",
              "Feringa",
              "Gimpet",
              "Gourmet",
              "Gussto",
              "Hill's",
              "Lams",
              "Kitekat",
              "Leonardo",
              "Mac's",
              "Miamor",
              "Naturea",
              "Power of Nature",
              "Purina ",
              "Rafi",
              "Royal Canin",
              "Sheba",
              "Super Benek",
              "Trovet",
              "Whiskas",
              "Granatapet",
              "Tropi",
              "Inny",
              "Zolux",
              "Vitapol",
              "Francodex",
              "Tropical",
              "Ichthyotrophic",
              "Aquael Acti",
              "Versele-Laga",
              "Beaphar",
              "Cunipic",
              "Natural-Vit",
              "Pet Inn",
              "Trixie",
              "Perfect Fit",
              "Schesir",
              "Stuzzy",
              "Iams",
              "Felix",
              "Natures Protection",
              "Trainer",
              "Eukanuba",
              "Tetra",
              "Hill's Prescription Diet",
              "Hill's Special Care",
              "Purina Veterinary Diets",
              "Rinti Canine (Reedy)",
              "Royal Canin Veterinary Diet",
              "8in1",
              "Hokamix",
              "Luposan",
              "Fortan Cafortan",
              "Caniland Cani Gelenk",
              "Dibo",
              "Beneful",
              "Royal Canin Educ",
              "Nutrivert",
              "Beaphar Multi Vitamin",
              "Grau",
              "GAC Anti-Stress",
              "Felini",
              "Kattovit-Special Diet",
              "Animonda Integra",
              "Beaphar-Special Diet",
              "Animonda Integra"
            ]
          },
          {
            "name": "Rodzaj",
            "type": "Multiple",
            "values": [
              "bez cukru",
              "bezzbożowa",
              "z probiotykiem",
              "bez probiotyku",
              "bio",
              "chrupki",
              "granulat",
              "kolba",
              "weterynaryjne",
              "dropsy",
              "karma",
              "kostka wapienna",
              "suszone owoce i warzywa",
              "pokarm",
              "przekąska",
              "przysmak",
              "rurka",
              "siano",
              "suplement diety",
              "zioła suszone",
              "biszkopty",
              "mieszanki",
              "kwiaty",
              "trawa",
              "zboża",
              "drewienka do gryzienia",
              "kostki do lizania"
            ]
          },
          {
            "name": "Dodatkowe korzyści",
            "type": "Multiple",
            "values": [
              "dostarczanie witamin",
              "minerały",
              "redukcja brzydkich zapachów",
              "regulacja przewodu pokarmowego",
              "ścieranie zębów",
              "pielęgnacja skóry i sierści",
              "utrzymanie odpowiedniej wagi ",
              "rozwój kości",
              "dostarczanie energii",
              "zwiększenie odporności"
            ]
          }
        ]
      },
      {
        "name": "Obroże, smycze, szelki, kagańce",
        "pos": 2,
        "level": 1,
        "ogDescription": "Sprawdź okazyjne oferty w najlepszych cenach dla kategorii 'obroże, smycze, szelki, kagańce dla zwierząt' na okazja.pl",
        "metaTitle": "Obroże, smycze, szelki, kagańce",
        "metaDescription": "Sprawdź okazyjne oferty w najlepszych cenach dla kategorii 'obroże, smycze, szelki, kagańce dla zwierząt' na okazja.pl",
        "description": "Coraz więcej właścicieli jest świadomych chorób kręgosłupa u psów. Niestety, częstą przyczyną takich problemów jest fakt źle dobranych szelek lub obroży, które źle wpływają na psie kręgosłupy. Na Okazja.pl znajdziesz szeroką ofertę specjalistycznych obroży, smyczy, szelek i kagańców, które zapewnią zwierzęciu bezpieczeństwo i ogromny komfort.",
        "properties": [
          {
            "name": "Dla kogo",
            "type": "Multiple",
            "values": [
              "dla psów",
              "dla kotów",
              "dla ptaków",
              "dla gryzoni",
              "dla królików"
            ]
          },
          {
            "name": "Kolor",
            "type": "Multiple",
            "values": [
              "wielokolorowy",
              "biały",
              "beżowy",
              "brązowy",
              "czarny",
              "czerwony",
              "fioletowy ",
              "niebieski",
              "pomarańczowy",
              "różowy ",
              "szary",
              "zielony",
              "srebrny",
              "złoty",
              "inny"
            ]
          },
          {
            "name": "Rodzaj",
            "type": "Multiple",
            "values": [
              "automatyczna",
              "dla dwóch psów",
              "do biegania",
              "do samochodu",
              "komplet (obroża+smycz)",
              "linka treningowa",
              "na rower",
              "na pas biodrowy",
              "przepinana ",
              "ringówka",
              "rozdzielacz",
              "tradycyjna",
              "inna",
              "przeplatana",
              "nylonowa",
              "regulowana",
              "uprząż",
              "antyszczekowa",
              "ultradźwiękowa"
            ]
          },
          {
            "name": "Marka",
            "type": "Multiple",
            "values": [
              "Julius K9 IDC",
              "Giant",
              "Giant Professional",
              "Flexi New Classic",
              "Hunter",
              "Hunter Ecco Sport",
              "Hunter Vario Basic",
              "Hunter Freestyle",
              "Heim BioThane",
              "Heim Super-Grip",
              "Trixie",
              "Halti",
              "Art Sportiv Plus",
              "Hunter Swiss",
              "Flexi Giant",
              "Mruczek",
              "Comfy",
              "Flexi",
              "Ami play",
              "Ferplast",
              "Patentopet",
              "Gowalk",
              "Feel free",
              "Petsafe",
              "Eyenimal Bark Control Soft",
              "Numaxes Canicalm",
              "Baskerville Ultra",
              "Allsafe",
              "Maxi Safe",
              "Nobby"
            ]
          },
          {
            "name": "Cechy dodatkowe",
            "type": "Multiple",
            "values": [
              "elementy LED",
              "elementy odblaskowe",
              "odporna na promieniowanine UV",
              "z amortyzacją",
              "z blokadą",
              "z latarką",
              "zerowa nasiąkliwość",
              "brak"
            ]
          },
          {
            "name": "Rasy",
            "type": "Multiple",
            "values": [
              "miniaturowe",
              "szczenięta",
              "małe ",
              "średnie",
              "duże",
              "uniwersalne"
            ]
          }
        ]
      },
      {
        "name": "Kleszcze, pchły i pasożyty",
        "pos": 3,
        "level": 1,
        "ogDescription": "Sprawdź okazyjne oferty w najlepszych cenach dla kategorii 'kleszcze, pchły i pasożyty' na okazja.pl",
        "metaTitle": "Kleszcze, pchły i pasożyty",
        "metaDescription": "Sprawdź okazyjne oferty w najlepszych cenach dla kategorii 'kleszcze, pchły i pasożyty' na okazja.pl",
        "description": "Pielęgnacja zwierząt przed pasożytami jest bardzo ważna. Istnieje przekonanie, że pchły nie są groźnym problemem u zwierząt, lecz jest przeciwnie. Powoduje to u nich frustracje oraz bolesne rany od drapania. Warto stosować preparaty łączone - zarówno na pchły jak i na kleszcze. Na Okazja.pl znajdziesz mnóstwo ofert, które pomogą utrzymać twoje zwierze wolne od kleszczy, pcheł i pasożytów.",
        "properties": [
          {
            "name": "Dla kogo",
            "type": "Multiple",
            "values": [
              "dla psów",
              "dla kotów",
              "dla ptaków",
              "dla gryzoni",
              "dla królików"
            ]
          },
          {
            "name": "Kolor",
            "type": "Multiple",
            "values": [
              "wielokolorowy",
              "biały",
              "beżowy",
              "brązowy",
              "czarny",
              "czerwony",
              "fioletowy ",
              "niebieski",
              "pomarańczowy",
              "różowy ",
              "szary",
              "zielony",
              "srebrny",
              "złoty",
              "inny"
            ]
          },
          {
            "name": "Marka",
            "type": "Multiple",
            "values": [
              "Neutral",
              "Aloe Vera",
              "Furminator",
              "Pet Head",
              "Bob Martin Clear",
              "Exner Petguard",
              "O'Tom",
              "Dibo",
              "Pawty",
              "Elras",
              "Dirt Devil",
              "Bust it",
              "Bayer",
              "Selecta Htc",
              "As",
              "Dr Seidel",
              "Scanvet",
              "Super Benek",
              "Vetoquinol",
              "Ani-Life",
              "Aptus",
              "Comfy",
              "Inna marka"
            ]
          },
          {
            "name": "Rodzaj",
            "type": "Multiple",
            "values": [
              "Szampon",
              "Spray",
              "Obroża",
              "Haczycz",
              "Preparat",
              "Pęseta",
              "Nożyczki",
              "Cążki",
              "Emulsja",
              "Feromony",
              "Krople ",
              "Syrop",
              "Pipeta"
            ]
          },
          {
            "name": "Zastosowanie",
            "type": "Multiple",
            "values": [
              "higiena",
              "przeciw kleszczom",
              "przeciw pchłom",
              "przeciw wszom",
              "przeciw wszołom",
              "relaks",
              "walka z zapachem"
            ]
          },
          {
            "name": "Cechy dodatkowe",
            "type": "Multiple",
            "values": [
              "antystresowe",
              "odkażacz",
              "pielęgnacja uszu",
              "pielęgnacja oczu"
            ]
          }
        ]
      },
      {
        "name": "Szczotki, trymery i grzebienie",
        "pos": 4,
        "level": 1,
        "ogDescription": "Sprawdź okazyjne oferty w najlepszych cenach dla kategorii 'szczotki, trymery i grzebienie dla zwierząt' na okazja.pl",
        "metaTitle": "Szczotki, trymery i grzebienie",
        "metaDescription": "Sprawdź okazyjne oferty w najlepszych cenach dla kategorii 'szczotki, trymery i grzebienie dla zwierząt' na okazja.pl",
        "description": "Dbanie o sierść podopiecznych jest kluczową sprawą, jeżeli nie chce się spędzać całych dni na sprzątaniu mieszkania.Dodatkowo, dobrze ostrzyżone zwierze wygląda bardzo estetycznie, a w letnie miesiące daje mu to ogromną ulgę podczas wysokich temperatur. Na Okazja.pl znajdziesz szeroką ofertę szczotek, trymerów i grzebieni, którymi będziesz mógł dbać o sierść swojego podopiecznego.",
        "properties": [
          {
            "name": "Kolor",
            "type": "Multiple",
            "values": [
              "wielokolorowy",
              "biały",
              "beżowy",
              "brązowy",
              "czarny",
              "czerwony",
              "fioletowy ",
              "niebieski",
              "pomarańczowy",
              "różowy ",
              "szary",
              "zielony",
              "srebrny",
              "złoty",
              "inny"
            ]
          },
          {
            "name": "Rodzaj ",
            "type": "Multiple",
            "values": [
              "Rękawica",
              "Rolka",
              "Szczotka",
              "Filcak",
              "Grzebień",
              "Ostrze",
              "Rozcinak",
              "Trymek",
              "Zgrzebło"
            ]
          },
          {
            "name": "Marka",
            "type": "Multiple",
            "values": [
              "Moser",
              "Oster",
              "Kerbi Sonic",
              "Slicker Brush",
              "Kong Dog Zoom Groom",
              "MagicBrush",
              "Mini Pet",
              "Furmaster",
              "Pick-up",
              "Kong Cat",
              "Riga",
              "Yarro",
              "Curver",
              "DoggyDolly",
              "Dolfos",
              "Ecopic",
              "Eurowet",
              "Feliway",
              "Ibiyaya",
              "Imac",
              "JK Animals",
              "Kayoba",
              "Kerbi ",
              "Kitty Citty",
              "Mainecoon",
              "Makspol",
              "Mikita",
              "Mr Smell",
              "MyKotty",
              "PawHut",
              "PetArmor",
              "Pethaus",
              "PetSafe",
              "Petstages",
              "Pokusa",
              "Savic",
              "Scanvet",
              "SportPet",
              "Staywell",
              "Stefanplast",
              "Super Benek",
              "SureFlap",
              "Swing",
              "Tre Ponti",
              "Tutzi",
              "Vetoquinol",
              "Vetoskin",
              "Zaria",
              "Moser",
              "Kerbl Sonic",
              "Adler",
              "Aesculap",
              "Andis",
              "Bass",
              "Camry",
              "Wahl",
              "Zoofari",
              "Thrive",
              "Garmin",
              "Acana",
              "Allermyl",
              "Alpha Spirit",
              "Amiplay",
              "Barry King",
              "Beno",
              "Boomer Ball",
              "Bosch",
              "Botaniqa",
              "Brit",
              "Bros",
              "Carnilove",
              "Cezar",
              "Champion",
              "Chuckit",
              "Dingo",
              "Dr Lucy",
              "Dr Seidel",
              "Espree",
              "Ferplast",
              "Francodex",
              "Gammolen",
              "Happs ",
              "Hery",
              "Hexoderm",
              "Hobbydog",
              "iFetch",
              "Jagul",
              "Julius",
              "Kong",
              "Maced",
              "Over zoo",
              "Patento Pet",
              "Pedigree",
              "Pess",
              "Pet Nova",
              "Plast team",
              "Purina",
              "Ramzs",
              "Sabunol",
              "Tre Ponti",
              "VetExpert",
              "Vitopar"
            ]
          },
          {
            "name": "Dla kogo",
            "type": "Multiple",
            "values": [
              "dla kotów długowłosych",
              "dla kotów krótkowłosych",
              "dla małych kotów",
              "dla dużych kotów"
            ]
          },
          {
            "name": "Włosie",
            "type": "Multiple",
            "values": [
              "kauczuk",
              "plastik",
              "nylon",
              "naturalne",
              "stal nierdzewna",
              "inne"
            ]
          },
          {
            "name": "Cechy dodatkowe",
            "type": "Multiple",
            "values": [
              "szczotka miękka",
              "szczotka dwustronna",
              "szczotka samoczyszcząca",
              "szczotka twarda",
              "szczotka do mocowania na ścianie",
              "dostosowana do osób leworęcznych",
              "włosie z piniami",
              "kleszczołapki",
              "maszynka do wykańczania",
              "maszynka uniwersalna",
              "nożyczki",
              "ostrza do maszynki",
              "trymer"
            ]
          },
          {
            "name": "Zasilanie",
            "type": "Multiple",
            "values": [
              "sieciowe",
              "akumulatorowe",
              "ręczne"
            ]
          },
          {
            "name": "Typ",
            "type": "Multiple",
            "values": [
              "przewodowa",
              "bezprzewodowa"
            ]
          }
        ]
      },
      {
        "name": "Terrarystyka",
        "pos": 5,
        "level": 1,
        "ogDescription": "Sprawdź okazyjne oferty w najlepszych cenach dla kategorii 'terrarystyka' na okazja.pl",
        "metaTitle": "Terrarystyka",
        "metaDescription": "Sprawdź okazyjne oferty w najlepszych cenach dla kategorii 'terrarystyka' na okazja.pl",
        "description": "Na serwisie Okazja.pl znajdziesz szeroki asortyment produktów z zakresu terrarystyki, by hodowane przez ciebie gatunki zwierząt miały wszystko, co niezbędne im do życia. Znajdziesz tutaj nie tylko rośliny do przygotowania zwierzętom terenu i odpowiednią karmę, ale również wszystko do monitorowania terrarium. Ważne jest, żeby odpowiednio kontrolować temperaturę, wilgotność oraz mieć stabilne źródło ciepła.",
        "properties": [
          {
            "name": "Dla kogo",
            "type": "Multiple",
            "values": [
              "dla psów",
              "dla kotów",
              "dla ptaków",
              "dla gryzoni",
              "dla królików"
            ]
          },
          {
            "name": "Kolor",
            "type": "Multiple",
            "values": [
              "wielokolorowy",
              "biały",
              "beżowy",
              "brązowy",
              "czarny",
              "czerwony",
              "fioletowy ",
              "niebieski",
              "pomarańczowy",
              "różowy ",
              "szary",
              "zielony",
              "srebrny",
              "złoty",
              "inny"
            ]
          },
          {
            "name": "Marka",
            "type": "Multiple",
            "values": [
              "Exo Terra",
              "Vitopal",
              "Francodex",
              "Aquael ",
              "Aqua Szut",
              "Hydor",
              "Hagen"
            ]
          },
          {
            "name": "Oświetlenie i ogrzewanie",
            "type": "Multiple",
            "values": [
              "grzałka",
              "mata grzewcza",
              "przewód grzejny",
              "kabel ogrzewający silikonowy jednożyłowy",
              "ceramiczny emitor ciepła podczerwień",
              "kabel grzewczy",
              "eramiczny emiter ciepła",
              "kamień grzewczy",
              "żarówka sun glo",
              "żarówka intense",
              "żarówka reptile UVB",
              "żarówka heat",
              "żarówka repti glo",
              "żarówka sun glo neodymium",
              "żarówka natural light",
              "lampka LED day/night",
              "żarówka day glo basking spot",
              "żarówka swamp glo basking",
              "żarówka reptive vision",
              "świetlówka reptile",
              "żarówka halogenowa",
              "świetlówka tropic pro",
              "heatspot pro halogenowa",
              "punktowa lampa grzewcza na podczerwień",
              "klatka ochronna do lampy",
              "punktowa lampa grzewcza neodymowa",
              "światlówka desert pro",
              "lampa desert pro compact",
              "pro socket",
              "gniazdo proste",
              "lampa LED",
              "reflektor",
              "prosun lampa światła mieszanego",
              "punktowa lampa grzewcza na podczerwień",
              "uchwyt instalacyjny pro socket",
              "oprawa oświetleniowa",
              "lampa glow light",
              "lampka full moon",
              "aluminiowy reflektor UV light dome",
              "lampa halogenowa z żarówką i balastem",
              "lampka scorpion light",
              "regulator temperatury",
              "generator mgły",
              "izolacja grzewcza",
              "regulator światła",
              "taśma LED",
              "kabel zasilający",
              "termometr analogowy",
              "termometr elektroniczny",
              "higrometer",
              "termometr laserowy",
              "programator",
              "karta do pomiaru emisji UVB"
            ]
          },
          {
            "name": "Rodzaj",
            "type": "Multiple",
            "values": [
              "Kabel",
              "Podłoże",
              "Mata",
              "Termometr",
              "Lampa",
              "Żarówka",
              "Oprawka",
              "Promiennik",
              "Grzałka",
              "Kamień",
              "Regulator światła",
              "Termostat",
              "Osłona",
              "Higrometr",
              "Sonda",
              "Termoregulator"
            ]
          },
          {
            "name": "Podłoże",
            "type": "Multiple",
            "values": [
              "kora",
              "drewienka",
              "mineralne",
              "torf",
              "piaskowane",
              "piasek",
              "żwirek",
              "włókno",
              "kukurydziane",
              "kostka",
              "chipsy",
              "brykiet",
              "żwir kwarcowy",
              "żwir dolomitowy",
              "perełki szklane",
              "podłoże do krewetek",
              "piaskowiec"
            ]
          },
          {
            "name": "Kryjówki",
            "type": "Multiple",
            "values": [
              "domek",
              "jaskinia",
              "skałka narożna",
              "ścianka korkowa",
              "z wgłębieniem ",
              "siedlisko",
              "świecące",
              "czaszka",
              "kość",
              "szkielet",
              "korzeń"
            ]
          },
          {
            "name": "Rośliny",
            "type": "Multiple",
            "values": [
              "sztuczne",
              "żywe",
              "mech",
              "liana",
              "wiszące",
              "z jedwabiu",
              "z włókien kokosa",
              "bambusowe",
              "wiszące"
            ]
          },
          {
            "name": "Gatunek",
            "type": "Multiple",
            "values": [
              "żółw",
              "krab",
              "kameleon",
              "jaszczurka",
              "żółw wodny",
              "gekon",
              "żaba",
              "owady",
              "pajęczaki",
              "agama"
            ]
          },
          {
            "name": "Żywy pokarm",
            "type": "Multiple",
            "values": [
              "świerszcze",
              "larwy",
              "stonogi",
              "karaczany",
              "drewnojady",
              "mączniki",
              "szarańcza",
              "szczury",
              "pająki",
              "mrówki",
              "modliszka"
            ]
          },
          {
            "name": "Moc (W)",
            "type": "Multiple",
            "values": [
              "9-30",
              "31-60",
              "61-90",
              "91-120",
              "121-150",
              "151-180",
              "181-210",
              "211-250"
            ]
          }
        ]
      },
      {
        "name": "Akcesoria i zabawki",
        "pos": 6,
        "level": 1,
        "ogDescription": "Sprawdź okazyjne oferty w najlepszych cenach dla kategorii 'akcesoria i zabawki dla zwierząt' na okazja.pl",
        "metaTitle": "Akcesoria i zabawki",
        "metaDescription": "Sprawdź okazyjne oferty w najlepszych cenach dla kategorii 'akcesoria i zabawki dla zwierząt' na okazja.pl",
        "description": "Zabawa jest ważnym elementem w rozwoju zwierząt. Dodatkowo wspólna zabawa z właścicielem nawiązuje gigantyczną więź z czworonogiem. Dlaczego zabawa jest potrzebna wszystkim zwierzętom włącznie z ptakami i gryzoniami? Ponieważ te zwierzęta są bardzo inteligentnymi stworzeniami i duża ilość zabawy bardzo stymuluje ich mózg oraz wyładowuje frustracje. Na serwisie Okazja.pl znajdziesz zabawki i akcesoria dla każdego zwierzaka.",
        "properties": [
          {
            "name": "Dla kogo",
            "type": "Multiple",
            "values": [
              "dla psów",
              "dla kotów",
              "dla ptaków",
              "dla gryzoni",
              "dla królików"
            ]
          },
          {
            "name": "Rodzaj",
            "type": "Multiple",
            "values": [
              "koc ",
              "kojec",
              "kosz ",
              "legowisko",
              "mata",
              "materac",
              "poduszka",
              "poduszka owalna",
              "ponton",
              "łóżko",
              "kratka metalowa",
              "przegroda",
              "wózek",
              "torba"
            ]
          },
          {
            "name": "Kolor",
            "type": "Multiple",
            "values": [
              "Beżowo-brązowy",
              "Beżowo-czarny",
              "Beżowo-kremowy",
              "Beżowo-niebieski",
              "Beżowy",
              "Biało-czerwony",
              "Biało-niebieski",
              "Biały",
              "Brązowo-beżowy",
              "Brązowo-biały",
              "Brązowo-niebieski",
              "Brązowo-szary",
              "Brązowy",
              "Ciemnoszara/Kremowa",
              "Czarno-beżowy",
              "Czarno-biały",
              "Czarno-szary",
              "Czarno-zielony",
              "Czarny",
              "Czerwony",
              "Grafitowy",
              "Kremowo-szary",
              "Kremowy",
              "Limonkowy",
              "Niebieski",
              "Niebiesko-biały",
              "Pomarańczowo-brązowy",
              "Pomarańczowy",
              "Różowy",
              "Szaro - brązowy",
              "Szaro - zielony",
              "szaro - łososiowe",
              "Szaro-biały",
              "Szaro-różowy",
              "Szaro-srebrny",
              "Szary",
              "Turkusowy"
            ]
          },
          {
            "name": "Rasa",
            "type": "Multiple",
            "values": [
              "Rasy małe i miniaturowe",
              "Rasy małe",
              "Rasy małe i średnie",
              "Rasy średnie",
              "Rasy średnie i duże",
              "Rasy duże",
              "Uniwersalne"
            ]
          },
          {
            "name": "Do karmienia",
            "type": "Multiple",
            "values": [
              "automat na karmę i wodę",
              "dozownik",
              "poidło",
              "filtr do poidła",
              "miska ceramiczna na stojaku",
              "miska z melaminy",
              "miska ze stali nierdzewnej",
              "stojak",
              "miska na gumie",
              "miska standardowa",
              "miska ceramiczno-drewniana",
              "miska składana podróżna",
              "miska chłodząca",
              "torba na przysmaki",
              "pojemnik na kartę",
              "pokrywki do puszek",
              "osłona na tubkę",
              "podkładka pod miskę",
              "mata",
              "butelka ",
              "butelka z miską"
            ]
          },
          {
            "name": "Pojemność (ml)",
            "type": "Multiple",
            "values": [
              "1-100",
              "101-200",
              "201-300",
              "301-400",
              "401-500",
              "500-1000",
              ">1000"
            ]
          },
          {
            "name": "Rodzaj żwirku",
            "type": "Multiple",
            "values": [
              "zbrylający",
              "silikatowy",
              "niezbierający",
              "roślinny",
              "bentonitowy"
            ]
          },
          {
            "name": "Właściwości",
            "type": "Multiple",
            "values": [
              "antybakteryjny",
              "bezpyłowy",
              "bezzapachowy",
              "drobnoziarnisty",
              "gruboziarnisty",
              "ekologiczny",
              "niezbrylający"
            ]
          },
          {
            "name": "Producent",
            "type": "Multiple",
            "values": [
              "Benek",
              "Cat's best",
              "Tigerino",
              "Biokats",
              "Catsan",
              "Classic by Bitbita",
              "Extreme Classic",
              "Golden Grey",
              "Greenwoods",
              "Nature's Calling",
              "Nullodor",
              "Professional Clasic",
              "Sanicat Professional",
              "World's Best",
              "Aristocat",
              "Jrs"
            ]
          },
          {
            "name": "Trening",
            "type": "Multiple",
            "values": [
              "odstraszacz dla kota",
              "spray przeciwko drapaniu",
              "przyciągający kota",
              "spray walerianowy",
              "spray zachęcający",
              "kocimiętka"
            ]
          },
          {
            "name": "Zabawki",
            "type": "Multiple",
            "values": [
              "pluszaki ",
              "piłki",
              "zabawki interaktywne",
              "wędki ",
              "drapaki",
              "tunele",
              "gryzaki",
              "sznurki",
              "do rzucania",
              "kule i kołowrotki",
              "kryjówki",
              "hamaki",
              "plac zabaw",
              "lusterka",
              "wodne",
              "edukacyjne",
              "myszki",
              "lasery",
              "światełka",
              "catit",
              "huśtawki",
              "drabinka",
              "pojnik",
              "lęgowiska",
              "gniazdko"
            ]
          },
          {
            "name": "Materiał",
            "type": "Multiple",
            "values": [
              "sizal",
              "nylon",
              "plusz",
              "szeleszczący",
              "guma",
              "drewno",
              "pióra",
              "futro",
              "grzechoczący",
              "wiklina",
              "drut",
              "juta",
              "materiał",
              "plastik",
              "konopie",
              "siano",
              "bawełna",
              "kokos",
              "akryl",
              "kamień",
              "tektura",
              "bambus",
              "kukurydza"
            ]
          },
          {
            "name": "Zabezpieczenie",
            "type": "Multiple",
            "values": [
              "siatki",
              "kratki",
              "drzwiczki",
              "uchwyty"
            ]
          },
          {
            "name": "Buda",
            "type": "Multiple",
            "values": [
              "z dwuspadowym dachem",
              "z płaskim dachem",
              "z przedsionkiem",
              "ocieplanie"
            ]
          },
          {
            "name": "Klatka",
            "type": "Multiple",
            "values": [
              "dla papug",
              "dla ptaków",
              "dla kanarków"
            ]
          },
          {
            "name": "Kształt",
            "type": "Multiple",
            "values": [
              "kwadratowy",
              "narożny",
              "okrągły",
              "owalny",
              "prostokątny",
              "inny"
            ]
          },
          {
            "name": "Oczko wodne",
            "type": "Multiple",
            "values": [
              "wentylator",
              "wkład kokosowy",
              "moduł ścienny",
              "wkład gąbkowy",
              "zestaw dysz",
              "zestaw uszczelek ",
              "sterylizator",
              "filtr do stawów",
              "pompa fontannowa",
              "filtr ciśnieniowy",
              "odmulacz",
              "siatka do stawów",
              "czyścik",
              "uzdatniacz wody",
              "preparat antyglonowy",
              "zraszacz"
            ]
          }
        ]
      },
      {
        "name": "Vouchery",
        "pos": 7,
        "level": 1,
        "ogDescription": "",
        "metaTitle": "Vouchery - Zwierzęta",
        "metaDescription": "",
        "description": ""
      }
    ],
    "properties": [
      {
        "name": "Wiek",
        "type": "Multiple",
        "values": [
          "junior",
          "dorosły",
          "senior"
        ]
      }
    ]
  }
}